{
    "type": "minecraft:crafting_shaped",
    "pattern": [
        "#GA",
        "#GA",
        "CCC"
    ],
    "key": {
        "#": {
            "item": "minecraft:diorite"
        },
        "G": {
            "item": "minecraft:granite"
        },
        "A": {
            "item": "minecraft:andesite"
        },
        "C": {
            "item": "minecraft:charcoal"
        }
    },
    "result": {
        "item": "minecraft:iron_block",
        "count": 1
    }
}