{
    "condition": "minecraft:location_check",
    "predicate": {
        "dimension": "overworld",
        "position": {
            "x": {
                "min": 1422,
                "max": 1427
            },
            "y": {
                "min": 114,
                "max": 120
            },
            "z": {
                "min": 10139,
                "max": 10146
            }
        }
    }
}