function utils:free_items/reset
function utils:free_items/calc_cooldown
function utils:free_items/click
tellraw @s [{"text":"\n\n\n\n\n\n"},{"text":"\u2581\u2582\u2583\u2584\u2585\u2586\u2587\u2588\u2593\u2592\u2591","color":"dark_aqua"},{"text":"Make a choice","bold":true,"color":"white"},{"text":"\u2591\u2592\u2593\u2588\u2587\u2586\u2585\u2584\u2583\u2582\u2581","color":"dark_aqua"}]
scoreboard players set @s freeItemCooldown 400
function utils:free_items/set_cooldown
tellraw @s[scores={reputation=0..}] [{"text":"","clickEvent":{"action":"run_command","value":"/trigger trgFreeItem set 121605"},"extra":[{"text":"\u1455\u1368\u25ba ","bold":true,"color":"gold"},{"text":"Cookie","underlined":true,"color":"yellow"},{"text":" \u27f2 ","bold":true,"color":"gold"},{"score":{"name":"@s","objective":"freeItemSecs"},"color":"aqua","bold":false},{"text":"s","bold":true,"color":"dark_aqua"},{"text":" \u25c4\u1368\u1450","bold":true,"color":"gold"}],"hoverEvent":{"value":"{Count:1b,id:cookie,tag:{display:{Lore:['{\"text\":\"Click to get this bonus\",\"color\":\"white\",\"italic\":true}','[{\"text\":\"Base cooldown: \",\"italic\":false,\"color\":\"gray\"},{\"text\":\"20\",\"color\":\"aqua\",\"italic\":false},{\"text\":\" seconds\",\"color\":\"dark_aqua\",\"italic\":false}]']}}}","action":"show_item"}}]
execute unless score @s reputation matches 0.. unless score @s freeItemPeek matches 1.. run tellraw @s [{"color":"gray","text":"","extra":[{"text":"\u1455\u1368\u25ba ","bold":true},{"text":"Cookie ","bold":false,"obfuscated":false},{"text":" \u26a0 ","color":"dark_red","bold":false},{"text":"0","color":"green"},{"text":"\u2698 ","bold":true,"color":"dark_green"},{"text":"\u25c4\u1368\u1450","bold":true,"color":"gray"}],"hoverEvent":{"value":"{Count:1b,id:cookie,tag:{display:{Name:'{\"text\":Cookie,\"color\":\"gray\"}',Lore:['[{\"text\":\"\u26a0 \",\"color\":\"dark_red\",\"italic\":false},{\"text\":\"Requires \",\"color\":\"white\",\"italic\":false},{\"text\":\"0 \",\"color\":\"green\",\"italic\":false},{\"italic\":false,\"text\":\"\u2698\",\"color\":\"dark_green\",\"bold\":true},{\"italic\":false,\"text\":\"Reputation\",\"color\":\"dark_green\"}]']}}}","action":"show_item"}}]
execute unless score @s reputation matches 0.. if score @s freeItemPeek matches 1.. run tellraw @s [{"color":"gray","text":"","extra":[{"text":"\u1455\u1368\u25ba ","bold":true},{"text":"oCekio ","bold":false,"obfuscated":true},{"text":" \u26a0 ","color":"dark_red","bold":false},{"text":"0","color":"green"},{"text":"\u2698 ","bold":true,"color":"dark_green"},{"text":"\u25c4\u1368\u1450","bold":true,"color":"gray"}],"hoverEvent":{"value":"{id:enchanted_book,Count:1b,tag:{display:{Lore:['[{\"text\":\"\u26a0 \",\"color\":\"dark_red\",\"italic\":false},{\"text\":\"Requires \",\"color\":\"white\",\"italic\":false},{\"text\":\"0 \",\"color\":\"green\",\"italic\":false},{\"italic\":false,\"text\":\"\u2698\",\"color\":\"dark_green\",\"bold\":true},{\"italic\":false,\"text\":\"Reputation\",\"color\":\"dark_green\"}]'],Name:'{\"text\":\"Unknown\",\"color\":\"gray\",\"bold\":\"false\",\"italic\":false}'}}}","action":"show_item"}}]
execute unless score @s reputation matches 0.. unless score @s freeItemPeek matches 1.. run scoreboard players set @s freeItemPeek 1
scoreboard players set @s freeItemCooldown 500
function utils:free_items/set_cooldown
tellraw @s[scores={reputation=5..}] [{"text":"","clickEvent":{"action":"run_command","value":"/trigger trgFreeItem set 133215"},"extra":[{"text":"\u1455\u1368\u25ba ","bold":true,"color":"gold"},{"text":"Melon Slice","underlined":true,"color":"yellow"},{"text":" \u27f2 ","bold":true,"color":"gold"},{"score":{"name":"@s","objective":"freeItemSecs"},"color":"aqua","bold":false},{"text":"s","bold":true,"color":"dark_aqua"},{"text":" \u25c4\u1368\u1450","bold":true,"color":"gold"}],"hoverEvent":{"value":"{Count:1b,id:melon_slice,tag:{display:{Lore:['{\"text\":\"Click to get this bonus\",\"color\":\"white\",\"italic\":true}','[{\"text\":\"Base cooldown: \",\"italic\":false,\"color\":\"gray\"},{\"text\":\"25\",\"color\":\"aqua\",\"italic\":false},{\"text\":\" seconds\",\"color\":\"dark_aqua\",\"italic\":false}]']}}}","action":"show_item"}}]
execute unless score @s reputation matches 5.. unless score @s freeItemPeek matches 1.. run tellraw @s [{"color":"gray","text":"","extra":[{"text":"\u1455\u1368\u25ba ","bold":true},{"text":"Melon Slice ","bold":false,"obfuscated":false},{"text":" \u26a0 ","color":"dark_red","bold":false},{"text":"5","color":"green"},{"text":"\u2698 ","bold":true,"color":"dark_green"},{"text":"\u25c4\u1368\u1450","bold":true,"color":"gray"}],"hoverEvent":{"value":"{Count:1b,id:melon_slice,tag:{display:{Name:'{\"text\":Melon Slice,\"color\":\"gray\"}',Lore:['[{\"text\":\"\u26a0 \",\"color\":\"dark_red\",\"italic\":false},{\"text\":\"Requires \",\"color\":\"white\",\"italic\":false},{\"text\":\"5 \",\"color\":\"green\",\"italic\":false},{\"italic\":false,\"text\":\"\u2698\",\"color\":\"dark_green\",\"bold\":true},{\"italic\":false,\"text\":\"Reputation\",\"color\":\"dark_green\"}]']}}}","action":"show_item"}}]
execute unless score @s reputation matches 5.. if score @s freeItemPeek matches 1.. run tellraw @s [{"color":"gray","text":"","extra":[{"text":"\u1455\u1368\u25ba ","bold":true},{"text":"cllie oSMen ","bold":false,"obfuscated":true},{"text":" \u26a0 ","color":"dark_red","bold":false},{"text":"5","color":"green"},{"text":"\u2698 ","bold":true,"color":"dark_green"},{"text":"\u25c4\u1368\u1450","bold":true,"color":"gray"}],"hoverEvent":{"value":"{id:enchanted_book,Count:1b,tag:{display:{Lore:['[{\"text\":\"\u26a0 \",\"color\":\"dark_red\",\"italic\":false},{\"text\":\"Requires \",\"color\":\"white\",\"italic\":false},{\"text\":\"5 \",\"color\":\"green\",\"italic\":false},{\"italic\":false,\"text\":\"\u2698\",\"color\":\"dark_green\",\"bold\":true},{\"italic\":false,\"text\":\"Reputation\",\"color\":\"dark_green\"}]'],Name:'{\"text\":\"Unknown\",\"color\":\"gray\",\"bold\":\"false\",\"italic\":false}'}}}","action":"show_item"}}]
execute unless score @s reputation matches 5.. unless score @s freeItemPeek matches 1.. run scoreboard players set @s freeItemPeek 1
scoreboard players set @s freeItemCooldown 600
function utils:free_items/set_cooldown
tellraw @s[scores={reputation=10..}] [{"text":"","clickEvent":{"action":"run_command","value":"/trigger trgFreeItem set 142807"},"extra":[{"text":"\u1455\u1368\u25ba ","bold":true,"color":"gold"},{"text":"Cooked Chicken","underlined":true,"color":"yellow"},{"text":" \u27f2 ","bold":true,"color":"gold"},{"score":{"name":"@s","objective":"freeItemSecs"},"color":"aqua","bold":false},{"text":"s","bold":true,"color":"dark_aqua"},{"text":" \u25c4\u1368\u1450","bold":true,"color":"gold"}],"hoverEvent":{"value":"{Count:1b,id:cooked_chicken,tag:{display:{Lore:['{\"text\":\"Click to get this bonus\",\"color\":\"white\",\"italic\":true}','[{\"text\":\"Base cooldown: \",\"italic\":false,\"color\":\"gray\"},{\"text\":\"30\",\"color\":\"aqua\",\"italic\":false},{\"text\":\" seconds\",\"color\":\"dark_aqua\",\"italic\":false}]']}}}","action":"show_item"}}]
execute unless score @s reputation matches 10.. unless score @s freeItemPeek matches 1.. run tellraw @s [{"color":"gray","text":"","extra":[{"text":"\u1455\u1368\u25ba ","bold":true},{"text":"Cooked Chicken ","bold":false,"obfuscated":false},{"text":" \u26a0 ","color":"dark_red","bold":false},{"text":"10","color":"green"},{"text":"\u2698 ","bold":true,"color":"dark_green"},{"text":"\u25c4\u1368\u1450","bold":true,"color":"gray"}],"hoverEvent":{"value":"{Count:1b,id:cooked_chicken,tag:{display:{Name:'{\"text\":Cooked Chicken,\"color\":\"gray\"}',Lore:['[{\"text\":\"\u26a0 \",\"color\":\"dark_red\",\"italic\":false},{\"text\":\"Requires \",\"color\":\"white\",\"italic\":false},{\"text\":\"10 \",\"color\":\"green\",\"italic\":false},{\"italic\":false,\"text\":\"\u2698\",\"color\":\"dark_green\",\"bold\":true},{\"italic\":false,\"text\":\"Reputation\",\"color\":\"dark_green\"}]']}}}","action":"show_item"}}]
execute unless score @s reputation matches 10.. if score @s freeItemPeek matches 1.. run tellraw @s [{"color":"gray","text":"","extra":[{"text":"\u1455\u1368\u25ba ","bold":true},{"text":"decCnhkkoo Cei ","bold":false,"obfuscated":true},{"text":" \u26a0 ","color":"dark_red","bold":false},{"text":"10","color":"green"},{"text":"\u2698 ","bold":true,"color":"dark_green"},{"text":"\u25c4\u1368\u1450","bold":true,"color":"gray"}],"hoverEvent":{"value":"{id:enchanted_book,Count:1b,tag:{display:{Lore:['[{\"text\":\"\u26a0 \",\"color\":\"dark_red\",\"italic\":false},{\"text\":\"Requires \",\"color\":\"white\",\"italic\":false},{\"text\":\"10 \",\"color\":\"green\",\"italic\":false},{\"italic\":false,\"text\":\"\u2698\",\"color\":\"dark_green\",\"bold\":true},{\"italic\":false,\"text\":\"Reputation\",\"color\":\"dark_green\"}]'],Name:'{\"text\":\"Unknown\",\"color\":\"gray\",\"bold\":\"false\",\"italic\":false}'}}}","action":"show_item"}}]
execute unless score @s reputation matches 10.. unless score @s freeItemPeek matches 1.. run scoreboard players set @s freeItemPeek 1
scoreboard players set @s freeItemCooldown 700
function utils:free_items/set_cooldown
tellraw @s[scores={reputation=15..}] [{"text":"","clickEvent":{"action":"run_command","value":"/trigger trgFreeItem set 155186"},"extra":[{"text":"\u1455\u1368\u25ba ","bold":true,"color":"gold"},{"text":"Cooked Porkchop","underlined":true,"color":"yellow"},{"text":" \u27f2 ","bold":true,"color":"gold"},{"score":{"name":"@s","objective":"freeItemSecs"},"color":"aqua","bold":false},{"text":"s","bold":true,"color":"dark_aqua"},{"text":" \u25c4\u1368\u1450","bold":true,"color":"gold"}],"hoverEvent":{"value":"{Count:1b,id:cooked_porkchop,tag:{display:{Lore:['{\"text\":\"Click to get this bonus\",\"color\":\"white\",\"italic\":true}','[{\"text\":\"Base cooldown: \",\"italic\":false,\"color\":\"gray\"},{\"text\":\"35\",\"color\":\"aqua\",\"italic\":false},{\"text\":\" seconds\",\"color\":\"dark_aqua\",\"italic\":false}]']}}}","action":"show_item"}}]
execute unless score @s reputation matches 15.. unless score @s freeItemPeek matches 1.. run tellraw @s [{"color":"gray","text":"","extra":[{"text":"\u1455\u1368\u25ba ","bold":true},{"text":"Cooked Porkchop ","bold":false,"obfuscated":false},{"text":" \u26a0 ","color":"dark_red","bold":false},{"text":"15","color":"green"},{"text":"\u2698 ","bold":true,"color":"dark_green"},{"text":"\u25c4\u1368\u1450","bold":true,"color":"gray"}],"hoverEvent":{"value":"{Count:1b,id:cooked_porkchop,tag:{display:{Name:'{\"text\":Cooked Porkchop,\"color\":\"gray\"}',Lore:['[{\"text\":\"\u26a0 \",\"color\":\"dark_red\",\"italic\":false},{\"text\":\"Requires \",\"color\":\"white\",\"italic\":false},{\"text\":\"15 \",\"color\":\"green\",\"italic\":false},{\"italic\":false,\"text\":\"\u2698\",\"color\":\"dark_green\",\"bold\":true},{\"italic\":false,\"text\":\"Reputation\",\"color\":\"dark_green\"}]']}}}","action":"show_item"}}]
execute unless score @s reputation matches 15.. if score @s freeItemPeek matches 1.. run tellraw @s [{"color":"gray","text":"","extra":[{"text":"\u1455\u1368\u25ba ","bold":true},{"text":"kookd eocorpChP ","bold":false,"obfuscated":true},{"text":" \u26a0 ","color":"dark_red","bold":false},{"text":"15","color":"green"},{"text":"\u2698 ","bold":true,"color":"dark_green"},{"text":"\u25c4\u1368\u1450","bold":true,"color":"gray"}],"hoverEvent":{"value":"{id:enchanted_book,Count:1b,tag:{display:{Lore:['[{\"text\":\"\u26a0 \",\"color\":\"dark_red\",\"italic\":false},{\"text\":\"Requires \",\"color\":\"white\",\"italic\":false},{\"text\":\"15 \",\"color\":\"green\",\"italic\":false},{\"italic\":false,\"text\":\"\u2698\",\"color\":\"dark_green\",\"bold\":true},{\"italic\":false,\"text\":\"Reputation\",\"color\":\"dark_green\"}]'],Name:'{\"text\":\"Unknown\",\"color\":\"gray\",\"bold\":\"false\",\"italic\":false}'}}}","action":"show_item"}}]
execute unless score @s reputation matches 15.. unless score @s freeItemPeek matches 1.. run scoreboard players set @s freeItemPeek 1
scoreboard players set @s freeItemCooldown 800
function utils:free_items/set_cooldown
tellraw @s[scores={reputation=20..}] [{"text":"","clickEvent":{"action":"run_command","value":"/trigger trgFreeItem set 165896"},"extra":[{"text":"\u1455\u1368\u25ba ","bold":true,"color":"gold"},{"text":"Rabbit Stew","underlined":true,"color":"yellow"},{"text":" \u27f2 ","bold":true,"color":"gold"},{"score":{"name":"@s","objective":"freeItemSecs"},"color":"aqua","bold":false},{"text":"s","bold":true,"color":"dark_aqua"},{"text":" \u25c4\u1368\u1450","bold":true,"color":"gold"}],"hoverEvent":{"value":"{Count:1b,id:rabbit_stew,tag:{display:{Lore:['{\"text\":\"Click to get this bonus\",\"color\":\"white\",\"italic\":true}','[{\"text\":\"Base cooldown: \",\"italic\":false,\"color\":\"gray\"},{\"text\":\"40\",\"color\":\"aqua\",\"italic\":false},{\"text\":\" seconds\",\"color\":\"dark_aqua\",\"italic\":false}]']}}}","action":"show_item"}}]
execute unless score @s reputation matches 20.. unless score @s freeItemPeek matches 1.. run tellraw @s [{"color":"gray","text":"","extra":[{"text":"\u1455\u1368\u25ba ","bold":true},{"text":"Rabbit Stew ","bold":false,"obfuscated":false},{"text":" \u26a0 ","color":"dark_red","bold":false},{"text":"20","color":"green"},{"text":"\u2698 ","bold":true,"color":"dark_green"},{"text":"\u25c4\u1368\u1450","bold":true,"color":"gray"}],"hoverEvent":{"value":"{Count:1b,id:rabbit_stew,tag:{display:{Name:'{\"text\":Rabbit Stew,\"color\":\"gray\"}',Lore:['[{\"text\":\"\u26a0 \",\"color\":\"dark_red\",\"italic\":false},{\"text\":\"Requires \",\"color\":\"white\",\"italic\":false},{\"text\":\"20 \",\"color\":\"green\",\"italic\":false},{\"italic\":false,\"text\":\"\u2698\",\"color\":\"dark_green\",\"bold\":true},{\"italic\":false,\"text\":\"Reputation\",\"color\":\"dark_green\"}]']}}}","action":"show_item"}}]
execute unless score @s reputation matches 20.. if score @s freeItemPeek matches 1.. run tellraw @s [{"color":"gray","text":"","extra":[{"text":"\u1455\u1368\u25ba ","bold":true},{"text":"wRt bbSeait ","bold":false,"obfuscated":true},{"text":" \u26a0 ","color":"dark_red","bold":false},{"text":"20","color":"green"},{"text":"\u2698 ","bold":true,"color":"dark_green"},{"text":"\u25c4\u1368\u1450","bold":true,"color":"gray"}],"hoverEvent":{"value":"{id:enchanted_book,Count:1b,tag:{display:{Lore:['[{\"text\":\"\u26a0 \",\"color\":\"dark_red\",\"italic\":false},{\"text\":\"Requires \",\"color\":\"white\",\"italic\":false},{\"text\":\"20 \",\"color\":\"green\",\"italic\":false},{\"italic\":false,\"text\":\"\u2698\",\"color\":\"dark_green\",\"bold\":true},{\"italic\":false,\"text\":\"Reputation\",\"color\":\"dark_green\"}]'],Name:'{\"text\":\"Unknown\",\"color\":\"gray\",\"bold\":\"false\",\"italic\":false}'}}}","action":"show_item"}}]
execute unless score @s reputation matches 20.. unless score @s freeItemPeek matches 1.. run scoreboard players set @s freeItemPeek 1
scoreboard players set @s freeItemCooldown 900
function utils:free_items/set_cooldown
tellraw @s[scores={reputation=25..}] [{"text":"","clickEvent":{"action":"run_command","value":"/trigger trgFreeItem set 170261"},"extra":[{"text":"\u1455\u1368\u25ba ","bold":true,"color":"gold"},{"text":"Nourishing Stew","underlined":true,"color":"yellow"},{"text":" \u27f2 ","bold":true,"color":"gold"},{"score":{"name":"@s","objective":"freeItemSecs"},"color":"aqua","bold":false},{"text":"s","bold":true,"color":"dark_aqua"},{"text":" \u25c4\u1368\u1450","bold":true,"color":"gold"}],"hoverEvent":{"value":"{id:suspicious_stew,Count:1b,tag:{display:{Lore:['{\"text\":\"Click to get this bonus\",\"color\":\"white\",\"italic\":true}','[{\"text\":\"Base cooldown: \",\"italic\":false,\"color\":\"gray\"},{\"text\":\"45\",\"color\":\"aqua\",\"italic\":false},{\"text\":\" seconds\",\"color\":\"dark_aqua\",\"italic\":false}]'],Name:'{\"text\":\"Nourishing Stew\",\"italic\":false,\"color\":\"light_purple\"}'},Effects:[{EffectId:6,EffectDuration:160},{EffectId:8,EffectDuration:60}]}}","action":"show_item"}}]
execute unless score @s reputation matches 25.. unless score @s freeItemPeek matches 1.. run tellraw @s [{"color":"gray","text":"","extra":[{"text":"\u1455\u1368\u25ba ","bold":true},{"text":"Nourishing Stew ","bold":false,"obfuscated":false},{"text":" \u26a0 ","color":"dark_red","bold":false},{"text":"25","color":"green"},{"text":"\u2698 ","bold":true,"color":"dark_green"},{"text":"\u25c4\u1368\u1450","bold":true,"color":"gray"}],"hoverEvent":{"value":"{id:suspicious_stew,Count:1b,tag:{display:{Lore:['[{\"text\":\"\u26a0 \",\"color\":\"dark_red\",\"italic\":false},{\"text\":\"Requires \",\"color\":\"white\",\"italic\":false},{\"text\":\"25 \",\"color\":\"green\",\"italic\":false},{\"italic\":false,\"text\":\"\u2698\",\"color\":\"dark_green\",\"bold\":true},{\"italic\":false,\"text\":\"Reputation\",\"color\":\"dark_green\"}]'],Name:'{\"text\":\"Nourishing Stew\",\"italic\":false,\"color\":\"gray\"}'},Effects:[{EffectId:6,EffectDuration:160},{EffectId:8,EffectDuration:60}]}}","action":"show_item"}}]
execute unless score @s reputation matches 25.. if score @s freeItemPeek matches 1.. run tellraw @s [{"color":"gray","text":"","extra":[{"text":"\u1455\u1368\u25ba ","bold":true},{"text":"rNetwsnoh Sgiiu ","bold":false,"obfuscated":true},{"text":" \u26a0 ","color":"dark_red","bold":false},{"text":"25","color":"green"},{"text":"\u2698 ","bold":true,"color":"dark_green"},{"text":"\u25c4\u1368\u1450","bold":true,"color":"gray"}],"hoverEvent":{"value":"{id:enchanted_book,Count:1b,tag:{display:{Lore:['[{\"text\":\"\u26a0 \",\"color\":\"dark_red\",\"italic\":false},{\"text\":\"Requires \",\"color\":\"white\",\"italic\":false},{\"text\":\"25 \",\"color\":\"green\",\"italic\":false},{\"italic\":false,\"text\":\"\u2698\",\"color\":\"dark_green\",\"bold\":true},{\"italic\":false,\"text\":\"Reputation\",\"color\":\"dark_green\"}]'],Name:'{\"text\":\"Unknown\",\"color\":\"gray\",\"bold\":\"false\",\"italic\":false}'}}}","action":"show_item"}}]
execute unless score @s reputation matches 25.. unless score @s freeItemPeek matches 1.. run scoreboard players set @s freeItemPeek 1
tellraw @s [{"text":"\u2588\u2588\u2588\u2588\u2588\u2588\u2593\u2593\u2593\u2593\u2592\u2592\u2592\u2592\u2591\u2591\u2591\u2591\u2592\u2592\u2592\u2592\u2593\u2593\u2593\u2593\u2588\u2588\u2588\u2588\u2588\u2588","color":"dark_aqua"}]