#define tag visitSaphireHotel
title @s subtitle {"text":"Location discovered","color":"white"}
title @s title {"text":"Sapphire Hotel","bold":true,"color":"yellow"}
playsound block.end_portal.spawn player @s ~ ~ ~ 4
tag @s add visitSaphireHotel
function quests:sapphire_hotel/spawn
function quests:sapphire_hotel/chests