scoreboard players set @s bm1_3d_sel 1
execute as @e[tag=bm1_3d_mtss] if score @s bm1_global_id = @p bm1_global_id run scoreboard players set @s bm1_3d_sel 1
function buildmodeone:3d_editor/settings/page2
playsound minecraft:ui.button.click master @s ~ ~ ~ .2 1.3 .2