#define tag visitExampleton
title @s subtitle {"text":"Location discovered","color":"white"}
title @s title {"text":"Exampleton","bold":true,"color":"green"}
playsound block.end_portal.spawn player @s ~ ~ ~ 4
function quests:exampleton/chests
tag @s add visitExampleton

