#define tag visitGleamsville
execute at @s run function discover:village/common
title @s title {"text":"Gleamsville","bold":true,"color":"green"}
function discover:village/init
tag @s add visitGleamsville