#define tag visitHangingHills
execute at @s run function discover:village/common
title @s title {"text":"Hanging Hills","bold":true,"color":"green"}
function discover:village/init
tag @s add visitHangingHills