#define tag visitSandyHaven
execute at @s run function discover:village/common
title @s title {"text":"Sandy Haven","bold":true,"color":"green"}
function discover:village/init
tag @s add visitSandyHaven