#define tag visitSnakeShrine
execute at @s run function discover:village/common
title @s title {"text":"Snake Shrine","bold":true,"color":"green"}
function discover:village/init
tag @s add visitSnakeShrine