#define tag visitSprucewood
execute at @s run function discover:village/common
title @s title {"text":"Sprucewood Creek","bold":true,"color":"green"}
function discover:village/init
tag @s add visitSprucewood