{
  "show_toast:":"false",
  "announce_to_chat":"false",
  "hidden":"true",
  "rewards": {
    "function": "warpbook:give_warp_book"
  },
  "criteria": {
    "has_the_recipe": {
      "trigger": "minecraft:recipe_unlocked",
      "conditions": {
        "recipe": "warpbook:impossible_mwb"
      }
    }
  },
  "requirements": [
    [
      "has_the_recipe"
    ]
  ]
}