fill 833 98 10270 777 101 10327 nether_quartz_ore replace barrel[facing=up]
fill 833 98 10270 777 101 10327 iron_ore replace barrel[facing=west]
fill 833 98 10270 777 101 10327 gold_ore replace barrel[facing=south]
fill 833 98 10270 777 101 10327 coal_ore replace barrel[facing=east]
fill 833 98 10270 777 101 10327 diamond_ore replace barrel[facing=north]
kill @e[type=item,x=775,y=98,z=10268,dx=60,dy=4,dz=60]
fill 833 98 10270 777 101 10327 barrel[facing=up]{LootTable:"chests:common/any_33"} replace diamond_ore
fill 833 98 10270 777 101 10327 barrel[facing=west]{LootTable:"chests:common/any_33"} replace coal_ore
fill 833 98 10270 777 101 10327 barrel[facing=south]{LootTable:"chests:common/any_33"} replace nether_quartz_ore
fill 833 98 10270 777 101 10327 barrel[facing=east]{LootTable:"chests:common/any_33"} replace gold_ore
fill 833 98 10270 777 101 10327 barrel[facing=north]{LootTable:"chests:common/any_33"} replace iron_ore