execute store result score #warpbook:init.temp dummy if block 20202021 0 20202020 #minecraft:signs
execute if score #warpbook:init.temp dummy matches 0 run tellraw @a ["",{"text":"Hello Everyone!","color":"aqua"},{"text":"\n"},{"text":"This is a message from the developer of \"","color":"yellow"},{"text":"Warp Books","color":"gold"},{"text":"\" Datapack.","color":"yellow"},{"text":"\n"},{"text":"If you are getting this on world load, it's because you are running my datapack on version 1.14.x\nThat's not a bad sign, but sadly, because of that you need to do 1 step that can't be automated in this version.","color":"dark_aqua"},{"text":"\n"},{"text":"Please, to complete this step ","color":"aqua"},{"text":"click on this message by being OP.","underlined":true,"color":"aqua","clickEvent":{"action":"run_command","value":"/forceload add 20202020 20202020"},"hoverEvent":{"action":"show_text","value":"Click into this message to run the command."}},{"text":"\n"},{"text":"After that, we only need a quick ","color":"yellow"},{"text":"/reload","color":"gold","clickEvent":{"action":"run_command","value":"/reload"},"hoverEvent":{"action":"show_text","value":"Click here to /reload."}},{"text":" so we can set everything up.\n","color":"yellow"},{"text":"Please ","color":"yellow","clickEvent":{"action":"run_command","value":"/reload"},"hoverEvent":{"action":"show_text","value":"Click here to run /reload"}},{"text":"click here","underlined":true,"color":"gold","clickEvent":{"action":"run_command","value":"/reload"},"hoverEvent":{"action":"show_text","value":"Click here to run /reload"}},{"text":" to /reload or run ","color":"yellow","clickEvent":{"action":"run_command","value":"/reload"},"hoverEvent":{"action":"show_text","value":"Click here to run /reload"}},{"text":"/reload","color":"gold","clickEvent":{"action":"run_command","value":"/reload"},"hoverEvent":{"action":"show_text","value":"Click here to run /reload"}},{"text":" in chat.","color":"yellow","clickEvent":{"action":"run_command","value":"/reload"},"hoverEvent":{"action":"show_text","value":"Click here to run /reload"}}]
execute if score #warpbook:init.temp dummy matches 0 run scoreboard players set #warpbook:init dummy 0
function warpbook:1.15/load
