# get entities
tag @s add bm1_3d_mpa
execute as @e[tag=bm1_3d_mtps] if score @s bm1_global_id = @a[tag=bm1_3d_mpa,limit=1] bm1_global_id run tag @s add bm1_3d_mpa
execute as @e[tag=bm1_3d_mtss] if score @s bm1_global_id = @a[tag=bm1_3d_mpa,limit=1] bm1_global_id run tag @s add bm1_3d_mpa

tp @e[tag=bm1_3d_mtss,tag=bm1_3d_mpa] ~ ~10 ~
tp @e[tag=bm1_3d_mtps,tag=bm1_3d_mpa] ~ ~10 ~

tag @e[tag=bm1_3d_mpa] remove bm1_3d_mpa

function buildmodeone:3d_editor/addons/litemode/reminder/schedule