#define tag ex_underground_passage
function utils:secret
execute positioned 19 61 8687 run function mobs:summon/undead_archer
execute positioned 14 61 8695 run function mobs:summon/undead_warrior
tag @s add ex_underground_passage