fill ~ 60 ~ ~15 150 ~15 air replace minecraft:birch_leaves[persistent=false]
fill ~ 60 ~ ~15 150 ~15 air replace minecraft:birch_log
fill ~ 60 ~ ~15 150 ~15 air replace minecraft:oak_leaves[persistent=false]
fill ~ 60 ~ ~15 150 ~15 air replace minecraft:oak_log
execute positioned ~ 55 ~ run function trees:flower/handlelayer
execute positioned ~ 56 ~ run function trees:flower/handlelayer
execute positioned ~ 57 ~ run function trees:flower/handlelayer
execute positioned ~ 58 ~ run function trees:flower/handlelayer
execute positioned ~ 59 ~ run function trees:flower/handlelayer
execute positioned ~ 60 ~ run function trees:flower/handlelayer
execute positioned ~ 61 ~ run function trees:flower/handlelayer
execute positioned ~ 62 ~ run function trees:flower/handlelayer
execute positioned ~ 63 ~ run function trees:flower/handlelayer
execute positioned ~ 64 ~ run function trees:flower/handlelayer
execute positioned ~ 65 ~ run function trees:flower/handlelayer
execute positioned ~ 66 ~ run function trees:flower/handlelayer
execute positioned ~ 67 ~ run function trees:flower/handlelayer
execute positioned ~ 68 ~ run function trees:flower/handlelayer
execute positioned ~ 69 ~ run function trees:flower/handlelayer
execute positioned ~ 70 ~ run function trees:flower/handlelayer
execute positioned ~ 71 ~ run function trees:flower/handlelayer
execute positioned ~ 72 ~ run function trees:flower/handlelayer
execute positioned ~ 73 ~ run function trees:flower/handlelayer
execute positioned ~ 74 ~ run function trees:flower/handlelayer
execute positioned ~ 75 ~ run function trees:flower/handlelayer
execute positioned ~ 76 ~ run function trees:flower/handlelayer
execute positioned ~ 77 ~ run function trees:flower/handlelayer
execute positioned ~ 78 ~ run function trees:flower/handlelayer
execute positioned ~ 79 ~ run function trees:flower/handlelayer
execute positioned ~ 80 ~ run function trees:flower/handlelayer
execute positioned ~ 81 ~ run function trees:flower/handlelayer
execute positioned ~ 82 ~ run function trees:flower/handlelayer
execute positioned ~ 83 ~ run function trees:flower/handlelayer
execute positioned ~ 84 ~ run function trees:flower/handlelayer
execute positioned ~ 85 ~ run function trees:flower/handlelayer
execute positioned ~ 86 ~ run function trees:flower/handlelayer
execute positioned ~ 87 ~ run function trees:flower/handlelayer
execute positioned ~ 88 ~ run function trees:flower/handlelayer
execute positioned ~ 89 ~ run function trees:flower/handlelayer
execute positioned ~ 90 ~ run function trees:flower/handlelayer
execute positioned ~ 91 ~ run function trees:flower/handlelayer
execute positioned ~ 92 ~ run function trees:flower/handlelayer
execute positioned ~ 93 ~ run function trees:flower/handlelayer
execute positioned ~ 94 ~ run function trees:flower/handlelayer
execute positioned ~ 95 ~ run function trees:flower/handlelayer
execute positioned ~ 96 ~ run function trees:flower/handlelayer
execute positioned ~ 97 ~ run function trees:flower/handlelayer
execute positioned ~ 98 ~ run function trees:flower/handlelayer
execute positioned ~ 99 ~ run function trees:flower/handlelayer
execute positioned ~ 100 ~ run function trees:flower/handlelayer
execute positioned ~ 101 ~ run function trees:flower/handlelayer
execute positioned ~ 102 ~ run function trees:flower/handlelayer
execute positioned ~ 103 ~ run function trees:flower/handlelayer
execute positioned ~ 104 ~ run function trees:flower/handlelayer
execute positioned ~ 105 ~ run function trees:flower/handlelayer
execute positioned ~ 106 ~ run function trees:flower/handlelayer
execute positioned ~ 107 ~ run function trees:flower/handlelayer
execute positioned ~ 108 ~ run function trees:flower/handlelayer
execute positioned ~ 109 ~ run function trees:flower/handlelayer
