function utils:free_items/reset
function utils:free_items/calc_cooldown
function utils:free_items/click
tellraw @s [{"text":"\n\n\n\n\n\n"},{"text":"\u2581\u2582\u2583\u2584\u2585\u2586\u2587\u2588\u2593\u2592\u2591","color":"dark_aqua"},{"text":"Make a choice","bold":true,"color":"white"},{"text":"\u2591\u2592\u2593\u2588\u2587\u2586\u2585\u2584\u2583\u2582\u2581","color":"dark_aqua"}]
scoreboard players set @s freeItemCooldown 400
function utils:free_items/set_cooldown
tellraw @s[scores={reputation=0..}] [{"text":"","clickEvent":{"action":"run_command","value":"/trigger trgFreeItem set 184031"},"extra":[{"text":"\u1455\u1368\u25ba ","bold":true,"color":"gold"},{"text":"Stick","underlined":true,"color":"yellow"},{"text":" \u27f2 ","bold":true,"color":"gold"},{"score":{"name":"@s","objective":"freeItemSecs"},"color":"aqua","bold":false},{"text":"s","bold":true,"color":"dark_aqua"},{"text":" \u25c4\u1368\u1450","bold":true,"color":"gold"}],"hoverEvent":{"value":"{Count:1b,id:stick,tag:{display:{Lore:['{\"text\":\"Click to get this bonus\",\"color\":\"white\",\"italic\":true}','[{\"text\":\"Base cooldown: \",\"italic\":false,\"color\":\"gray\"},{\"text\":\"20\",\"color\":\"aqua\",\"italic\":false},{\"text\":\" seconds\",\"color\":\"dark_aqua\",\"italic\":false}]']}}}","action":"show_item"}}]
execute unless score @s reputation matches 0.. unless score @s freeItemPeek matches 1.. run tellraw @s [{"color":"gray","text":"","extra":[{"text":"\u1455\u1368\u25ba ","bold":true},{"text":"Stick ","bold":false,"obfuscated":false},{"text":" \u26a0 ","color":"dark_red","bold":false},{"text":"0","color":"green"},{"text":"\u2698 ","bold":true,"color":"dark_green"},{"text":"\u25c4\u1368\u1450","bold":true,"color":"gray"}],"hoverEvent":{"value":"{Count:1b,id:stick,tag:{display:{Name:'{\"text\":Stick,\"color\":\"gray\"}',Lore:['[{\"text\":\"\u26a0 \",\"color\":\"dark_red\",\"italic\":false},{\"text\":\"Requires \",\"color\":\"white\",\"italic\":false},{\"text\":\"0 \",\"color\":\"green\",\"italic\":false},{\"italic\":false,\"text\":\"\u2698\",\"color\":\"dark_green\",\"bold\":true},{\"italic\":false,\"text\":\"Reputation\",\"color\":\"dark_green\"}]']}}}","action":"show_item"}}]
execute unless score @s reputation matches 0.. if score @s freeItemPeek matches 1.. run tellraw @s [{"color":"gray","text":"","extra":[{"text":"\u1455\u1368\u25ba ","bold":true},{"text":"Sickt ","bold":false,"obfuscated":true},{"text":" \u26a0 ","color":"dark_red","bold":false},{"text":"0","color":"green"},{"text":"\u2698 ","bold":true,"color":"dark_green"},{"text":"\u25c4\u1368\u1450","bold":true,"color":"gray"}],"hoverEvent":{"value":"{id:enchanted_book,Count:1b,tag:{display:{Lore:['[{\"text\":\"\u26a0 \",\"color\":\"dark_red\",\"italic\":false},{\"text\":\"Requires \",\"color\":\"white\",\"italic\":false},{\"text\":\"0 \",\"color\":\"green\",\"italic\":false},{\"italic\":false,\"text\":\"\u2698\",\"color\":\"dark_green\",\"bold\":true},{\"italic\":false,\"text\":\"Reputation\",\"color\":\"dark_green\"}]'],Name:'{\"text\":\"Unknown\",\"color\":\"gray\",\"bold\":\"false\",\"italic\":false}'}}}","action":"show_item"}}]
execute unless score @s reputation matches 0.. unless score @s freeItemPeek matches 1.. run scoreboard players set @s freeItemPeek 1
scoreboard players set @s freeItemCooldown 500
function utils:free_items/set_cooldown
tellraw @s[scores={reputation=5..}] [{"text":"","clickEvent":{"action":"run_command","value":"/trigger trgFreeItem set 193384"},"extra":[{"text":"\u1455\u1368\u25ba ","bold":true,"color":"gold"},{"text":"Bowl","underlined":true,"color":"yellow"},{"text":" \u27f2 ","bold":true,"color":"gold"},{"score":{"name":"@s","objective":"freeItemSecs"},"color":"aqua","bold":false},{"text":"s","bold":true,"color":"dark_aqua"},{"text":" \u25c4\u1368\u1450","bold":true,"color":"gold"}],"hoverEvent":{"value":"{Count:1b,id:bowl,tag:{display:{Lore:['{\"text\":\"Click to get this bonus\",\"color\":\"white\",\"italic\":true}','[{\"text\":\"Base cooldown: \",\"italic\":false,\"color\":\"gray\"},{\"text\":\"25\",\"color\":\"aqua\",\"italic\":false},{\"text\":\" seconds\",\"color\":\"dark_aqua\",\"italic\":false}]']}}}","action":"show_item"}}]
execute unless score @s reputation matches 5.. unless score @s freeItemPeek matches 1.. run tellraw @s [{"color":"gray","text":"","extra":[{"text":"\u1455\u1368\u25ba ","bold":true},{"text":"Bowl ","bold":false,"obfuscated":false},{"text":" \u26a0 ","color":"dark_red","bold":false},{"text":"5","color":"green"},{"text":"\u2698 ","bold":true,"color":"dark_green"},{"text":"\u25c4\u1368\u1450","bold":true,"color":"gray"}],"hoverEvent":{"value":"{Count:1b,id:bowl,tag:{display:{Name:'{\"text\":Bowl,\"color\":\"gray\"}',Lore:['[{\"text\":\"\u26a0 \",\"color\":\"dark_red\",\"italic\":false},{\"text\":\"Requires \",\"color\":\"white\",\"italic\":false},{\"text\":\"5 \",\"color\":\"green\",\"italic\":false},{\"italic\":false,\"text\":\"\u2698\",\"color\":\"dark_green\",\"bold\":true},{\"italic\":false,\"text\":\"Reputation\",\"color\":\"dark_green\"}]']}}}","action":"show_item"}}]
execute unless score @s reputation matches 5.. if score @s freeItemPeek matches 1.. run tellraw @s [{"color":"gray","text":"","extra":[{"text":"\u1455\u1368\u25ba ","bold":true},{"text":"wBlo ","bold":false,"obfuscated":true},{"text":" \u26a0 ","color":"dark_red","bold":false},{"text":"5","color":"green"},{"text":"\u2698 ","bold":true,"color":"dark_green"},{"text":"\u25c4\u1368\u1450","bold":true,"color":"gray"}],"hoverEvent":{"value":"{id:enchanted_book,Count:1b,tag:{display:{Lore:['[{\"text\":\"\u26a0 \",\"color\":\"dark_red\",\"italic\":false},{\"text\":\"Requires \",\"color\":\"white\",\"italic\":false},{\"text\":\"5 \",\"color\":\"green\",\"italic\":false},{\"italic\":false,\"text\":\"\u2698\",\"color\":\"dark_green\",\"bold\":true},{\"italic\":false,\"text\":\"Reputation\",\"color\":\"dark_green\"}]'],Name:'{\"text\":\"Unknown\",\"color\":\"gray\",\"bold\":\"false\",\"italic\":false}'}}}","action":"show_item"}}]
execute unless score @s reputation matches 5.. unless score @s freeItemPeek matches 1.. run scoreboard players set @s freeItemPeek 1
scoreboard players set @s freeItemCooldown 600
function utils:free_items/set_cooldown
tellraw @s[scores={reputation=10..}] [{"text":"","clickEvent":{"action":"run_command","value":"/trigger trgFreeItem set 202673"},"extra":[{"text":"\u1455\u1368\u25ba ","bold":true,"color":"gold"},{"text":"Charcoal","underlined":true,"color":"yellow"},{"text":" \u27f2 ","bold":true,"color":"gold"},{"score":{"name":"@s","objective":"freeItemSecs"},"color":"aqua","bold":false},{"text":"s","bold":true,"color":"dark_aqua"},{"text":" \u25c4\u1368\u1450","bold":true,"color":"gold"}],"hoverEvent":{"value":"{Count:1b,id:charcoal,tag:{display:{Lore:['{\"text\":\"Click to get this bonus\",\"color\":\"white\",\"italic\":true}','[{\"text\":\"Base cooldown: \",\"italic\":false,\"color\":\"gray\"},{\"text\":\"30\",\"color\":\"aqua\",\"italic\":false},{\"text\":\" seconds\",\"color\":\"dark_aqua\",\"italic\":false}]']}}}","action":"show_item"}}]
execute unless score @s reputation matches 10.. unless score @s freeItemPeek matches 1.. run tellraw @s [{"color":"gray","text":"","extra":[{"text":"\u1455\u1368\u25ba ","bold":true},{"text":"Charcoal ","bold":false,"obfuscated":false},{"text":" \u26a0 ","color":"dark_red","bold":false},{"text":"10","color":"green"},{"text":"\u2698 ","bold":true,"color":"dark_green"},{"text":"\u25c4\u1368\u1450","bold":true,"color":"gray"}],"hoverEvent":{"value":"{Count:1b,id:charcoal,tag:{display:{Name:'{\"text\":Charcoal,\"color\":\"gray\"}',Lore:['[{\"text\":\"\u26a0 \",\"color\":\"dark_red\",\"italic\":false},{\"text\":\"Requires \",\"color\":\"white\",\"italic\":false},{\"text\":\"10 \",\"color\":\"green\",\"italic\":false},{\"italic\":false,\"text\":\"\u2698\",\"color\":\"dark_green\",\"bold\":true},{\"italic\":false,\"text\":\"Reputation\",\"color\":\"dark_green\"}]']}}}","action":"show_item"}}]
execute unless score @s reputation matches 10.. if score @s freeItemPeek matches 1.. run tellraw @s [{"color":"gray","text":"","extra":[{"text":"\u1455\u1368\u25ba ","bold":true},{"text":"arclhCao ","bold":false,"obfuscated":true},{"text":" \u26a0 ","color":"dark_red","bold":false},{"text":"10","color":"green"},{"text":"\u2698 ","bold":true,"color":"dark_green"},{"text":"\u25c4\u1368\u1450","bold":true,"color":"gray"}],"hoverEvent":{"value":"{id:enchanted_book,Count:1b,tag:{display:{Lore:['[{\"text\":\"\u26a0 \",\"color\":\"dark_red\",\"italic\":false},{\"text\":\"Requires \",\"color\":\"white\",\"italic\":false},{\"text\":\"10 \",\"color\":\"green\",\"italic\":false},{\"italic\":false,\"text\":\"\u2698\",\"color\":\"dark_green\",\"bold\":true},{\"italic\":false,\"text\":\"Reputation\",\"color\":\"dark_green\"}]'],Name:'{\"text\":\"Unknown\",\"color\":\"gray\",\"bold\":\"false\",\"italic\":false}'}}}","action":"show_item"}}]
execute unless score @s reputation matches 10.. unless score @s freeItemPeek matches 1.. run scoreboard players set @s freeItemPeek 1
scoreboard players set @s freeItemCooldown 800
function utils:free_items/set_cooldown
tellraw @s[scores={reputation=15..}] [{"text":"","clickEvent":{"action":"run_command","value":"/trigger trgFreeItem set 214184"},"extra":[{"text":"\u1455\u1368\u25ba ","bold":true,"color":"gold"},{"text":"Dried Kelp Block","underlined":true,"color":"yellow"},{"text":" \u27f2 ","bold":true,"color":"gold"},{"score":{"name":"@s","objective":"freeItemSecs"},"color":"aqua","bold":false},{"text":"s","bold":true,"color":"dark_aqua"},{"text":" \u25c4\u1368\u1450","bold":true,"color":"gold"}],"hoverEvent":{"value":"{Count:1b,id:dried_kelp_block,tag:{display:{Lore:['{\"text\":\"Click to get this bonus\",\"color\":\"white\",\"italic\":true}','[{\"text\":\"Base cooldown: \",\"italic\":false,\"color\":\"gray\"},{\"text\":\"40\",\"color\":\"aqua\",\"italic\":false},{\"text\":\" seconds\",\"color\":\"dark_aqua\",\"italic\":false}]']}}}","action":"show_item"}}]
execute unless score @s reputation matches 15.. unless score @s freeItemPeek matches 1.. run tellraw @s [{"color":"gray","text":"","extra":[{"text":"\u1455\u1368\u25ba ","bold":true},{"text":"Dried Kelp Block ","bold":false,"obfuscated":false},{"text":" \u26a0 ","color":"dark_red","bold":false},{"text":"15","color":"green"},{"text":"\u2698 ","bold":true,"color":"dark_green"},{"text":"\u25c4\u1368\u1450","bold":true,"color":"gray"}],"hoverEvent":{"value":"{Count:1b,id:dried_kelp_block,tag:{display:{Name:'{\"text\":Dried Kelp Block,\"color\":\"gray\"}',Lore:['[{\"text\":\"\u26a0 \",\"color\":\"dark_red\",\"italic\":false},{\"text\":\"Requires \",\"color\":\"white\",\"italic\":false},{\"text\":\"15 \",\"color\":\"green\",\"italic\":false},{\"italic\":false,\"text\":\"\u2698\",\"color\":\"dark_green\",\"bold\":true},{\"italic\":false,\"text\":\"Reputation\",\"color\":\"dark_green\"}]']}}}","action":"show_item"}}]
execute unless score @s reputation matches 15.. if score @s freeItemPeek matches 1.. run tellraw @s [{"color":"gray","text":"","extra":[{"text":"\u1455\u1368\u25ba ","bold":true},{"text":"BcklreKd oipelD ","bold":false,"obfuscated":true},{"text":" \u26a0 ","color":"dark_red","bold":false},{"text":"15","color":"green"},{"text":"\u2698 ","bold":true,"color":"dark_green"},{"text":"\u25c4\u1368\u1450","bold":true,"color":"gray"}],"hoverEvent":{"value":"{id:enchanted_book,Count:1b,tag:{display:{Lore:['[{\"text\":\"\u26a0 \",\"color\":\"dark_red\",\"italic\":false},{\"text\":\"Requires \",\"color\":\"white\",\"italic\":false},{\"text\":\"15 \",\"color\":\"green\",\"italic\":false},{\"italic\":false,\"text\":\"\u2698\",\"color\":\"dark_green\",\"bold\":true},{\"italic\":false,\"text\":\"Reputation\",\"color\":\"dark_green\"}]'],Name:'{\"text\":\"Unknown\",\"color\":\"gray\",\"bold\":\"false\",\"italic\":false}'}}}","action":"show_item"}}]
execute unless score @s reputation matches 15.. unless score @s freeItemPeek matches 1.. run scoreboard players set @s freeItemPeek 1
scoreboard players set @s freeItemCooldown 1000
function utils:free_items/set_cooldown
tellraw @s[scores={reputation=20..}] [{"text":"","clickEvent":{"action":"run_command","value":"/trigger trgFreeItem set 223793"},"extra":[{"text":"\u1455\u1368\u25ba ","bold":true,"color":"gold"},{"text":"Lava Bucket","underlined":true,"color":"yellow"},{"text":" \u27f2 ","bold":true,"color":"gold"},{"score":{"name":"@s","objective":"freeItemSecs"},"color":"aqua","bold":false},{"text":"s","bold":true,"color":"dark_aqua"},{"text":" \u25c4\u1368\u1450","bold":true,"color":"gold"}],"hoverEvent":{"value":"{Count:1b,id:lava_bucket,tag:{display:{Lore:['{\"text\":\"Click to get this bonus\",\"color\":\"white\",\"italic\":true}','[{\"text\":\"Base cooldown: \",\"italic\":false,\"color\":\"gray\"},{\"text\":\"50\",\"color\":\"aqua\",\"italic\":false},{\"text\":\" seconds\",\"color\":\"dark_aqua\",\"italic\":false}]']}}}","action":"show_item"}}]
execute unless score @s reputation matches 20.. unless score @s freeItemPeek matches 1.. run tellraw @s [{"color":"gray","text":"","extra":[{"text":"\u1455\u1368\u25ba ","bold":true},{"text":"Lava Bucket ","bold":false,"obfuscated":false},{"text":" \u26a0 ","color":"dark_red","bold":false},{"text":"20","color":"green"},{"text":"\u2698 ","bold":true,"color":"dark_green"},{"text":"\u25c4\u1368\u1450","bold":true,"color":"gray"}],"hoverEvent":{"value":"{Count:1b,id:lava_bucket,tag:{display:{Name:'{\"text\":Lava Bucket,\"color\":\"gray\"}',Lore:['[{\"text\":\"\u26a0 \",\"color\":\"dark_red\",\"italic\":false},{\"text\":\"Requires \",\"color\":\"white\",\"italic\":false},{\"text\":\"20 \",\"color\":\"green\",\"italic\":false},{\"italic\":false,\"text\":\"\u2698\",\"color\":\"dark_green\",\"bold\":true},{\"italic\":false,\"text\":\"Reputation\",\"color\":\"dark_green\"}]']}}}","action":"show_item"}}]
execute unless score @s reputation matches 20.. if score @s freeItemPeek matches 1.. run tellraw @s [{"color":"gray","text":"","extra":[{"text":"\u1455\u1368\u25ba ","bold":true},{"text":"tBLuv akcae ","bold":false,"obfuscated":true},{"text":" \u26a0 ","color":"dark_red","bold":false},{"text":"20","color":"green"},{"text":"\u2698 ","bold":true,"color":"dark_green"},{"text":"\u25c4\u1368\u1450","bold":true,"color":"gray"}],"hoverEvent":{"value":"{id:enchanted_book,Count:1b,tag:{display:{Lore:['[{\"text\":\"\u26a0 \",\"color\":\"dark_red\",\"italic\":false},{\"text\":\"Requires \",\"color\":\"white\",\"italic\":false},{\"text\":\"20 \",\"color\":\"green\",\"italic\":false},{\"italic\":false,\"text\":\"\u2698\",\"color\":\"dark_green\",\"bold\":true},{\"italic\":false,\"text\":\"Reputation\",\"color\":\"dark_green\"}]'],Name:'{\"text\":\"Unknown\",\"color\":\"gray\",\"bold\":\"false\",\"italic\":false}'}}}","action":"show_item"}}]
execute unless score @s reputation matches 20.. unless score @s freeItemPeek matches 1.. run scoreboard players set @s freeItemPeek 1
scoreboard players set @s freeItemCooldown 1200
function utils:free_items/set_cooldown
tellraw @s[scores={reputation=25..}] [{"text":"","clickEvent":{"action":"run_command","value":"/trigger trgFreeItem set 236433"},"extra":[{"text":"\u1455\u1368\u25ba ","bold":true,"color":"gold"},{"text":"Coal Block","underlined":true,"color":"yellow"},{"text":" \u27f2 ","bold":true,"color":"gold"},{"score":{"name":"@s","objective":"freeItemSecs"},"color":"aqua","bold":false},{"text":"s","bold":true,"color":"dark_aqua"},{"text":" \u25c4\u1368\u1450","bold":true,"color":"gold"}],"hoverEvent":{"value":"{Count:1b,id:coal_block,tag:{display:{Lore:['{\"text\":\"Click to get this bonus\",\"color\":\"white\",\"italic\":true}','[{\"text\":\"Base cooldown: \",\"italic\":false,\"color\":\"gray\"},{\"text\":\"60\",\"color\":\"aqua\",\"italic\":false},{\"text\":\" seconds\",\"color\":\"dark_aqua\",\"italic\":false}]']}}}","action":"show_item"}}]
execute unless score @s reputation matches 25.. unless score @s freeItemPeek matches 1.. run tellraw @s [{"color":"gray","text":"","extra":[{"text":"\u1455\u1368\u25ba ","bold":true},{"text":"Coal Block ","bold":false,"obfuscated":false},{"text":" \u26a0 ","color":"dark_red","bold":false},{"text":"25","color":"green"},{"text":"\u2698 ","bold":true,"color":"dark_green"},{"text":"\u25c4\u1368\u1450","bold":true,"color":"gray"}],"hoverEvent":{"value":"{Count:1b,id:coal_block,tag:{display:{Name:'{\"text\":Coal Block,\"color\":\"gray\"}',Lore:['[{\"text\":\"\u26a0 \",\"color\":\"dark_red\",\"italic\":false},{\"text\":\"Requires \",\"color\":\"white\",\"italic\":false},{\"text\":\"25 \",\"color\":\"green\",\"italic\":false},{\"italic\":false,\"text\":\"\u2698\",\"color\":\"dark_green\",\"bold\":true},{\"italic\":false,\"text\":\"Reputation\",\"color\":\"dark_green\"}]']}}}","action":"show_item"}}]
execute unless score @s reputation matches 25.. if score @s freeItemPeek matches 1.. run tellraw @s [{"color":"gray","text":"","extra":[{"text":"\u1455\u1368\u25ba ","bold":true},{"text":"l lCBookac ","bold":false,"obfuscated":true},{"text":" \u26a0 ","color":"dark_red","bold":false},{"text":"25","color":"green"},{"text":"\u2698 ","bold":true,"color":"dark_green"},{"text":"\u25c4\u1368\u1450","bold":true,"color":"gray"}],"hoverEvent":{"value":"{id:enchanted_book,Count:1b,tag:{display:{Lore:['[{\"text\":\"\u26a0 \",\"color\":\"dark_red\",\"italic\":false},{\"text\":\"Requires \",\"color\":\"white\",\"italic\":false},{\"text\":\"25 \",\"color\":\"green\",\"italic\":false},{\"italic\":false,\"text\":\"\u2698\",\"color\":\"dark_green\",\"bold\":true},{\"italic\":false,\"text\":\"Reputation\",\"color\":\"dark_green\"}]'],Name:'{\"text\":\"Unknown\",\"color\":\"gray\",\"bold\":\"false\",\"italic\":false}'}}}","action":"show_item"}}]
execute unless score @s reputation matches 25.. unless score @s freeItemPeek matches 1.. run scoreboard players set @s freeItemPeek 1
tellraw @s [{"text":"\u2588\u2588\u2588\u2588\u2588\u2588\u2593\u2593\u2593\u2593\u2592\u2592\u2592\u2592\u2591\u2591\u2591\u2591\u2592\u2592\u2592\u2592\u2593\u2593\u2593\u2593\u2588\u2588\u2588\u2588\u2588\u2588","color":"dark_aqua"}]