{
  "condition": "minecraft:alternative",
  "terms": [
    {
      "condition": "minecraft:location_check",
      "predicate": {
        "position": {
          "y": {
            "min": 1,
            "max": 24
          }
        },
        "biome": "minecraft:ocean"
      }
    },
    {
      "condition": "minecraft:location_check",
      "predicate": {
        "position": {
          "y": {
            "min": 1,
            "max": 24
          }
        },
        "biome": "minecraft:deep_ocean"
      }
    },
    {
      "condition": "minecraft:location_check",
      "predicate": {
        "position": {
          "y": {
            "min": 1,
            "max": 24
          }
        },
        "biome": "minecraft:cold_ocean"
      }
    },
    {
      "condition": "minecraft:location_check",
      "predicate": {
        "position": {
          "y": {
            "min": 1,
            "max": 24
          }
        },
        "biome": "minecraft:deep_cold_ocean"
      }
    },
    {
      "condition": "minecraft:location_check",
      "predicate": {
        "position": {
          "y": {
            "min": 1,
            "max": 24
          }
        },
        "biome": "minecraft:deep_warm_ocean"
      }
    },
    {
      "condition": "minecraft:location_check",
      "predicate": {
        "position": {
          "y": {
            "min": 1,
            "max": 24
          }
        },
        "biome": "minecraft:deep_frozen_ocean"
      }
    },
    {
      "condition": "minecraft:location_check",
      "predicate": {
        "position": {
          "y": {
            "min": 1,
            "max": 24
          }
        },
        "biome": "minecraft:deep_lukewarm_ocean"
      }
    }
  ]
}