clear @s minecraft:glowstone_dust{q_sh_dust:"1"} 1
function utils:clone_quest_chest
title @s subtitle ["",{"text":"Find ","color":"white"},{"text":"Radioactive Dust","color":"green"}]
function utils:quest_complete
scoreboard players add @s reputation 2
scoreboard players set @s q_sh_dust 3