scoreboard players set @s bm1_3d_items_inv 0
function buildmodeone:3d_editor/tutorial/start
replaceitem entity @a inventory.18 minecraft:air
replaceitem entity @a inventory.19 minecraft:air
replaceitem entity @a inventory.20 minecraft:air