#define score_holder #countdown
scoreboard players set @s timerTicks 0
scoreboard players set @s timerMinutes 0
scoreboard players set @s timerSeconds 0
scoreboard players set @s timerBlink 0
scoreboard players set #countdown timerBlink 4
scoreboard players set #countdown timerTicks 5
scoreboard players set #countdown timerMinutes 1200
scoreboard players set #countdown timerSeconds 20
function utils:timer/calc