function buildmodeone:3d_editor/main/optimize
playsound minecraft:ui.button.click master @s ~ ~ ~ .2 1 0.2
tellraw @s ["", {"text": ""}]
tellraw @s ["", {"text": ""}]
tellraw @s ["", {"text": ""}]
tellraw @s ["", {"text": ""}]
tellraw @s ["", {"text": ""}]
tellraw @s ["", {"text": ""}]
tellraw @s ["", {"text": ""}]

tellraw @s ["", {"text": "\u00A7m                                                                                ", "color": "dark_gray"}]
tellraw @s ["", {"text": "                                   Chat GUI", "color": "white"}]
tellraw @s ["", {"text": "\u00A7m                                                                                ", "color": "dark_gray"}]

tellraw @s ["", {"text": ">> ", "color": "aqua"}, {"text": "Finish:", "color": "white", "bold": true}]
tellraw @s ["", {"text": ""}]
tellraw @s ["", {"text": "    "}, {"text": "- ", "color": "gray"},{"text": "Optimize", "color": "red", "clickEvent": {"action": "run_command", "value": "/function buildmodeone:3d_editor/cgui/finish_opt"}}]
tellraw @s ["", {"text": "    "}, {"text": "- ", "color": "gray"}, {"text": "Finish", "color": "dark_green", "clickEvent": {"action": "run_command", "value": "/function buildmodeone:3d_editor/main/finish"}}]
tellraw @s ["", {"text": ""}]
tellraw @s ["", {"text": "    "}, {"text": "- ", "color": "gray"}, {"text": "Remove", "color": "dark_red", "clickEvent": {"action": "run_command", "value": "/function buildmodeone:3d_editor/main/remove"}}]
tellraw @s ["", {"text": ""}]
tellraw @s ["", {"text": ">> Note: ", "color": "green"}, {"text": "Deleted ", "color": "gray", "bold":false}, {"score": {"name": "@e[tag=bm1_3d_vars,limit=1] ", "objective": "bm1_3d_entityC"}, "color": "red", "bold":false}, {"text": " entities!", "color": "gray", "bold":false}]
tellraw @s ["", {"text": ""}]
tellraw @s ["", {"text": ""}]
tellraw @s ["", {"text": ""}]
tellraw @s ["", {"text": ""}]
tellraw @s ["", {"text": ""}]
tellraw @s ["", {"text": ""}]
tellraw @s ["", {"text": "\u00A7m                                                                                ", "color": "dark_gray"}]
tellraw @s ["", {"text": " "}, {"text": "Position", "color": "gray", "bold": false, "clickEvent": {"action": "run_command", "value": "/function buildmodeone:3d_editor/cgui/position_click"}}, {"text": " - ", "color": "dark_gray"}, {"text": "Models", "color": "gray", "bold": false, "clickEvent": {"action": "run_command", "value": "/function buildmodeone:3d_editor/cgui/models"}}, {"text": " - ", "color": "dark_gray"}, {"text": "Quickplace", "color": "gray", "bold": false, "clickEvent": {"action": "run_command", "value": "/function buildmodeone:3d_editor/cgui/quickplace"}}, {"text": " - ", "color": "dark_gray"}, {"text": "Rotation", "color": "gray", "bold": false, "clickEvent": {"action": "run_command", "value": "/function buildmodeone:3d_editor/cgui/rotation"}}, {"text": " - ", "color": "dark_gray"}, {"text": "Blocktype", "color": "gray", "bold": false, "clickEvent": {"action": "run_command", "value": "/function buildmodeone:3d_editor/cgui/blocktype"}}, {"text": " - ", "color": "dark_gray"}, {"text": "Finish", "color": "white", "bold": false, "clickEvent": {"action": "run_command", "value": "/function buildmodeone:3d_editor/cgui/finish"}}]
tellraw @s ["", {"text": "\u00A7m                                                                                ", "color": "dark_gray"}]
