tellraw @s ["", {"text": ""}]
tellraw @s ["", {"text": ""}]
tellraw @s ["", {"text": ""}]
tellraw @s ["", {"text": ""}]
tellraw @s ["", {"text": ""}]
tellraw @s ["", {"text": ""}]
tellraw @s ["", {"text": ""}]
tellraw @s ["", {"text": ""}]
tellraw @s ["", {"text": ""}]



tellraw @s ["", {"text": "\u00A7m                                                                                ", "color": "dark_gray"}]
tellraw @s ["", {"text": "                             3D Editor Datapack", "color": "white"}]
function buildmodeone:3d_editor/settings/version
tellraw @s ["", {"text": "\u00A7m                                                                                ", "color": "dark_gray"}]

tellraw @s ["", {"text": ""}]
# Show menu
tellraw @s ["", {"text": ">> ", "color": "aqua", "clickEvent": {"action": "run_command", "value": "/function buildmodeone:3d_editor/cgui/position"}}, {"text": "Open Chat-GUI", "color": "gray", "clickEvent": {"action": "run_command", "value": "/function buildmodeone:3d_editor/cgui/position"}}]
# tellraw @s ["", {"text": ""}]
# Settings
tellraw @s ["", {"text": ">> ", "color": "aqua", "clickEvent": {"action": "run_command", "value": "/function buildmodeone:3d_editor/settings/page1"}}, {"text": "Settings", "color": "gray", "clickEvent": {"action": "run_command", "value": "/function buildmodeone:3d_editor/settings/page1"}}]
tellraw @s ["", {"text": ""}]

# Suggest
tellraw @s ["", {"text": ">> ", "color": "gold", "clickEvent": {"action": "open_url", "value": "https://forms.gle/xmwBAFckEzQmWWnM8"}}, {"text": "Suggest Model", "color": "gray", "clickEvent": {"action": "open_url", "value": "https://forms.gle/xmwBAFckEzQmWWnM8"}}]

# YT Channel
tellraw @s ["", {"text": ">> ", "color": "red", "clickEvent": {"action": "open_url", "value": "https://www.youtube.com/buildmodeone/"}}, {"text": "Youtube Channel", "color": "gray", "clickEvent": {"action": "open_url", "value": "https://www.youtube.com/buildmodeone/"}}]

# Bug Report
tellraw @s ["", {"text": ">> ", "color": "green", "clickEvent": {"action": "open_url", "value": "https://www.paypal.me/philippoph"}}, {"text": "Donate ", "color": "gray", "clickEvent": {"action": "open_url", "value": "https://www.paypal.me/philippoph"}}, {"text": "❤", "color": "green", "clickEvent": {"action": "open_url", "value": "https://www.paypal.me/philippoph"}}]

tellraw @s ["", {"text": ""}]

tellraw @s ["", {"text": "\u00A7m                                                                                ", "color": "dark_gray"}]