{
  "type": "entity",
  "pools": [
    {
      "rolls": 1,
      "entries": [
        {
          "type": "item",
          "name": "minecraft:written_book",
          "weight": 1,
          "functions": [
            {
              "function": "minecraft:copy_nbt",
              "source": "this",
              "ops": [
                {
                  "source": "Pos",
                  "target": "Pos",
                  "op": "replace"
                },
                {
                  "source": "Rotation",
                  "target": "Rotation",
                  "op": "replace"
                },
                {
                  "source": "Dimension",
                  "target": "Dimension",
                  "op": "replace"
                }
              ]
            },
            {
              "function": "set_name",
              "name": [
                {
                  "text": "Warp Book",
                  "italic": false
                }
              ]
            },
            {
              "function": "set_nbt",
              "tag": "{wb:1b,Enchantments:[{lvl:1s,id:\"\"}],pages:['[\"\",{\"text\":\"Warp Book\n\",\"bold\":true,\"color\":\"dark_aqua\"},{\"text\":\"\nDrop me to teleport.\",\"color\":\"light_purple\"},{\"text\":\"\n\nIf I\\'m in a lectern, right click me to teleport\",\"color\":\"light_purple\"}]'],title:\"Warp Book\",author:\"\"}"
            },
            {
              "function": "set_lore",
              "lore": [
                {
                  "text": "Drop This Book to Teleport to it's Location",
                  "color": "aqua"
                },
                [
                  {
                    "text": "Sneak-Drop this book to drop it",
                    "color": "aqua"
                  }
                ],
                [
                  {
                    "text": ""
                  }
                ],
                [
                  {
                    "text": "X: ",
                    "color": "green"
                  },
                  {
                    "nbt": "Pos[0]",
                    "entity": "@p",
                    "color": "gold"
                  }
                ],
                [
                  {
                    "text": "Y: ",
                    "color": "green"
                  },
                  {
                    "nbt": "Pos[1]",
                    "entity": "@p",
                    "color": "gold"
                  }
                ],
                [
                  {
                    "text": "Z: ",
                    "color": "green"
                  },
                  {
                    "nbt": "Pos[2]",
                    "entity": "@p",
                    "color": "gold"
                  }
                ],
                [
                  {
                    "text": ""
                  }
                ],
                [
                  {
                    "text": "Dimension: ",
                    "color": "green"
                  },
                  {
                    "nbt": "Dimension",
                    "entity": "@p",
                    "color": "red"
                  }
                ]
              ],
              "entity": "this",
              "replace": "true"
            }
          ]
        }
      ]
    }
  ]
}