playsound minecraft:ui.button.click master @s ~ ~ ~ .2 1.3 .2
function buildmodeone:3d_editor/addons/invitems/clear
scoreboard players set @s bm1_3d_inv_slot 3
function buildmodeone:3d_editor/settings/page3