tag @s add q_op_bones_complete
function utils:clone_quest_chest
title @s subtitle ["",{"text":"Parade your ","color":"white","bold":false},{"text":"Enchanted Bone Armor","color":"gold","bold": true}]
function utils:quest_complete
scoreboard players add @s reputation 2
