scoreboard players set @s q_op_bone_blocks 0
execute as @e[type=villager,tag=ex_blacksmith] at @s run function quests:exampleton/vendors/blacksmith
tellraw @s ["",{"text":"Blacksmith: ","color":"dark_aqua"},{"text": "Oh, I see, you're looking to put these magic bones to use... You could try crafting each 9 of them to ingots, and those into a chestplate the same way as with ores and leather, but you'll need a really sturdy material to hold up the composite, ores won't do... Terrestrial ores, I mean, but I have some surplus of ","color":"gray","italic": true},{"text":"Elerium","color":"yellow"},{"text":", and if you manage to break in ","color":"gray","italic": true},{"text": "The Refinery","color":"yellow","bold": true},{"text":", chances are you can smelt it to crystals.","color":"gray","italic": true}]
tellraw @s ["",{"text":"Blacksmith: ","color":"dark_aqua"},{"color":"gray","italic": true,"text": "So, if you manage to do so, you then use it in the chestplate recipe instead of bone ingot, and if you happen to have an extra "},{"text":"Enchanted Bone","color":"dark_aqua","italic": true},{"text":", put it in the free top middle slot for a collar. I've written the recipe down in case you forget!","color":"gray","italic": true}]
function utils:quest_step
function quests:notify/q_op_bones