function utils:clone_quest_chest
title @s subtitle ["",{"text":"Craft "},{"text":"30","color":"green"},{"text":" End Stone Bricks","color":"dark_aqua"}]
function utils:quest_complete
scoreboard players add @s reputation 2
tag @s add q_hh_end_stone_complete
