clear @s minecraft:book{q_ss_blueprint:"1"} 1
function utils:clone_quest_chest
title @s subtitle ["",{"text":"Deliver the "},{"text":"Gateway Blueprint","color":"aqua"}]
function utils:quest_complete
scoreboard players add @s reputation 2
scoreboard players set @s q_ss_blueprint 2