#define objective q_emp_special "Emporium Special progress"
execute unless score @s q_emp_special matches 0.. run function utils:quest_new
execute unless score @s q_emp_special matches 0.. run scoreboard players set @s q_emp_special 0
function quests:notify/q_emp_special