function buildmodeone:3d_editor/addons/converter_cgui/run
function buildmodeone:3d_editor/converter/21to22/run
tellraw @s ["", {"text": ""}]
tellraw @s ["", {"text": ""}]
tellraw @s ["", {"text": ""}]
tellraw @s ["", {"text": ""}]
tellraw @s ["", {"text": ""}]
tellraw @s ["", {"text": ""}]
tellraw @s ["", {"text": ""}]

tellraw @s ["", {"text": "\u00A7m                                                                                ", "color": "dark_gray"}]
tellraw @s ["", {"text": "                            3D-Editor-Datapack", "color": "white"}]
function buildmodeone:3d_editor/settings/version
tellraw @s ["", {"text": "\u00A7m                                                                                ", "color": "dark_gray"}]
tellraw @s ["", {"text": ""}]
tellraw @s ["", {"text": ">> ", "color": "green"}, {"text": "Successfully updated the datapack!", "color": "gray"}]
tellraw @s ["", {"text": ">> ", "color": "green"}, {"text": "Automatically converted ", "color": "gray"}, {"score":{"name":"@e[tag=bm1_3d_vars]","objective":"bm1_3d_add_cov2"},"bold":true,"color":"green"}, {"text": " models to 2.1+ format!", "color": "gray"}]
tellraw @s ["", {"text": ""}]
tellraw @s ["", {"text": ">> ", "color": "gold"}, {"text": "Do you want to start the tutorial? ", "color": "white"}, {"text": "[Click here]", "bold": true, "color": "gold", "clickEvent":{"action": "run_command", "value": "/function buildmodeone:3d_editor/tutorial/start"}}]
tellraw @s ["", {"text": ""}]
tellraw @a ["", {"text": ">> ", "color": "gold"}, {"text": "Get started right away: ", "color": "gray"}, {"text":"[Get Items] ","color":"green","bold":true,"clickEvent":{"action":"run_command","value":"/trigger bm1_3d_items_trg"},"hoverEvent":{"action":"show_text","value":{"text":"","extra":[{"text":"/trigger bm1_3d_items_trg"}]}}}]
tellraw @s ["", {"text": ""}]
tellraw @s ["", {"text": ""}]
tellraw @s ["", {"text": ""}]
tellraw @s ["", {"text": ""}]
tellraw @s ["", {"text": "/!\\", "color": "gold", "bold": true, "underlined": true}, {"text": " Open the chat to read the whole message! ", "color": "white"}, {"text": "/!\\", "color": "gold", "bold": true, "underlined": true}]
tellraw @s ["", {"text": ""}]
tellraw @s ["", {"text": "\u00A7m                                                                                ", "color": "dark_gray"}]
tellraw @s ["", {"text": "                    Made by BuildmodeOne (pro_pixel_)", "clickEvent": {"action": "open_url", "value": "https://www.planetminecraft.com/member/buildmodeone/"}, "color": "gray"}]
tellraw @s ["", {"text": "\u00A7m                                                                                ", "color": "dark_gray"}]