{
    "type": "minecraft:generic",
    "pools": [
        {
            "rolls":1,
            "entries": [
                {
                    "type": "minecraft:item",
                    "name": "minecraft:lingering_potion",
                    "functions": [
                        {
                          "function": "minecraft:set_nbt",
                          "tag": "{HideFlags:35,Potion:\"minecraft:thick\",CustomPotionEffects:[{Id:2,Amplifier:9,Duration:100,Ambient:1b},{Id:7,Amplifier:4,ShowParticles:1b},{Id:6,Amplifier:4,ShowParticles:1b},{Id:15,Duration:100,Ambient:1b},{Id:20,Amplifier:3,Duration:100,Ambient:1b},{Id:24,Duration:200,Ambient:1b}],CustomPotionColor:13369599,display:{Name:'{\"text\":\"Plasma Grenade\",\"color\":\"aqua\",\"bold\":true,\"italic\":false}',Lore:['{\"text\":\"Immobilizes and highlights enemies\",\"color\":\"yellow\",\"italic\":false}','{\"text\":\"Deals heavy damage\",\"color\":\"yellow\",\"italic\": false}','{\"text\":\"Full health enemies take more damage\",\"color\":\"yellow\",\"italic\":false}']}}"
                        }
                      ]
                }
            ]
        }
    ]
}