function warpbook:1.16/mdiv/mainhand/main
function warpbook:1.16/mdiv/fix/enchantment/mwb
execute if score #fixed dummy matches 1 run function mdiv:apply/mainhand
function warpbook:1.16/mdiv/offhand/main
function warpbook:1.16/mdiv/fix/enchantment/mwb
execute if score #fixed dummy matches 1 run function mdiv:apply/offhand