
scoreboard players set @s bm1_3d_items_inv 0
function buildmodeone:3d_editor/settings/page1
function buildmodeone:3d_editor/sounds/disable
replaceitem entity @a inventory.18 minecraft:air
replaceitem entity @a inventory.19 minecraft:air
replaceitem entity @a inventory.20 minecraft:air