fill ~-4 ~ ~-4 ~4 ~15 ~4 air replace minecraft:oak_leaves[persistent=false]
fill ~-5 ~ ~-5 ~5 ~15 ~5 air replace minecraft:oak_log[axis=x]
fill ~-5 ~ ~-5 ~5 ~15 ~5 air replace minecraft:oak_log[axis=z]
fill ~ ~ ~ ~ ~15 ~ air replace oak_log
setblock ~ ~ ~ minecraft:structure_block{name:"trees:cherrybush",posX:-2,posY:0,posZ:-2,rotation:"NONE",mirror:"NONE",mode:"LOAD",integrity:0.75f} replace
setblock ~ ~1 ~ minecraft:redstone_block 
fill ~ ~ ~ ~ ~1 ~ dark_oak_log