function structures_crabmaster:randomizers/randomizer_1

execute if score Random RandomOne5556 matches 231..280 run summon minecraft:mooshroom

execute if score Random RandomOne5556 matches 281.. run kill @s

execute if score Random RandomOne5556 matches 0..230 run function cm_module_megamix:structures/mush_cave/plant_2

kill @s
