function structures_crabmaster:randomizers/randomizer_1

execute if score Random RandomOne5556 matches 0..600 run function cm_module_megamix:structures/nether_dungeon/start
execute if score Random RandomOne5556 matches 601..999 run function cm_module_megamix:structures/lava_cave/start


execute if score Random RandomOne5556 matches -1 run function cm_module_megamix:structures/empty