function structures_crabmaster:randomizers/randomizer_1

execute if score Random RandomOne5556 matches 0..850 run function cm_module_megamix:structures/nether_boat
execute if score Random RandomOne5556 matches 851..990 run function cm_module_megamix:structures/towers/nether_land
execute if score Random RandomOne5556 matches 991..999 run function cm_module_megamix:structures/rogue_portal_start


execute if score Random RandomOne5556 matches -1 run function cm_module_megamix:structures/empty