function structures_crabmaster:randomizers/randomizer_1

execute if score Random RandomOne5556 matches 0..250 run function cm_module_megamix:structures/ruins/basic_snow_fort_ruins


execute if score Random RandomOne5556 matches 450..999 run function structures_crabmaster:empty
execute if score Random RandomOne5556 matches -1 run function cm_module_megamix:structures/empty