function structures_crabmaster:randomizers/randomizer_1

execute if score Random RandomOne5556 matches 0..50 run function cm_module_megamix:structures/ruins/wagon_1
execute if score Random RandomOne5556 matches 51..150 run function cm_module_megamix:structures/towers/ocean

execute if score Random RandomOne5556 matches 400..999 run function structures_crabmaster:empty
execute if score Random RandomOne5556 matches -1 run function cm_module_megamix:structures/empty