function structures_crabmaster:randomizers/randomizer_1

execute if score Random RandomOne5556 matches 0..999 run function cm_module_megamix:structures/towers/village

execute if score Random RandomOne5556 matches -1 run function cm_module_megamix:structures/empty