function structures_crabmaster:randomizers/randomizer_1

execute if score Random RandomOne5556 matches 0..400 run function cm_module_megamix:structures/towers/village
execute if score Random RandomOne5556 matches 401..700 run function cm_module_megamix:structures/towers/odd
execute if score Random RandomOne5556 matches 701..900 run function cm_module_megamix:structures/towers/stone

execute if score Random RandomOne5556 matches 901..999 run function structures_crabmaster:empty
execute if score Random RandomOne5556 matches -1 run function cm_module_megamix:structures/empty