function structures_crabmaster:randomizers/randomizer_1

execute if score Random RandomOne5556 matches 0..400 run function cm_module_megamix:structures/towers/water
execute if score Random RandomOne5556 matches 401..700 run function cm_module_megamix:structures/towers/ocean
execute if score Random RandomOne5556 matches 701..900 run function cm_module_megamix:structures/villager_boat
execute if score Random RandomOne5556 matches 901..999 run function cm_module_megamix:structures/ruins/tower_water_ruins

execute if score Random RandomOne5556 matches -1 run function cm_module_megamix:structures/empty