function structures_crabmaster:randomizers/randomizer_1

execute if score Random RandomOne5556 matches 0..300 run function cm_module_megamix:structures/towers/grass
execute if score Random RandomOne5556 matches 301..600 run function cm_module_megamix:structures/palm_patch/start
execute if score Random RandomOne5556 matches 601..800 run function cm_module_megamix:structures/ruins/basic_fort_ruins
execute if score Random RandomOne5556 matches 801..900 run function cm_module_megamix:structures/basic_fort/basic_fort
execute if score Random RandomOne5556 matches 901..950 run function cm_module_megamix:structures/ruins/tower_stone_ruins
execute if score Random RandomOne5556 matches 951..980 run function cm_module_megamix:structures/palm_forest/start
execute if score Random RandomOne5556 matches 981..994 run function cm_module_megamix:structures/ore_tree
execute if score Random RandomOne5556 matches 995..999 run function cm_module_megamix:structures/mush_land/start


execute if score Random RandomOne5556 matches -1 run function cm_module_megamix:structures/empty