function structures_crabmaster:randomizers/randomizer_1

execute if score Random RandomOne5556 matches 0..250 run function cm_module_megamix:structures/towers/savanna
execute if score Random RandomOne5556 matches 251..450 run function cm_module_megamix:structures/ruins/tower_savanna_ruins
execute if score Random RandomOne5556 matches 451..600 run function cm_module_megamix:structures/big_skull_overworld_start
execute if score Random RandomOne5556 matches 601..700 run function cm_module_megamix:structures/towers/stone
execute if score Random RandomOne5556 matches 701..800 run function cm_module_megamix:structures/wagon_camp_start
execute if score Random RandomOne5556 matches 801..900 run function cm_module_megamix:structures/towers/wood
execute if score Random RandomOne5556 matches 901..999 run function cm_module_megamix:structures/deep_dungeon/start

execute if score Random RandomOne5556 matches -1 run function cm_module_megamix:structures/empty