function structures_crabmaster:randomizers/randomizer_1

execute if score Random RandomOne5556 matches 0..400 run function cm_module_megamix:structures/ruins/tower_snow_ruins
execute if score Random RandomOne5556 matches 401..800 run function cm_module_megamix:structures/ruins/tower_snow_stone_ruins
execute if score Random RandomOne5556 matches 801..900 run function cm_module_megamix:structures/towers/snow
execute if score Random RandomOne5556 matches 901..999 run function cm_module_megamix:structures/towers/snow_stone


execute if score Random RandomOne5556 matches -1 run function cm_module_megamix:structures/empty