function structures_crabmaster:randomizers/randomizer_1

execute if score Random RandomOne5556 matches 0..400 run function cm_module_megamix:structures/towers/terracotta
execute if score Random RandomOne5556 matches 401..600 run function cm_module_megamix:structures/ruins/tower_terracotta_ruins
execute if score Random RandomOne5556 matches 601..800 run function cm_module_megamix:structures/big_skull_overworld_start
execute if score Random RandomOne5556 matches 801..900 run function cm_module_megamix:structures/ruins/tower_red_ruins
execute if score Random RandomOne5556 matches 901..999 run function cm_module_megamix:structures/towers/red


execute if score Random RandomOne5556 matches -1 run function cm_module_megamix:structures/empty