clear @s minecraft:diamond{q_gleamsville:"diamond"} 1
function utils:clone_quest_chest
title @s subtitle ["",{"text":"Return "},{"text":"Gleamsville Family Diamond","color":"gold"}]
function utils:quest_complete
scoreboard players add @s reputation 1
scoreboard players set @s q_gv_diamond 2