clear @s minecraft:ghast_tear{q_gleamsville:"amulet"} 1
function utils:clone_quest_chest
title @s subtitle ["",{"text":"Return "},{"text":"Gleamsville Family Amulet","color":"gold"}]
function utils:quest_complete
scoreboard players add @s reputation 1
scoreboard players set @s q_gv_amulet 3