function utils:free_items/reset
function utils:free_items/calc_cooldown
function utils:free_items/click
tellraw @s [{"text":"\n\n\n\n\n\n"},{"text":"\u2581\u2582\u2583\u2584\u2585\u2586\u2587\u2588\u2593\u2592\u2591","color":"dark_aqua"},{"text":"Make a choice","bold":true,"color":"white"},{"text":"\u2591\u2592\u2593\u2588\u2587\u2586\u2585\u2584\u2583\u2582\u2581","color":"dark_aqua"}]
scoreboard players set @s freeItemCooldown 600
function utils:free_items/set_cooldown
tellraw @s[scores={reputation=0..}] [{"text":"","clickEvent":{"action":"run_command","value":"/trigger trgFreeItem set 320724"},"extra":[{"text":"\u1455\u1368\u25ba ","bold":true,"color":"gold"},{"text":"Arrow","underlined":true,"color":"yellow"},{"text":" \u27f2 ","bold":true,"color":"gold"},{"score":{"name":"@s","objective":"freeItemSecs"},"color":"aqua","bold":false},{"text":"s","bold":true,"color":"dark_aqua"},{"text":" \u25c4\u1368\u1450","bold":true,"color":"gold"}],"hoverEvent":{"value":"{Count:5b,id:arrow,tag:{display:{Lore:['{\"text\":\"Click to get this bonus\",\"color\":\"white\",\"italic\":true}','[{\"text\":\"Base cooldown: \",\"italic\":false,\"color\":\"gray\"},{\"text\":\"30\",\"color\":\"aqua\",\"italic\":false},{\"text\":\" seconds\",\"color\":\"dark_aqua\",\"italic\":false}]']}}}","action":"show_item"}}]
execute unless score @s reputation matches 0.. unless score @s freeItemPeek matches 1.. run tellraw @s [{"color":"gray","text":"","extra":[{"text":"\u1455\u1368\u25ba ","bold":true},{"text":"Arrow ","bold":false,"obfuscated":false},{"text":" \u26a0 ","color":"dark_red","bold":false},{"text":"0","color":"green"},{"text":"\u2698 ","bold":true,"color":"dark_green"},{"text":"\u25c4\u1368\u1450","bold":true,"color":"gray"}],"hoverEvent":{"value":"{Count:5b,id:arrow,tag:{display:{Name:'{\"text\":Arrow,\"color\":\"gray\"}',Lore:['[{\"text\":\"\u26a0 \",\"color\":\"dark_red\",\"italic\":false},{\"text\":\"Requires \",\"color\":\"white\",\"italic\":false},{\"text\":\"0 \",\"color\":\"green\",\"italic\":false},{\"italic\":false,\"text\":\"\u2698\",\"color\":\"dark_green\",\"bold\":true},{\"italic\":false,\"text\":\"Reputation\",\"color\":\"dark_green\"}]']}}}","action":"show_item"}}]
execute unless score @s reputation matches 0.. if score @s freeItemPeek matches 1.. run tellraw @s [{"color":"gray","text":"","extra":[{"text":"\u1455\u1368\u25ba ","bold":true},{"text":"wArro ","bold":false,"obfuscated":true},{"text":" \u26a0 ","color":"dark_red","bold":false},{"text":"0","color":"green"},{"text":"\u2698 ","bold":true,"color":"dark_green"},{"text":"\u25c4\u1368\u1450","bold":true,"color":"gray"}],"hoverEvent":{"value":"{id:enchanted_book,Count:1b,tag:{display:{Lore:['[{\"text\":\"\u26a0 \",\"color\":\"dark_red\",\"italic\":false},{\"text\":\"Requires \",\"color\":\"white\",\"italic\":false},{\"text\":\"0 \",\"color\":\"green\",\"italic\":false},{\"italic\":false,\"text\":\"\u2698\",\"color\":\"dark_green\",\"bold\":true},{\"italic\":false,\"text\":\"Reputation\",\"color\":\"dark_green\"}]'],Name:'{\"text\":\"Unknown\",\"color\":\"gray\",\"bold\":\"false\",\"italic\":false}'}}}","action":"show_item"}}]
execute unless score @s reputation matches 0.. unless score @s freeItemPeek matches 1.. run scoreboard players set @s freeItemPeek 1
scoreboard players set @s freeItemCooldown 600
function utils:free_items/set_cooldown
tellraw @s[scores={reputation=6..}] [{"text":"","clickEvent":{"action":"run_command","value":"/trigger trgFreeItem set 338846"},"extra":[{"text":"\u1455\u1368\u25ba ","bold":true,"color":"gold"},{"text":"Slowing Arrow","underlined":true,"color":"yellow"},{"text":" \u27f2 ","bold":true,"color":"gold"},{"score":{"name":"@s","objective":"freeItemSecs"},"color":"aqua","bold":false},{"text":"s","bold":true,"color":"dark_aqua"},{"text":" \u25c4\u1368\u1450","bold":true,"color":"gold"}],"hoverEvent":{"value":"{Count:3b,id:tipped_arrow,tag:{display:{Lore:['{\"text\":\"Click to get this bonus\",\"color\":\"white\",\"italic\":true}','[{\"text\":\"Base cooldown: \",\"italic\":false,\"color\":\"gray\"},{\"text\":\"30\",\"color\":\"aqua\",\"italic\":false},{\"text\":\" seconds\",\"color\":\"dark_aqua\",\"italic\":false}]']},Potion:\"minecraft:long_slowness\"}}","action":"show_item"}}]
execute unless score @s reputation matches 6.. unless score @s freeItemPeek matches 1.. run tellraw @s [{"color":"gray","text":"","extra":[{"text":"\u1455\u1368\u25ba ","bold":true},{"text":"Slowing Arrow ","bold":false,"obfuscated":false},{"text":" \u26a0 ","color":"dark_red","bold":false},{"text":"6","color":"green"},{"text":"\u2698 ","bold":true,"color":"dark_green"},{"text":"\u25c4\u1368\u1450","bold":true,"color":"gray"}],"hoverEvent":{"value":"{Count:3b,id:tipped_arrow,tag:{display:{Name:'{\"text\":Slowing Arrow,\"color\":\"gray\"}',Lore:['[{\"text\":\"\u26a0 \",\"color\":\"dark_red\",\"italic\":false},{\"text\":\"Requires \",\"color\":\"white\",\"italic\":false},{\"text\":\"6 \",\"color\":\"green\",\"italic\":false},{\"italic\":false,\"text\":\"\u2698\",\"color\":\"dark_green\",\"bold\":true},{\"italic\":false,\"text\":\"Reputation\",\"color\":\"dark_green\"}]']},Potion:\"minecraft:long_slowness\"}}","action":"show_item"}}]
execute unless score @s reputation matches 6.. if score @s freeItemPeek matches 1.. run tellraw @s [{"color":"gray","text":"","extra":[{"text":"\u1455\u1368\u25ba ","bold":true},{"text":"iwog ArlronSw ","bold":false,"obfuscated":true},{"text":" \u26a0 ","color":"dark_red","bold":false},{"text":"6","color":"green"},{"text":"\u2698 ","bold":true,"color":"dark_green"},{"text":"\u25c4\u1368\u1450","bold":true,"color":"gray"}],"hoverEvent":{"value":"{id:enchanted_book,Count:1b,tag:{display:{Lore:['[{\"text\":\"\u26a0 \",\"color\":\"dark_red\",\"italic\":false},{\"text\":\"Requires \",\"color\":\"white\",\"italic\":false},{\"text\":\"6 \",\"color\":\"green\",\"italic\":false},{\"italic\":false,\"text\":\"\u2698\",\"color\":\"dark_green\",\"bold\":true},{\"italic\":false,\"text\":\"Reputation\",\"color\":\"dark_green\"}]'],Name:'{\"text\":\"Unknown\",\"color\":\"gray\",\"bold\":\"false\",\"italic\":false}'}}}","action":"show_item"}}]
execute unless score @s reputation matches 6.. unless score @s freeItemPeek matches 1.. run scoreboard players set @s freeItemPeek 1
scoreboard players set @s freeItemCooldown 600
function utils:free_items/set_cooldown
tellraw @s[scores={reputation=12..}] [{"text":"","clickEvent":{"action":"run_command","value":"/trigger trgFreeItem set 344642"},"extra":[{"text":"\u1455\u1368\u25ba ","bold":true,"color":"gold"},{"text":"Weakness Arrow","underlined":true,"color":"yellow"},{"text":" \u27f2 ","bold":true,"color":"gold"},{"score":{"name":"@s","objective":"freeItemSecs"},"color":"aqua","bold":false},{"text":"s","bold":true,"color":"dark_aqua"},{"text":" \u25c4\u1368\u1450","bold":true,"color":"gold"}],"hoverEvent":{"value":"{Count:3b,id:tipped_arrow,tag:{display:{Lore:['{\"text\":\"Click to get this bonus\",\"color\":\"white\",\"italic\":true}','[{\"text\":\"Base cooldown: \",\"italic\":false,\"color\":\"gray\"},{\"text\":\"30\",\"color\":\"aqua\",\"italic\":false},{\"text\":\" seconds\",\"color\":\"dark_aqua\",\"italic\":false}]']},Potion:\"minecraft:long_weakness\"}}","action":"show_item"}}]
execute unless score @s reputation matches 12.. unless score @s freeItemPeek matches 1.. run tellraw @s [{"color":"gray","text":"","extra":[{"text":"\u1455\u1368\u25ba ","bold":true},{"text":"Weakness Arrow ","bold":false,"obfuscated":false},{"text":" \u26a0 ","color":"dark_red","bold":false},{"text":"12","color":"green"},{"text":"\u2698 ","bold":true,"color":"dark_green"},{"text":"\u25c4\u1368\u1450","bold":true,"color":"gray"}],"hoverEvent":{"value":"{Count:3b,id:tipped_arrow,tag:{display:{Name:'{\"text\":Weakness Arrow,\"color\":\"gray\"}',Lore:['[{\"text\":\"\u26a0 \",\"color\":\"dark_red\",\"italic\":false},{\"text\":\"Requires \",\"color\":\"white\",\"italic\":false},{\"text\":\"12 \",\"color\":\"green\",\"italic\":false},{\"italic\":false,\"text\":\"\u2698\",\"color\":\"dark_green\",\"bold\":true},{\"italic\":false,\"text\":\"Reputation\",\"color\":\"dark_green\"}]']},Potion:\"minecraft:long_weakness\"}}","action":"show_item"}}]
execute unless score @s reputation matches 12.. if score @s freeItemPeek matches 1.. run tellraw @s [{"color":"gray","text":"","extra":[{"text":"\u1455\u1368\u25ba ","bold":true},{"text":"neAWkaos errsw ","bold":false,"obfuscated":true},{"text":" \u26a0 ","color":"dark_red","bold":false},{"text":"12","color":"green"},{"text":"\u2698 ","bold":true,"color":"dark_green"},{"text":"\u25c4\u1368\u1450","bold":true,"color":"gray"}],"hoverEvent":{"value":"{id:enchanted_book,Count:1b,tag:{display:{Lore:['[{\"text\":\"\u26a0 \",\"color\":\"dark_red\",\"italic\":false},{\"text\":\"Requires \",\"color\":\"white\",\"italic\":false},{\"text\":\"12 \",\"color\":\"green\",\"italic\":false},{\"italic\":false,\"text\":\"\u2698\",\"color\":\"dark_green\",\"bold\":true},{\"italic\":false,\"text\":\"Reputation\",\"color\":\"dark_green\"}]'],Name:'{\"text\":\"Unknown\",\"color\":\"gray\",\"bold\":\"false\",\"italic\":false}'}}}","action":"show_item"}}]
execute unless score @s reputation matches 12.. unless score @s freeItemPeek matches 1.. run scoreboard players set @s freeItemPeek 1
scoreboard players set @s freeItemCooldown 600
function utils:free_items/set_cooldown
tellraw @s[scores={reputation=18..}] [{"text":"","clickEvent":{"action":"run_command","value":"/trigger trgFreeItem set 357719"},"extra":[{"text":"\u1455\u1368\u25ba ","bold":true,"color":"gold"},{"text":"Spectral Arrow","underlined":true,"color":"yellow"},{"text":" \u27f2 ","bold":true,"color":"gold"},{"score":{"name":"@s","objective":"freeItemSecs"},"color":"aqua","bold":false},{"text":"s","bold":true,"color":"dark_aqua"},{"text":" \u25c4\u1368\u1450","bold":true,"color":"gold"}],"hoverEvent":{"value":"{Count:3b,id:spectral_arrow,tag:{display:{Lore:['{\"text\":\"Click to get this bonus\",\"color\":\"white\",\"italic\":true}','[{\"text\":\"Base cooldown: \",\"italic\":false,\"color\":\"gray\"},{\"text\":\"30\",\"color\":\"aqua\",\"italic\":false},{\"text\":\" seconds\",\"color\":\"dark_aqua\",\"italic\":false}]']}}}","action":"show_item"}}]
execute unless score @s reputation matches 18.. unless score @s freeItemPeek matches 1.. run tellraw @s [{"color":"gray","text":"","extra":[{"text":"\u1455\u1368\u25ba ","bold":true},{"text":"Spectral Arrow ","bold":false,"obfuscated":false},{"text":" \u26a0 ","color":"dark_red","bold":false},{"text":"18","color":"green"},{"text":"\u2698 ","bold":true,"color":"dark_green"},{"text":"\u25c4\u1368\u1450","bold":true,"color":"gray"}],"hoverEvent":{"value":"{Count:3b,id:spectral_arrow,tag:{display:{Name:'{\"text\":Spectral Arrow,\"color\":\"gray\"}',Lore:['[{\"text\":\"\u26a0 \",\"color\":\"dark_red\",\"italic\":false},{\"text\":\"Requires \",\"color\":\"white\",\"italic\":false},{\"text\":\"18 \",\"color\":\"green\",\"italic\":false},{\"italic\":false,\"text\":\"\u2698\",\"color\":\"dark_green\",\"bold\":true},{\"italic\":false,\"text\":\"Reputation\",\"color\":\"dark_green\"}]']}}}","action":"show_item"}}]
execute unless score @s reputation matches 18.. if score @s freeItemPeek matches 1.. run tellraw @s [{"color":"gray","text":"","extra":[{"text":"\u1455\u1368\u25ba ","bold":true},{"text":"ArlrraSec optw ","bold":false,"obfuscated":true},{"text":" \u26a0 ","color":"dark_red","bold":false},{"text":"18","color":"green"},{"text":"\u2698 ","bold":true,"color":"dark_green"},{"text":"\u25c4\u1368\u1450","bold":true,"color":"gray"}],"hoverEvent":{"value":"{id:enchanted_book,Count:1b,tag:{display:{Lore:['[{\"text\":\"\u26a0 \",\"color\":\"dark_red\",\"italic\":false},{\"text\":\"Requires \",\"color\":\"white\",\"italic\":false},{\"text\":\"18 \",\"color\":\"green\",\"italic\":false},{\"italic\":false,\"text\":\"\u2698\",\"color\":\"dark_green\",\"bold\":true},{\"italic\":false,\"text\":\"Reputation\",\"color\":\"dark_green\"}]'],Name:'{\"text\":\"Unknown\",\"color\":\"gray\",\"bold\":\"false\",\"italic\":false}'}}}","action":"show_item"}}]
execute unless score @s reputation matches 18.. unless score @s freeItemPeek matches 1.. run scoreboard players set @s freeItemPeek 1
scoreboard players set @s freeItemCooldown 600
function utils:free_items/set_cooldown
tellraw @s[scores={reputation=24..}] [{"text":"","clickEvent":{"action":"run_command","value":"/trigger trgFreeItem set 364757"},"extra":[{"text":"\u1455\u1368\u25ba ","bold":true,"color":"gold"},{"text":"Harming Arrow","underlined":true,"color":"yellow"},{"text":" \u27f2 ","bold":true,"color":"gold"},{"score":{"name":"@s","objective":"freeItemSecs"},"color":"aqua","bold":false},{"text":"s","bold":true,"color":"dark_aqua"},{"text":" \u25c4\u1368\u1450","bold":true,"color":"gold"}],"hoverEvent":{"value":"{Count:3b,id:tipped_arrow,tag:{display:{Lore:['{\"text\":\"Click to get this bonus\",\"color\":\"white\",\"italic\":true}','[{\"text\":\"Base cooldown: \",\"italic\":false,\"color\":\"gray\"},{\"text\":\"30\",\"color\":\"aqua\",\"italic\":false},{\"text\":\" seconds\",\"color\":\"dark_aqua\",\"italic\":false}]']},Potion:\"minecraft:harming\"}}","action":"show_item"}}]
execute unless score @s reputation matches 24.. unless score @s freeItemPeek matches 1.. run tellraw @s [{"color":"gray","text":"","extra":[{"text":"\u1455\u1368\u25ba ","bold":true},{"text":"Harming Arrow ","bold":false,"obfuscated":false},{"text":" \u26a0 ","color":"dark_red","bold":false},{"text":"24","color":"green"},{"text":"\u2698 ","bold":true,"color":"dark_green"},{"text":"\u25c4\u1368\u1450","bold":true,"color":"gray"}],"hoverEvent":{"value":"{Count:3b,id:tipped_arrow,tag:{display:{Name:'{\"text\":Harming Arrow,\"color\":\"gray\"}',Lore:['[{\"text\":\"\u26a0 \",\"color\":\"dark_red\",\"italic\":false},{\"text\":\"Requires \",\"color\":\"white\",\"italic\":false},{\"text\":\"24 \",\"color\":\"green\",\"italic\":false},{\"italic\":false,\"text\":\"\u2698\",\"color\":\"dark_green\",\"bold\":true},{\"italic\":false,\"text\":\"Reputation\",\"color\":\"dark_green\"}]']},Potion:\"minecraft:harming\"}}","action":"show_item"}}]
execute unless score @s reputation matches 24.. if score @s freeItemPeek matches 1.. run tellraw @s [{"color":"gray","text":"","extra":[{"text":"\u1455\u1368\u25ba ","bold":true},{"text":"r mrownrAagiH ","bold":false,"obfuscated":true},{"text":" \u26a0 ","color":"dark_red","bold":false},{"text":"24","color":"green"},{"text":"\u2698 ","bold":true,"color":"dark_green"},{"text":"\u25c4\u1368\u1450","bold":true,"color":"gray"}],"hoverEvent":{"value":"{id:enchanted_book,Count:1b,tag:{display:{Lore:['[{\"text\":\"\u26a0 \",\"color\":\"dark_red\",\"italic\":false},{\"text\":\"Requires \",\"color\":\"white\",\"italic\":false},{\"text\":\"24 \",\"color\":\"green\",\"italic\":false},{\"italic\":false,\"text\":\"\u2698\",\"color\":\"dark_green\",\"bold\":true},{\"italic\":false,\"text\":\"Reputation\",\"color\":\"dark_green\"}]'],Name:'{\"text\":\"Unknown\",\"color\":\"gray\",\"bold\":\"false\",\"italic\":false}'}}}","action":"show_item"}}]
execute unless score @s reputation matches 24.. unless score @s freeItemPeek matches 1.. run scoreboard players set @s freeItemPeek 1
scoreboard players set @s freeItemCooldown 600
function utils:free_items/set_cooldown
tellraw @s[scores={reputation=30..}] [{"text":"","clickEvent":{"action":"run_command","value":"/trigger trgFreeItem set 374662"},"extra":[{"text":"\u1455\u1368\u25ba ","bold":true,"color":"gold"},{"text":"Explosive Bolt","underlined":true,"color":"yellow"},{"text":" \u27f2 ","bold":true,"color":"gold"},{"score":{"name":"@s","objective":"freeItemSecs"},"color":"aqua","bold":false},{"text":"s","bold":true,"color":"dark_aqua"},{"text":" \u25c4\u1368\u1450","bold":true,"color":"gold"}],"hoverEvent":{"value":"{id:firework_rocket,Count:1b,tag:{HideFlags:35,display:{Name:'{\"text\":\"Explosive Bolt\",\"color\":\"light_purple\",\"italic\": false}',Lore:['{\"text\":\"Click to get this bonus\",\"color\":\"white\",\"italic\":true}','[{\"text\":\"Base cooldown: \",\"italic\":false,\"color\":\"gray\"},{\"text\":\"30\",\"color\":\"aqua\",\"italic\":false},{\"text\":\" seconds\",\"color\":\"dark_aqua\",\"italic\":false}]','{\"text\":\"---\",\"color\":\"dark_gray\"}','{\"text\":\"Deals considerate damage in area\",\"italic\":false,\"color\":\"white\"}']},Fireworks:{Flight:2,Explosions:[{Type:4,Flicker:1,Trail:0,Colors:[I;11743532,5320730,15435844],FadeColors:[I;5320730,14602026]}]}}}","action":"show_item"}}]
execute unless score @s reputation matches 30.. unless score @s freeItemPeek matches 1.. run tellraw @s [{"color":"gray","text":"","extra":[{"text":"\u1455\u1368\u25ba ","bold":true},{"text":"Explosive Bolt ","bold":false,"obfuscated":false},{"text":" \u26a0 ","color":"dark_red","bold":false},{"text":"30","color":"green"},{"text":"\u2698 ","bold":true,"color":"dark_green"},{"text":"\u25c4\u1368\u1450","bold":true,"color":"gray"}],"hoverEvent":{"value":"{id:firework_rocket,Count:1b,tag:{HideFlags:35,display:{Name:'{\"text\":\"Explosive Bolt\",\"color\":\"gray\",\"italic\": false}',Lore:['[{\"text\":\"\u26a0 \",\"color\":\"dark_red\",\"italic\":false},{\"text\":\"Requires \",\"color\":\"white\",\"italic\":false},{\"text\":\"30 \",\"color\":\"green\",\"italic\":false},{\"italic\":false,\"text\":\"\u2698\",\"color\":\"dark_green\",\"bold\":true},{\"italic\":false,\"text\":\"Reputation\",\"color\":\"dark_green\"}]','{\"text\":\"---\",\"color\":\"dark_gray\"}','{\"text\":\"Deals considerate damage in area\",\"italic\":false,\"color\":\"gray\"}']},Fireworks:{Flight:2,Explosions:[{Type:4,Flicker:1,Trail:0,Colors:[I;11743532,5320730,15435844],FadeColors:[I;5320730,14602026]}]}}}","action":"show_item"}}]
execute unless score @s reputation matches 30.. if score @s freeItemPeek matches 1.. run tellraw @s [{"color":"gray","text":"","extra":[{"text":"\u1455\u1368\u25ba ","bold":true},{"text":"lEBpls ixotevo ","bold":false,"obfuscated":true},{"text":" \u26a0 ","color":"dark_red","bold":false},{"text":"30","color":"green"},{"text":"\u2698 ","bold":true,"color":"dark_green"},{"text":"\u25c4\u1368\u1450","bold":true,"color":"gray"}],"hoverEvent":{"value":"{id:enchanted_book,Count:1b,tag:{display:{Lore:['[{\"text\":\"\u26a0 \",\"color\":\"dark_red\",\"italic\":false},{\"text\":\"Requires \",\"color\":\"white\",\"italic\":false},{\"text\":\"30 \",\"color\":\"green\",\"italic\":false},{\"italic\":false,\"text\":\"\u2698\",\"color\":\"dark_green\",\"bold\":true},{\"italic\":false,\"text\":\"Reputation\",\"color\":\"dark_green\"}]'],Name:'{\"text\":\"Unknown\",\"color\":\"gray\",\"bold\":\"false\",\"italic\":false}'}}}","action":"show_item"}}]
execute unless score @s reputation matches 30.. unless score @s freeItemPeek matches 1.. run scoreboard players set @s freeItemPeek 1
tellraw @s [{"text":"\u2588\u2588\u2588\u2588\u2588\u2588\u2593\u2593\u2593\u2593\u2592\u2592\u2592\u2592\u2591\u2591\u2591\u2591\u2592\u2592\u2592\u2592\u2593\u2593\u2593\u2593\u2588\u2588\u2588\u2588\u2588\u2588","color":"dark_aqua"}]