fill ~ 106 ~ ~15 150 ~15 air replace minecraft:snow
execute positioned ~ 106 ~ run function trees:snowcap/handlelayer
execute positioned ~ 107 ~ run function trees:snowcap/handlelayer
execute positioned ~ 108 ~ run function trees:snowcap/handlelayer
execute positioned ~ 109 ~ run function trees:snowcap/handlelayer
execute positioned ~ 110 ~ run function trees:snowcap/handlelayer
execute positioned ~ 111 ~ run function trees:snowcap/handlelayer
execute positioned ~ 112 ~ run function trees:snowcap/handlelayer
execute positioned ~ 113 ~ run function trees:snowcap/handlelayer
execute positioned ~ 114 ~ run function trees:snowcap/handlelayer
execute positioned ~ 115 ~ run function trees:snowcap/handlelayer
execute positioned ~ 116 ~ run function trees:snowcap/handlelayer
execute positioned ~ 117 ~ run function trees:snowcap/handlelayer
execute positioned ~ 118 ~ run function trees:snowcap/handlelayer
execute positioned ~ 119 ~ run function trees:snowcap/handlelayer
execute positioned ~ 120 ~ run function trees:snowcap/handlelayer
execute positioned ~ 121 ~ run function trees:snowcap/handlelayer
execute positioned ~ 122 ~ run function trees:snowcap/handlelayer
execute positioned ~ 123 ~ run function trees:snowcap/handlelayer
execute positioned ~ 124 ~ run function trees:snowcap/handlelayer
execute positioned ~ 125 ~ run function trees:snowcap/handlelayer
execute positioned ~ 126 ~ run function trees:snowcap/handlelayer
execute positioned ~ 127 ~ run function trees:snowcap/handlelayer
execute positioned ~ 128 ~ run function trees:snowcap/handlelayer
execute positioned ~ 129 ~ run function trees:snowcap/handlelayer
execute positioned ~ 130 ~ run function trees:snowcap/handlelayer
execute positioned ~ 131 ~ run function trees:snowcap/handlelayer
execute positioned ~ 132 ~ run function trees:snowcap/handlelayer
execute positioned ~ 133 ~ run function trees:snowcap/handlelayer
execute positioned ~ 134 ~ run function trees:snowcap/handlelayer
execute positioned ~ 135 ~ run function trees:snowcap/handlelayer
execute positioned ~ 136 ~ run function trees:snowcap/handlelayer
execute positioned ~ 137 ~ run function trees:snowcap/handlelayer
execute positioned ~ 138 ~ run function trees:snowcap/handlelayer
execute positioned ~ 139 ~ run function trees:snowcap/handlelayer
execute positioned ~ 140 ~ run function trees:snowcap/handlelayer
execute positioned ~ 141 ~ run function trees:snowcap/handlelayer
execute positioned ~ 142 ~ run function trees:snowcap/handlelayer
execute positioned ~ 143 ~ run function trees:snowcap/handlelayer
execute positioned ~ 144 ~ run function trees:snowcap/handlelayer
execute positioned ~ 145 ~ run function trees:snowcap/handlelayer
execute positioned ~ 146 ~ run function trees:snowcap/handlelayer
execute positioned ~ 147 ~ run function trees:snowcap/handlelayer
execute positioned ~ 148 ~ run function trees:snowcap/handlelayer
execute positioned ~ 149 ~ run function trees:snowcap/handlelayer
execute positioned ~ 150 ~ run function trees:snowcap/handlelayer
execute positioned ~ 151 ~ run function trees:snowcap/handlelayer
execute positioned ~ 152 ~ run function trees:snowcap/handlelayer
execute positioned ~ 153 ~ run function trees:snowcap/handlelayer
execute positioned ~ 154 ~ run function trees:snowcap/handlelayer
execute positioned ~ 155 ~ run function trees:snowcap/handlelayer
execute positioned ~ 156 ~ run function trees:snowcap/handlelayer
execute positioned ~ 157 ~ run function trees:snowcap/handlelayer
execute positioned ~ 158 ~ run function trees:snowcap/handlelayer
execute positioned ~ 159 ~ run function trees:snowcap/handlelayer