function warpbook:version/1.13
function warpbook:version/1.14
function warpbook:version/1.15
function warpbook:version/1.16
execute if score #version dummy matches 113 run function warpbook:1.13/tick
execute if score #version dummy matches 114 run function warpbook:1.14/tick
execute if score #version dummy matches 115 run function warpbook:1.15/tick
execute if score #version dummy matches 116 run function warpbook:1.16/tick