{
	"display": {
		"title": "BuildmodeOne (pro_pixel_)",
		"description": "",
		"icon": {
			"item": "minecraft:player_head",
			"nbt": "{SkullOwner: pro_pixel_}"
		},
		"announce_to_chat": false,
		"show_toast": false
	},
	"parent": "global:root",
	"criteria": {
		"trigger": {
			"trigger": "minecraft:tick"
		}
	}
}