scoreboard players set @s q_ex_reserved 4
scoreboard players add @s reputation 1
execute at @s run summon item ~ ~ ~ {Item:{id:"diamond",Count:15}}
experience add @s 1 levels
tellraw @s ["",{"text":"You've been granted ","color":"white","italic":false},{"text": "15 Diamonds","color":"aqua"}]
title @s subtitle ["",{"text":"Deliver 3 bottles of "},{"text":"Exampleton Reserved","color":"light_purple"}]
function utils:quest_complete