tag @s add q_ex_elytra_finished
scoreboard players add @s reputation 1
execute at @s run summon item ~ ~ ~ {Item:{id:"diamond",Count:5}}
execute at @s run summon item ~ ~ ~ {Item:{id:"written_book",Count:1,tag:{display:{Name:'[{"text":"Avenger\'s Glider","italic": true,"color":"green"}]',Lore:['[{"text":"A crafting instruction","color":"yellow","italic": false}]']},pages:['["",{"text":"To even the chances with Aliens, we should supercede their technology. To create a "},{"text":"Glider","color":"green"},{"text":", use ","color":"reset"},{"text":"Alien Power Cell ","color":"gold"},{"text":"instead of ","color":"reset"},{"text":"Ender Eye","underlined":true},{"text":" and ","color":"reset"},{"text":"Elerium","color":"gold"},{"text":" instead of ","color":"reset"},{"text":"Fireworks","underlined":true},{"text":" in ","color":"reset"},{"text":"Elytra","color":"gold"},{"text":" recipe to imbue it with active protection.","color":"reset"}]'],title:"Avenger's Glider",author:"Exampleton Blacksmith"}}}
tellraw @s ["",{"text":"Blacksmith: ","color":"dark_aqua"},{"text": "I've noticed you the first time you've appeared here, I knew you'd prove you're worthy. If you're going to challenge the Aliens, you'll need something more sustainable though, and I happen to have an idea... Here, take this, you seem to be able enough to succeed. Good Luck!","color":"gray","italic": true}]
tellraw @s ["",{"text":"You've been granted ","color":"white","italic":false},{"text": "5 Diamonds","color":"aqua"},{"text": " and a recipe of "},{"text": "Avenger's Glider","color":"green","bold": true}]
title @s subtitle ["",{"text":"Craft an "},{"text":"Elytra","color":"yellow"}]
function utils:quest_complete