function quests:emporium/quest_chest/common
function utils:wipe_chest
# copy chest with default Alcohol Meter and Remembr'all (requires CommandToItem)
clone -65 72 8675 -65 72 8675 ~ ~ ~
function quests:emporium/quest_chest/lost_items

