forceload add ~-8 ~-8 ~8 ~8

execute positioned ~ ~3 ~ unless block ~ ~-6 ~ #structures_crabmaster:air_water unless block ~ ~-3 ~ #structures_crabmaster:air_water unless block ~ ~ ~ #structures_crabmaster:air_water unless block ~ ~4 ~ #structures_crabmaster:air_water unless block ~ ~8 ~ #structures_crabmaster:air_water unless block ~ ~13 ~ #structures_crabmaster:air_water run function cm_module_megamix:structures/lava_cave/spawn_1

execute if predicate structures_crabmaster:randomizers/0_45 positioned ~5 ~ ~3 run function cm_module_megamix:structures/lava_cave/loop_up
execute if predicate structures_crabmaster:randomizers/0_3 positioned ~-3 ~ ~4 run function cm_module_megamix:structures/lava_cave/loop_up
execute if predicate structures_crabmaster:randomizers/0_1 positioned ~1 ~ ~-4 run function cm_module_megamix:structures/lava_cave/loop_left