playsound minecraft:ui.button.click master @s ~ ~ ~ .2 1 0.2
execute as @s unless score @s bm1_3d_tut_prog matches 4.. run scoreboard players set @s bm1_3d_tut_prog 4
scoreboard players set @s bm1_3d_tut_stat 4
tellraw @s ["", {"text": ""}]
tellraw @s ["", {"text": ""}]
tellraw @s ["", {"text": ""}]
tellraw @s ["", {"text": ""}]
tellraw @s ["", {"text": ""}]
tellraw @s ["", {"text": ""}]
tellraw @s ["", {"text": ""}]

tellraw @s ["", {"text": "\u00A7m                                                                                ", "color": "dark_gray"}]
tellraw @s ["", {"text": "                                   Tutorial", "color": "white"}]
function buildmodeone:3d_editor/settings/version
tellraw @s ["", {"text": "\u00A7m                                                                                ", "color": "dark_gray"}]
tellraw @s ["", {"text": ""}]
tellraw @s ["", {"text": ">> ", "color": "aqua"}, {"text": "How to use the main tool: The ", "color": "white", "bold": true}, {"text": "Model-Editor", "color": "aqua", "bold": true}, {"text": " GUI!", "color": "white", "bold": true}]
tellraw @s ["", {"text": ""}]
tellraw @s ["", {"text": ">> ", "color": "aqua"}, {"text": "At first, right-click the book item.", "color": "gray"}]
tellraw @s ["", {"text": ""}]
tellraw @s ["", {"text": ""}]
tellraw @s ["", {"text": ""}]
# tellraw @s ["", {"text": ">> ", "color": "aqua"}, {"text": "Now click on one of the ", "color": "gray"}, {"text": "blue squares", "color":"blue"}, {"text": " to select a position.", "color": "gray"}]
# tellraw @s ["", {"text": ">> ", "color": "aqua"}, {"text": "The ", "color": "gray"}, {"text": "green particles", "color":"dark_green"}, {"text": " show you, which position is selected!", "color": "gray"}]
# tellraw @s ["", {"text": ">> ", "color": "aqua"}, {"text": "To orientate yourself, look at the direction of the ", "color": "gray"}, {"text": "particles", "color":"gold"}, {"text": ".", "color": "gray"}]
tellraw @s ["", {"text": ""}]
tellraw @s ["", {"text": ""}]
tellraw @s ["", {"text": ""}]
tellraw @s ["", {"text": ""}]
tellraw @s ["", {"text": ""}]
tellraw @s ["", {"text": ""}]
tellraw @s ["", {"text": "\u00A7m                                                                                ", "color": "dark_gray"}]
tellraw @s ["", {"text": "<< Previous", "color": "white", "bold": true, "clickEvent": {"action": "run_command", "value": "/function buildmodeone:3d_editor/tutorial/grid"}}, {"text": "                                                    "}, {"text": "Next >>", "color": "white", "bold": true, "clickEvent": {"action": "run_command", "value": "/function buildmodeone:3d_editor/tutorial/cgui/position"}}]
tellraw @s ["", {"text": "\u00A7m                                                                                ", "color": "dark_gray"}]