playsound minecraft:ui.button.click master @s ~ ~ ~ .2 1 0.2
execute as @s unless score @s bm1_3d_tut_prog matches 21.. run scoreboard players set @s bm1_3d_tut_prog 21
scoreboard players set @s bm1_3d_tut_stat 21
tellraw @s ["", {"text": ""}]
tellraw @s ["", {"text": ""}]
tellraw @s ["", {"text": ""}]
tellraw @s ["", {"text": ""}]
tellraw @s ["", {"text": ""}]
tellraw @s ["", {"text": ""}]
tellraw @s ["", {"text": ""}]

tellraw @s ["", {"text": "\u00A7m                                                                                ", "color": "dark_gray"}]
tellraw @s ["", {"text": "                                   Tutorial", "color": "white"}]
function buildmodeone:3d_editor/settings/version
tellraw @s ["", {"text": "\u00A7m                                                                                ", "color": "dark_gray"}]
tellraw @s ["", {"text": ""}]
tellraw @s ["", {"text": ">> ", "color": "aqua"}, {"text": "Reselect Modelholders:", "color": "white", "bold": true}]
tellraw @s ["", {"text": ""}]
tellraw @s ["", {"text": ">> ", "color": "aqua"}, {"text": "To edit a model again, you have to select it! ", "color": "gray"}]
tellraw @s ["", {"text": ">> ", "color": "aqua"}, {"text": "Therefore, use the ", "color": "gray"}, {"text": "Change Modelholder ", "color":"aqua"}, {"text": "in a 1 block radius.", "color": "gray"}]
tellraw @s ["", {"text": ">> ", "color": "aqua"}, {"text": "The grid will reappear and you can edit the ", "color": "gray"}, {"text": "models", "color":"dark_aqua"}, {"text": " again!", "color": "gray"}]
tellraw @s ["", {"text": ""}]
tellraw @s ["", {"text": ""}]
tellraw @s ["", {"text": ""}]
tellraw @s ["", {"text": ""}]
tellraw @s ["", {"text": ""}]
tellraw @s ["", {"text": ""}]
tellraw @s ["", {"text": ""}]
tellraw @s ["", {"text": "\u00A7m                                                                                ", "color": "dark_gray"}]
tellraw @s ["", {"text": "<< Previous", "color": "white", "bold": true, "clickEvent": {"action": "run_command", "value": "/function buildmodeone:3d_editor/tutorial/cgui/finish_clicked"}}, {"text": "                                                    "}, {"text": "Next >>", "color": "white", "bold": true, "clickEvent": {"action": "run_command", "value": "/function buildmodeone:3d_editor/tutorial/finish"}}]
tellraw @s ["", {"text": "\u00A7m                                                                                ", "color": "dark_gray"}]