playsound minecraft:ui.button.click master @s ~ ~ ~ .2 1 0.2
execute as @s unless score @s bm1_3d_tut_prog matches 10.. run scoreboard players set @s bm1_3d_tut_prog 22
scoreboard players set @s bm1_3d_tut_stat 22
tellraw @s ["", {"text": ""}]
tellraw @s ["", {"text": ""}]
tellraw @s ["", {"text": ""}]
tellraw @s ["", {"text": ""}]
tellraw @s ["", {"text": ""}]
tellraw @s ["", {"text": ""}]
tellraw @s ["", {"text": ""}]

tellraw @s ["", {"text": "\u00A7m                                                                                ", "color": "dark_gray"}]
tellraw @s ["", {"text": "                                   Tutorial", "color": "white"}]
function buildmodeone:3d_editor/settings/version
tellraw @s ["", {"text": "\u00A7m                                                                                ", "color": "dark_gray"}]
tellraw @s ["", {"text": ""}]
tellraw @s ["", {"text": ">> ", "color": "aqua"}, {"text": "Tutorial completed!", "color": "white", "bold": true}]
tellraw @s ["", {"text": ""}]
tellraw @s ["", {"text": ">> ", "color": "aqua"}, {"text": "These are the basics of this datapack.", "color": "gray"}]
tellraw @s ["", {"text": ">> ", "color": "aqua"}, {"text": "Play around a bit and you'll get used to it very quickly!", "color": "gray"}]
tellraw @s ["", {"text": ""}]
tellraw @s ["", {"text": ""}]
tellraw @s ["", {"text": ""}]
tellraw @s ["", {"text": ""}]
tellraw @s ["", {"text": ""}]
tellraw @s ["", {"text": ""}]
tellraw @s ["", {"text": ""}]
tellraw @s ["", {"text": ""}]
tellraw @s ["", {"text": "\u00A7m                                                                                ", "color": "dark_gray"}]
tellraw @s ["", {"text": "<< Previous", "color": "white", "bold": true, "clickEvent": {"action": "run_command", "value": "/function buildmodeone:3d_editor/tutorial/change"}}, {"text": "                                                    "}, {"text": "Next >>", "color": "gold", "bold": true, "clickEvent": {"action": "run_command", "value": "/function buildmodeone:3d_editor/tutorial/complete"}}]
tellraw @s ["", {"text": "\u00A7m                                                                                ", "color": "dark_gray"}]