playsound minecraft:ui.button.click master @s ~ ~ ~ .2 1 0.2
execute as @s unless score @s bm1_3d_tut_prog matches 2.. run scoreboard players set @s bm1_3d_tut_prog 2
scoreboard players set @s bm1_3d_tut_stat 2
tellraw @s ["", {"text": ""}]
tellraw @s ["", {"text": ""}]
tellraw @s ["", {"text": ""}]
tellraw @s ["", {"text": ""}]
tellraw @s ["", {"text": ""}]
tellraw @s ["", {"text": ""}]
tellraw @s ["", {"text": ""}]

tellraw @s ["", {"text": "\u00A7m                                                                                ", "color": "dark_gray"}]
tellraw @s ["", {"text": "                                   Tutorial", "color": "white"}]
function buildmodeone:3d_editor/settings/version
tellraw @s ["", {"text": "\u00A7m                                                                                ", "color": "dark_gray"}]
tellraw @s ["", {"text": ""}]
tellraw @s ["", {"text": ">> ", "color": "aqua"}, {"text": "Great start!", "color": "white", "bold": true}]
tellraw @s ["", {"text": ">> ", "color": "aqua"}, {"text": "Let's start by placing a ", "color": "gray"}, {"text": "Place Modelholder", "color": "aqua", "bold": true}, {"text": "!", "color": "gray"}]
tellraw @s ["", {"text": ""}]
tellraw @s ["", {"text": ">> ", "color": "aqua"}, {"text": "What you see now is a 3x3 grid where models can be placed!", "color": "gray"}]
tellraw @s ["", {"text": ""}]
tellraw @s ["", {"text": ""}]
tellraw @s ["", {"text": ""}]
tellraw @s ["", {"text": ""}]
tellraw @s ["", {"text": ""}]
tellraw @s ["", {"text": ""}]
tellraw @s ["", {"text": "/!\\", "color": "gold", "bold": true, "underlined": true}, {"text": " Open the chat to read the whole message! ", "color": "white"}, {"text": "/!\\", "color": "gold", "bold": true, "underlined": true}]
tellraw @s ["", {"text": ""}]
tellraw @s ["", {"text": "\u00A7m                                                                                ", "color": "dark_gray"}]
tellraw @s ["", {"text": "<< Previous", "color": "white", "bold": true, "clickEvent": {"action": "run_command", "value": "/function buildmodeone:3d_editor/tutorial/start"}}, {"text": "                                                    "}, {"text": "Next >>", "color": "white", "bold": true, "clickEvent": {"action": "run_command", "value": "/function buildmodeone:3d_editor/tutorial/grid"}}]
tellraw @s ["", {"text": "\u00A7m                                                                                ", "color": "dark_gray"}]