playsound minecraft:ui.button.click master @s ~ ~ ~ .2 1 0.2
execute as @s unless score @s bm1_3d_tut_prog matches 8.. run scoreboard players set @s bm1_3d_tut_prog 8
scoreboard players set @s bm1_3d_tut_stat 8
tellraw @s ["", {"text": ""}]
tellraw @s ["", {"text": ""}]
tellraw @s ["", {"text": ""}]
tellraw @s ["", {"text": ""}]
tellraw @s ["", {"text": ""}]
tellraw @s ["", {"text": ""}]
tellraw @s ["", {"text": ""}]

tellraw @s ["", {"text": "\u00A7m                                                                                ", "color": "dark_gray"}]
tellraw @s ["", {"text": "                                   Tutorial", "color": "white"}]
function buildmodeone:3d_editor/settings/version
tellraw @s ["", {"text": "\u00A7m                                                                                ", "color": "dark_gray"}]
tellraw @s ["", {"text": ""}]
tellraw @s ["", {"text": ">> ", "color": "aqua"}, {"text": "Let's place the first model!", "color": "white", "bold": true}]
tellraw @s ["", {"text": ""}]
tellraw @s ["", {"text": ">> ", "color": "aqua"}, {"text": "Right-click the book again, and click on ", "color": "gray"}, {"text": "Models", "color":"white"}, {"text": ".", "color": "gray"}]
tellraw @s ["", {"text": ""}]
tellraw @s ["", {"text": ""}]
tellraw @s ["", {"text": ""}]
tellraw @s ["", {"text": ""}]
tellraw @s ["", {"text": ""}]
tellraw @s ["", {"text": ""}]
tellraw @s ["", {"text": ""}]
tellraw @s ["", {"text": ""}]
tellraw @s ["", {"text": ""}]
tellraw @s ["", {"text": "\u00A7m                                                                                ", "color": "dark_gray"}]
tellraw @s ["", {"text": "<< Previous", "color": "white", "bold": true, "clickEvent": {"action": "run_command", "value": "/function buildmodeone:3d_editor/tutorial/cgui/orientate"}}, {"text": "                                                    "}, {"text": "Next >>", "color": "white", "bold": true, "clickEvent": {"action": "run_command", "value": "/function buildmodeone:3d_editor/tutorial/cgui/to_models"}}]
tellraw @s ["", {"text": "\u00A7m                                                                                ", "color": "dark_gray"}]

# tellraw @s ["", {"text": ">> ", "color": "aqua"}, {"text": "Click through the pages and select a ", "color": "gray"}, {"text": "model", "color":"dark_aqua"}, {"text": ".", "color": "gray"}]
# tellraw @s ["", {"text": ">> ", "color": "aqua"}, {"text": "If everything is installed correctly, the model appears!", "color": "gray"}]
# tellraw @s ["", {"text": ">> ", "color": "gold"}, {"text": "Tip: ", "color": "gold"}, {"text": "Click on the numbers, to go directly to a model page!", "color": "gray"}]                                                                               ", "color": "dark_gray"}]