playsound minecraft:ui.button.click master @s ~ ~ ~ .2 1 0.2
execute as @s unless score @s bm1_3d_tut_prog matches 15.. run scoreboard players set @s bm1_3d_tut_prog 15
scoreboard players set @s bm1_3d_tut_stat 15
tellraw @s ["", {"text": ""}]
tellraw @s ["", {"text": ""}]
tellraw @s ["", {"text": ""}]
tellraw @s ["", {"text": ""}]
tellraw @s ["", {"text": ""}]
tellraw @s ["", {"text": ""}]
tellraw @s ["", {"text": ""}]

tellraw @s ["", {"text": "\u00A7m                                                                                ", "color": "dark_gray"}]
tellraw @s ["", {"text": "                                   Tutorial", "color": "white"}]
function buildmodeone:3d_editor/settings/version
tellraw @s ["", {"text": "\u00A7m                                                                                ", "color": "dark_gray"}]
tellraw @s ["", {"text": ""}]
tellraw @s ["", {"text": ">> ", "color": "aqua"}, {"text": "Multiple models:", "color": "white", "bold": true}]
tellraw @s ["", {"text": ""}]
tellraw @s ["", {"text": ">> ", "color": "aqua"}, {"text": "Up to 9 models can be placed in one Minecraft block!", "color": "gray"}]
tellraw @s ["", {"text": ">> ", "color": "aqua"}, {"text": "Each of them can be edited individually.", "color": "gray"}]
tellraw @s ["", {"text": ""}]
tellraw @s ["", {"text": ""}]
tellraw @s ["", {"text": ""}]
tellraw @s ["", {"text": ""}]
tellraw @s ["", {"text": ""}]
tellraw @s ["", {"text": ""}]
tellraw @s ["", {"text": ""}]
tellraw @s ["", {"text": ""}]
tellraw @s ["", {"text": "\u00A7m                                                                                ", "color": "dark_gray"}]
tellraw @s ["", {"text": "<< Previous", "color": "white", "bold": true, "clickEvent": {"action": "run_command", "value": "/function buildmodeone:3d_editor/tutorial/cgui/rotate"}}, {"text": "                                                    "}, {"text": "Next >>", "color": "white", "bold": true, "clickEvent": {"action": "run_command", "value": "/function buildmodeone:3d_editor/tutorial/optimize"}}]
tellraw @s ["", {"text": "\u00A7m                                                                                ", "color": "dark_gray"}]