playsound minecraft:ui.button.click master @s ~ ~ ~ .2 1 0.2
execute as @s unless score @s bm1_3d_tut_prog matches 16.. run scoreboard players set @s bm1_3d_tut_prog 16
scoreboard players set @s bm1_3d_tut_stat 16
tellraw @s ["", {"text": ""}]
tellraw @s ["", {"text": ""}]
tellraw @s ["", {"text": ""}]
tellraw @s ["", {"text": ""}]
tellraw @s ["", {"text": ""}]
tellraw @s ["", {"text": ""}]
tellraw @s ["", {"text": ""}]

tellraw @s ["", {"text": "\u00A7m                                                                                ", "color": "dark_gray"}]
tellraw @s ["", {"text": "                                   Tutorial", "color": "white"}]
function buildmodeone:3d_editor/settings/version
tellraw @s ["", {"text": "\u00A7m                                                                                ", "color": "dark_gray"}]
tellraw @s ["", {"text": ""}]
tellraw @s ["", {"text": ">> ", "color": "aqua"}, {"text": "Optimize and Finish:", "color": "white", "bold": true}]
tellraw @s ["", {"text": ""}]
tellraw @s ["", {"text": ">> ", "color": "aqua"}, {"text": "If you're done, open the book and click on ", "color": "gray"}, {"text": "Finish", "color":"gold"}, {"text": ".", "color": "gray"}]
# tellraw @s ["", {"text": ">> ", "color": "aqua"}, {"text": "This will remove empty model positions, to save performance.", "color": "gray"}]
# tellraw @s ["", {"text": ">> ", "color": "aqua"}, {"text": "Click on ", "color": "gray"}, {"text": "Finish", "color":"dark_green"}, {"text": " and that's it!", "color": "gray"}]
tellraw @s ["", {"text": ""}]
# tellraw @s ["", {"text": ">> ", "color": "green"}, {"text": "Note: ", "color": "green"}, {"text": "Deleted model positions can't be used again!", "color": "gray"}]
tellraw @s ["", {"text": ""}]
tellraw @s ["", {"text": ""}]
tellraw @s ["", {"text": ""}]
tellraw @s ["", {"text": ""}]
tellraw @s ["", {"text": ""}]
tellraw @s ["", {"text": ""}]
tellraw @s ["", {"text": ""}]
tellraw @s ["", {"text": ""}]
tellraw @s ["", {"text": "\u00A7m                                                                                ", "color": "dark_gray"}]
tellraw @s ["", {"text": "<< Previous", "color": "white", "bold": true, "clickEvent": {"action": "run_command", "value": "/function buildmodeone:3d_editor/tutorial/multiple"}}, {"text": "                                                    "}, {"text": "Next >>", "color": "white", "bold": true, "clickEvent": {"action": "run_command", "value": "/function buildmodeone:3d_editor/tutorial/cgui/to_optimize"}}]
tellraw @s ["", {"text": "\u00A7m                                                                                ", "color": "dark_gray"}]