playsound minecraft:ui.button.click master @s ~ ~ ~ .2 1 0.2
execute as @s unless score @s bm1_3d_tut_prog matches 12.. run scoreboard players set @s bm1_3d_tut_prog 12
scoreboard players set @s bm1_3d_tut_stat 12
tellraw @s ["", {"text": ""}]
tellraw @s ["", {"text": ""}]
tellraw @s ["", {"text": ""}]
tellraw @s ["", {"text": ""}]
tellraw @s ["", {"text": ""}]
tellraw @s ["", {"text": ""}]
tellraw @s ["", {"text": ""}]

tellraw @s ["", {"text": "\u00A7m                                                                                ", "color": "dark_gray"}]
tellraw @s ["", {"text": "                                   Tutorial", "color": "white"}]
function buildmodeone:3d_editor/settings/version
tellraw @s ["", {"text": "\u00A7m                                                                                ", "color": "dark_gray"}]
tellraw @s ["", {"text": ""}]
tellraw @s ["", {"text": ">> ", "color": "aqua"}, {"text": "How to customize the models:", "color": "white", "bold": true}]
tellraw @s ["", {"text": ""}]
tellraw @s ["", {"text": ">> ", "color": "aqua"}, {"text": "Open the book once again, and click on ", "color": "gray"}, {"text": "Rotation", "color":"white"}, {"text": ".", "color": "gray"}]
# tellraw @s ["", {"text": ">> ", "color": "aqua"}, {"text": "Hover over the buttons, to choose a rotation.", "color": "gray"}]
# tellraw @s ["", {"text": ">> ", "color": "aqua"}, {"text": "Click on one of the buttons to rotate the ", "color": "gray"}, {"text": "model", "color":"dark_aqua"}, {"text": " as you wish!", "color": "gray"}]
# tellraw @s ["", {"text": ">> ", "color": "green"}, {"text": "Note: ", "color": "green"}, {"text": "Only the selected model will rotate!", "color": "gray"}]
tellraw @s ["", {"text": ""}]
tellraw @s ["", {"text": ""}]
tellraw @s ["", {"text": ""}]
tellraw @s ["", {"text": ""}]
tellraw @s ["", {"text": ""}]
tellraw @s ["", {"text": ""}]
tellraw @s ["", {"text": ""}]
tellraw @s ["", {"text": ""}]
tellraw @s ["", {"text": ""}]
tellraw @s ["", {"text": "\u00A7m                                                                                ", "color": "dark_gray"}]
tellraw @s ["", {"text": "<< Previous", "color": "white", "bold": true, "clickEvent": {"action": "run_command", "value": "/function buildmodeone:3d_editor/tutorial/cgui/kitchen"}}, {"text": "                                                    "}, {"text": "Next >>", "color": "white", "bold": true, "clickEvent": {"action": "run_command", "value": "/function buildmodeone:3d_editor/tutorial/cgui/to_rotate"}}]
tellraw @s ["", {"text": "\u00A7m                                                                                ", "color": "dark_gray"}]