function buildmodeone:3d_editor/models/clearall
function buildmodeone:3d_editor/models/kitchen/plate
function buildmodeone:3d_editor/rotation/base/reset

function buildmodeone:3d_editor/cgui/positions/pos9
function buildmodeone:3d_editor/models/kitchen/knife
function buildmodeone:3d_editor/rotation/base/reset

function buildmodeone:3d_editor/cgui/positions/pos7
function buildmodeone:3d_editor/models/kitchen/fork
function buildmodeone:3d_editor/rotation/base/reset

function buildmodeone:3d_editor/multiplayer/gui/pos/pos6
function buildmodeone:3d_editor/models/kitchen/wineglass
function buildmodeone:3d_editor/rotation/base/reset

function buildmodeone:3d_editor/multiplayer/gui/pos/pos8