function structures_crabmaster:randomizers/randomizer_1
execute unless block ~ ~-1 ~ #structures_crabmaster:water_lava unless block ~ ~-1 ~ minecraft:air if score Random RandomOne5556 matches 0..249 run fill ~ ~1 ~ ~ ~1 ~ minecraft:structure_block{mode:"LOAD",name:"cm_module_megamix:small_farm_1",integrity:1.00,posX:-2,posY:-6,posZ:-2,rotation:"NONE"} replace
execute unless block ~ ~-1 ~ #structures_crabmaster:water_lava unless block ~ ~-1 ~ minecraft:air if score Random RandomOne5556 matches 250..499 run fill ~ ~1 ~ ~ ~1 ~ minecraft:structure_block{mode:"LOAD",name:"cm_module_megamix:small_farm_1",integrity:1.00,posX:2,posY:-6,posZ:-2,rotation:"CLOCKWISE_90"} replace
execute unless block ~ ~-1 ~ #structures_crabmaster:water_lava unless block ~ ~-1 ~ minecraft:air if score Random RandomOne5556 matches 500..749 run fill ~ ~1 ~ ~ ~1 ~ minecraft:structure_block{mode:"LOAD",name:"cm_module_megamix:small_farm_1",integrity:1.00,posX:2,posY:-6,posZ:2,rotation:"CLOCKWISE_180"} replace
execute unless block ~ ~-1 ~ #structures_crabmaster:water_lava unless block ~ ~-1 ~ minecraft:air if score Random RandomOne5556 matches 750..999 run fill ~ ~1 ~ ~ ~1 ~ minecraft:structure_block{mode:"LOAD",name:"cm_module_megamix:small_farm_1",integrity:1.00,posX:-2,posY:-6,posZ:2,rotation:"COUNTERCLOCKWISE_90"} replace

execute unless block ~ ~-1 ~ #structures_crabmaster:water_lava unless block ~ ~-1 ~ minecraft:air run fill ~ ~2 ~ ~ ~2 ~ minecraft:redstone_block replace
execute unless block ~ ~-1 ~ #structures_crabmaster:water_lava unless block ~ ~-1 ~ minecraft:air run fill ~ ~1 ~ ~ ~2 ~ minecraft:air replace