function structures_crabmaster:randomizers/randomizer_1

execute positioned ~30 ~8 ~5 if score Random RandomOne5556 matches 0..249 run function cm_module_megamix:structures/small_parts/farm_well_2
execute positioned ~-15 ~8 ~28 if score Random RandomOne5556 matches 250..499 run function cm_module_megamix:structures/small_parts/farm_well_2
execute positioned ~-29 ~8 ~-12 if score Random RandomOne5556 matches 500..749 run function cm_module_megamix:structures/small_parts/farm_well_2
execute positioned ~7 ~8 ~-27 if score Random RandomOne5556 matches 750..999 run function cm_module_megamix:structures/small_parts/farm_well_2