execute as @s at @s run scoreboard players set @e[tag=CrowSpot,tag=C5556,distance=1..6] ExtraLogic5556 1 

function structures_crabmaster:randomizers/randomizer_1
execute if score Random RandomOne5556 matches 601.. run scoreboard players set @s ExtraLogic5556 1 

execute unless score @s ExtraLogic5556 matches 1 run function cm_module_megamix:structures/small_parts/scarecrow

kill @s
