forceload add ~-8 ~-8 ~8 ~8

execute unless block ~ ~-1 ~ #structures_crabmaster:water_lava unless block ~ ~-1 ~ minecraft:air run fill ~ ~ ~ ~ ~ ~ minecraft:structure_block{mode:"LOAD",name:"cm_module_megamix:village_tower",integrity:1.00,posX:-2,posY:-4,posZ:-2,rotation:"NONE"} replace

execute unless block ~ ~-1 ~ #structures_crabmaster:water_lava unless block ~ ~-1 ~ minecraft:air run fill ~ ~1 ~ ~ ~1 ~ minecraft:redstone_block replace

kill @e[type=minecraft:item,distance=..16]

scoreboard players set Random RandomOne5556 99999
scoreboard players set Biome Biome5556 999