x,y,z,id,prefix,type
1409,84,9416,f2_1,chests:random/common/p100,south
1397,84,9420,f2_2,chests:any/common/p100,east
1415,84,9415,f2_3,chests:random/rare/p100,south
1412,84,9452,f2_4,chests:quest,east
1385,84,9427,f2_5,chests:basic,south
1403,84,9451,f2_6,chests:botanics,barrel
1400,84,9451,f2_7,chests:basic,barrel_n
1398,86,9451,f2_8,chests:basic,barrel_n
1393,85,9451,f2_9,chests:basic,barrel_n
1378,86,9433,f2_10,chests:profession,barrel_e
1378,85,9432,f2_sec,trapped_chests:extra,south
1385,84,9427,f2_11,chests:basic,south
1413,86,9427,sauna,chests:quest,barrel_s
1398,78,9433,f1_1,chests:quest,west
1393,78,9416,f1_2,chests:basic,south
1395,78,9425,f1_b,chests:profession,barrel
1394,78,9447,f1_3,chests:random/common/p100,west
1387,80,9442,f1_4,chests:basic,barrel_s
1380,78,9450,f1_5,chests:smithing,north
1402,78,9442,f1_6,chests:epic,south
1396,78,9450,f1_7,chests:basic,barrel
1419,78,9451,f1_8,chests:quest,north
1367,78,9454,f1_9,chests:alchemy,barrel
1418,73,9415,f0_1,chests:basic,north
1418,73,9417,f0_2,chests:decoration,south
1417,74,9420,f0_3,chests:basic,barrel_e
1426,71,9413,f0_4,chests:basic,barrel_s
1429,70,9413,f0_5,chests:basic,barrel
1429,72,9420,f0_6,chests:quest,barrel_w