forceload add ~-8 ~-8 ~8 ~8

execute positioned ~ ~ ~ unless block ~ ~-3 ~ #structures_crabmaster:water_lava unless block ~ ~ ~ #structures_crabmaster:water_lava unless block ~ ~4 ~ #structures_crabmaster:water_lava run function cm_module_megamix:structures/clay_patch/spawn_1


execute if predicate structures_crabmaster:randomizers/0_1 positioned ~-4 ~2 ~3 run function cm_module_megamix:structures/clay_patch/land_down
execute if predicate structures_crabmaster:randomizers/0_25 positioned ~-6 ~2 ~-2 run function cm_module_megamix:structures/clay_patch/land_down
execute if predicate structures_crabmaster:randomizers/0_1 positioned ~2 ~2 ~-3 run function cm_module_megamix:structures/clay_patch/land_down
execute if predicate structures_crabmaster:randomizers/0_25 positioned ~-1 ~2 ~-5 run function cm_module_megamix:structures/clay_patch/land_down