forceload add ~-8 ~-8 ~8 ~8

execute positioned ~ ~ ~ unless block ~ ~-3 ~ #structures_crabmaster:water_lava unless block ~ ~ ~ #structures_crabmaster:water_lava unless block ~ ~4 ~ #structures_crabmaster:water_lava run function cm_module_megamix:structures/clay_patch/spawn_1


execute if predicate structures_crabmaster:randomizers/0_1 positioned ~4 ~2 ~2 run function cm_module_megamix:structures/clay_patch/land_up
execute if predicate structures_crabmaster:randomizers/0_25 positioned ~5 ~2 ~-2 run function cm_module_megamix:structures/clay_patch/land_up
execute if predicate structures_crabmaster:randomizers/0_1 positioned ~2 ~2 ~4 run function cm_module_megamix:structures/clay_patch/land_up
execute if predicate structures_crabmaster:randomizers/0_25 positioned ~-1 ~2 ~6 run function cm_module_megamix:structures/clay_patch/land_up