function buildmodeone:3d_editor/addons/converter/run
tellraw @a ["", {"text": ""}]
tellraw @a ["", {"text": ""}]
tellraw @a ["", {"text": ""}]
tellraw @a ["", {"text": ""}]
tellraw @a ["", {"text": ""}]
tellraw @a ["", {"text": ""}]
tellraw @a ["", {"text": "\u00A7m                                                                                ", "color": "dark_gray"}]
tellraw @a ["", {"text": "                           1.x to 2.x Converter", "color": "white"}]
function buildmodeone:3d_editor/settings/version
tellraw @a ["", {"text": "\u00A7m                                                                                ", "color": "dark_gray"}]
tellraw @a ["", {"text": ""}]
tellraw @a ["", {"text": ">> ", "color": "gold", "bold":true}, {"text": "Models of Version 1.x won't work with the new 2.x format!", "color": "gray", "bold":false}]
tellraw @a ["", {"text": ""}]
tellraw @a ["", {"text": ">> ", "color": "green", "bold":true}, {"text": "Updated ", "color": "gray"}, {"score":{"name":"@e[tag=bm1_3d_vars]","objective":"bm1_3d_add_cov"},"bold":true,"color":"green"}, {"text": " entities to new format.", "color": "gray", "bold":false}]
tellraw @a ["", {"text": ""}]
tellraw @a ["", {"text": ""}]
tellraw @a ["", {"text": ""}]
tellraw @a ["", {"text": ""}]
tellraw @a ["", {"text": ""}]
tellraw @s ["", {"text": "<< Settings", "color": "white", "bold": true, "clickEvent": {"action": "run_command", "value": "/function buildmodeone:3d_editor/settings/page1"}}]
tellraw @a ["", {"text": ""}]
tellraw @a ["", {"text": "\u00A7m                                                                                ", "color": "dark_gray"}]
tellraw @s ["", {"text": "                    Made by BuildmodeOne (pro_pixel_)", "clickEvent": {"action": "open_url", "value": "https://www.planetminecraft.com/member/buildmodeone/"}, "color": "gray"}]
tellraw @s ["", {"text": "\u00A7m                                                                                ", "color": "dark_gray"}]