{
  "type": "minecraft:entity",
  "pools": [
    {
      "rolls": 1,
      "conditions": [
        {
          "condition": "minecraft:random_chance_with_looting",
          "chance": 0.0,
          "looting_multiplier": 0.5
        }
      ],
      "entries": [
        {
          "type": "minecraft:loot_table",
          "name": "chests:items/avengers_sword",
          "weight": 1,
          "quality": 3
        },
        {
          "type":"minecraft:empty",
          "weight": 25
        }
      ]
    },
    {
      "rolls": 1,
      "entries": [
        {
          "type": "minecraft:item",
          "name": "minecraft:gold_nugget",
          "weight": 5,
          "quality": 3,
          "functions": [
            {
              "function": "minecraft:set_count",
              "count": {
                "min": 3,
                "max": 5
              }
            }
          ]
        },
        {
          "type": "minecraft:item",
          "name": "minecraft:emerald",
          "quality": 5,
          "weight": 5,
          "functions": [
            {
              "function": "minecraft:set_count",
              "count": {
                "min": 1,
                "max": 3
              }
            }
          ]
        },
        {
          "type": "minecraft:item",
          "name": "minecraft:iron_nugget",
          "weight": 5,
          "functions": [
            {
              "function": "minecraft:set_count",
              "count": {
                "min": 7,
                "max": 10
              }
            }
          ]
        },
        {
          "type": "minecraft:item",
          "name": "minecraft:quartz",
          "weight": 1,
          "quality": 3
        },
        {
          "type": "minecraft:item",
          "name": "minecraft:diamond",
          "weight": 0,
          "quality": 2
        },
        {
          "type": "minecraft:item",
          "name": "minecraft:prismarine_crystals",
          "weight": 1,
          "quality": 3
        }
      ]
    }
  ]
}