{
  "type": "minecraft:entity",
  "pools": [
    {
      "rolls": 2,
      "bonus_rolls": {
        "min": 0.2,
        "max": 0.4
      },
      "entries": [
        {
          "type": "minecraft:loot_table",
          "name": "mobs:basic",
          "weight": 10
        },
        {
          "type": "minecraft:loot_table",
          "name": "mobs:rare",
          "weight": 0,
          "quality": 2
        },
        {
          "type": "minecraft:loot_table",
          "name": "chests:reward/potions",
          "weight": 5,
          "quality": 1
        },
        {
          "type": "minecraft:loot_table",
          "name": "mobs:reagent",
          "weight": 10,
          "quality": -2
        }
      ]
    }
  ]
}