tag @s add bm1_3d_mpa
execute as @e[tag=bm1_3d_mtss] if score @s bm1_global_id = @a[tag=bm1_3d_mpa,limit=1,sort=nearest] bm1_global_id run tag @s add bm1_3d_mpa

execute as @e[tag=bm1_3d_mtss,tag=bm1_3d_mpa] at @s as @e[tag=bm1_3d_mth,limit=9,distance=..0.5,sort=nearest] run data merge entity @s {Marker:0b}

execute as @e[tag=bm1_3d_mtss,tag=bm1_3d_mpa] at @s as @e[tag=bm1_3d_mth,distance=..0.5,limit=1,sort=random] at @s run tp @s ~ ~ ~ ~5 ~
execute as @e[tag=bm1_3d_mtss,tag=bm1_3d_mpa] at @s as @e[tag=bm1_3d_mth,distance=..0.5,limit=1,sort=random] at @s run tp @s ~ ~ ~ ~10 ~

execute as @e[tag=bm1_3d_mtss,tag=bm1_3d_mpa] at @s as @e[tag=bm1_3d_mth,distance=..0.5,limit=1,sort=random] at @s run tp @s ~ ~ ~ ~5 ~
execute as @e[tag=bm1_3d_mtss,tag=bm1_3d_mpa] at @s as @e[tag=bm1_3d_mth,distance=..0.5,limit=1,sort=random] at @s run tp @s ~ ~ ~ ~10 ~

execute as @e[tag=bm1_3d_mtss,tag=bm1_3d_mpa] at @s as @e[tag=bm1_3d_mth,distance=..0.5,limit=1,sort=random] at @s run tp @s ~ ~ ~ ~5 ~
execute as @e[tag=bm1_3d_mtss,tag=bm1_3d_mpa] at @s as @e[tag=bm1_3d_mth,distance=..0.5,limit=1,sort=random] at @s run tp @s ~ ~ ~ ~10 ~

execute as @e[tag=bm1_3d_mtss,tag=bm1_3d_mpa] at @s as @e[tag=bm1_3d_mth,distance=..0.5,limit=1,sort=random] at @s run tp @s ~ ~ ~ ~5 ~
execute as @e[tag=bm1_3d_mtss,tag=bm1_3d_mpa] at @s as @e[tag=bm1_3d_mth,distance=..0.5,limit=1,sort=random] at @s run tp @s ~ ~ ~ ~10 ~

execute as @e[tag=bm1_3d_mtss,tag=bm1_3d_mpa] at @s as @e[tag=bm1_3d_mth,distance=..0.5,limit=1,sort=random] at @s run tp @s ~ ~ ~ ~5 ~
execute as @e[tag=bm1_3d_mtss,tag=bm1_3d_mpa] at @s as @e[tag=bm1_3d_mth,distance=..0.5,limit=1,sort=random] at @s run tp @s ~ ~ ~ ~10 ~

execute as @e[tag=bm1_3d_mtss,tag=bm1_3d_mpa] at @s as @e[tag=bm1_3d_mth,distance=..0.5,limit=1,sort=random] at @s run tp @s ~ ~ ~ ~5 ~
execute as @e[tag=bm1_3d_mtss,tag=bm1_3d_mpa] at @s as @e[tag=bm1_3d_mth,distance=..0.5,limit=1,sort=random] at @s run tp @s ~ ~ ~ ~10 ~

execute as @e[tag=bm1_3d_mtss,tag=bm1_3d_mpa] at @s as @e[tag=bm1_3d_mth,distance=..0.5,limit=1,sort=random] at @s run tp @s ~ ~ ~ ~45 ~
execute as @e[tag=bm1_3d_mtss,tag=bm1_3d_mpa] at @s as @e[tag=bm1_3d_mth,distance=..0.5,limit=1,sort=random] at @s run tp @s ~ ~ ~ ~90 ~
execute as @e[tag=bm1_3d_mtss,tag=bm1_3d_mpa] at @s as @e[tag=bm1_3d_mth,distance=..0.5,limit=1,sort=random] at @s run tp @s ~ ~ ~ ~180 ~
execute as @e[tag=bm1_3d_mtss,tag=bm1_3d_mpa] at @s as @e[tag=bm1_3d_mth,distance=..0.5,limit=1,sort=random] at @s run tp @s ~ ~ ~ ~270 ~

execute as @e[tag=bm1_3d_mtss,tag=bm1_3d_mpa] at @s as @e[tag=bm1_3d_mth,distance=..0.5,limit=1,sort=random] at @s run tp @s ~ ~ ~ ~45 ~
execute as @e[tag=bm1_3d_mtss,tag=bm1_3d_mpa] at @s as @e[tag=bm1_3d_mth,distance=..0.5,limit=1,sort=random] at @s run tp @s ~ ~ ~ ~90 ~
execute as @e[tag=bm1_3d_mtss,tag=bm1_3d_mpa] at @s as @e[tag=bm1_3d_mth,distance=..0.5,limit=1,sort=random] at @s run tp @s ~ ~ ~ ~180 ~
execute as @e[tag=bm1_3d_mtss,tag=bm1_3d_mpa] at @s as @e[tag=bm1_3d_mth,distance=..0.5,limit=1,sort=random] at @s run tp @s ~ ~ ~ ~270 ~

execute as @e[tag=bm1_3d_mtss,tag=bm1_3d_mpa] at @s as @e[tag=bm1_3d_mth,limit=9,distance=..0.5,sort=nearest] run data merge entity @s {Marker:1b}

function buildmodeone:3d_editor/addons/litemode/reminder/schedule

tag @e[tag=bm1_3d_mpa] remove bm1_3d_mpa