{
  "type": "minecraft:chest",
  "pools": [
    {
      "rolls": {
        "min": 4,
        "max": 6
      },
      "bonus_rolls": {
        "min": 0.5,
        "max": 1.7
      },
      "entries": [
        {
          "type": "minecraft:loot_table",
          "name": "chests:reward/var1",
          "weight": 2,
          "quality": 1
        },
        {
          "type": "minecraft:loot_table",
          "name": "chests:reward/var2",
          "weight": 2,
          "quality": 1
        }
      ]
    },
    {
      "rolls": {
        "min": 3,
        "max": 4
      },
      "bonus_rolls": {
        "min": 1.2,
        "max": 1.5
      },
      "entries": [
        {
          "type": "minecraft:loot_table",
          "name": "chests:reward/potions"
        },
        {
          "type": "minecraft:loot_table",
          "name": "chests:reward/var3"
        }
      ]
    },
    {
      "rolls": 1,
      "entries": [
        {
          "type": "minecraft:item",
          "name": "minecraft:experience_bottle",
          "weight": 1,
          "functions": [
            {
              "function": "minecraft:set_count",
              "count": {
                "min": 2,
                "max": 3
              }
            }
          ]
        }
      ]
    },
    {
      "rolls": 1,
      "entries": [
        {
          "type": "minecraft:loot_table",
          "name": "chests:reward/rep_token"
        }
      ]
    }
  ]
}