{
    "type": "crafting_shaped",
    "pattern": [
        "N#N",
        "#E#",
        "N#N"
    ],
    "key": {
        "#": {
            "item": "minecraft:white_dye"
        },
        "N": {
            "item": "minecraft:redstone"
        },
        "E": {
            "item": "minecraft:writable_book"
        }
    },
    "result": {
        "item": "minecraft:barrier",
        "count": 1
    }
}