execute unless score @s main_quest_a matches 1.. unless score @s main_quest_b matches 1.. unless score @s main_quest_c matches 1.. run tellraw @s ["",{"text":"\n\n\u2691","color":"gold"},{"text":" Story Quest","bold":true},{"text":": Travel to "},{"text":"the South","bold":true,"italic":true},{"text":" and search for valuable documents at the "},{"text":"The University","bold":true,"color":"dark_green"}]
function quests:notify/plot_a
function quests:notify/plot_b
function quests:notify/plot_c