{
  "pools": [
    {
      "rolls": 1,
      "entries": [
        {
          "type": "minecraft:loot_table",
          "name": "quests:secret_spice_mix",
          "weight": 1,
          "quality": 1
        },
        {
          "type": "minecraft:empty",
          "weight": 45
        }
      ]
    },
    {
      "rolls": 1,
      "entries": [
        {
          "type": "minecraft:loot_table",
          "name": "mobs:basic_drop",
          "weight": 5
        },
        {
          "type": "minecraft:loot_table",
          "name": "chests:basic_chest",
          "weight": 2
        },
        {
          "type": "minecraft:empty",
          "weight": 10
        },
        {
          "type": "minecraft:loot_table",
          "name": "chests:alchemy",
          "weight": 1
        },
        {
          "type": "minecraft:loot_table",
          "name": "chests:smithing",
          "weight": 1
        },
        {
          "type": "minecraft:loot_table",
          "name": "chests:q_reward",
          "weight": 1
        }
      ]
    }
  ]
}