forceload add ~-8 ~-8 ~8 ~8

execute positioned ~ ~ ~ unless block ~ ~-1 ~ #structures_crabmaster:water_lava unless block ~ ~ ~ #structures_crabmaster:water_lava unless block ~ ~1 ~ #structures_crabmaster:water_lava run function cm_module_megamix:structures/palm_patch/spawn_1

#setblock ~ ~ ~ minecraft:blue_wool

execute if predicate structures_crabmaster:randomizers/0_1 positioned ~-5 ~8 ~3 run function cm_module_megamix:structures/palm_patch/land_right
execute if predicate structures_crabmaster:randomizers/0_25 positioned ~-8 ~8 ~-2 run function cm_module_megamix:structures/palm_patch/land_right
execute if predicate structures_crabmaster:randomizers/0_1 positioned ~4 ~8 ~6 run function cm_module_megamix:structures/palm_patch/land_right
execute if predicate structures_crabmaster:randomizers/0_25 positioned ~-3 ~8 ~9 run function cm_module_megamix:structures/palm_patch/land_right