forceload add ~-8 ~-8 ~8 ~8

execute positioned ~ ~ ~ unless block ~ ~-1 ~ #structures_crabmaster:water_lava unless block ~ ~ ~ #structures_crabmaster:water_lava unless block ~ ~1 ~ #structures_crabmaster:water_lava run function cm_module_megamix:structures/palm_patch/spawn_1

#setblock ~ ~ ~ minecraft:orange_wool

execute if predicate structures_crabmaster:randomizers/0_1 positioned ~-6 ~8 ~4 run function cm_module_megamix:structures/palm_patch/land_down
execute if predicate structures_crabmaster:randomizers/0_25 positioned ~-9 ~8 ~-3 run function cm_module_megamix:structures/palm_patch/land_down
execute if predicate structures_crabmaster:randomizers/0_1 positioned ~3 ~8 ~-5 run function cm_module_megamix:structures/palm_patch/land_down
execute if predicate structures_crabmaster:randomizers/0_25 positioned ~-2 ~8 ~-8 run function cm_module_megamix:structures/palm_patch/land_down