function utils:free_items/reset
function utils:free_items/calc_cooldown
function utils:free_items/click
tellraw @s [{"text":"\n\n\n\n\n\n"},{"text":"\u2581\u2582\u2583\u2584\u2585\u2586\u2587\u2588\u2593\u2592\u2591","color":"dark_aqua"},{"text":"Make a choice","bold":true,"color":"white"},{"text":"\u2591\u2592\u2593\u2588\u2587\u2586\u2585\u2584\u2583\u2582\u2581","color":"dark_aqua"}]
scoreboard players set @s freeItemCooldown 200
function utils:free_items/set_cooldown
tellraw @s[scores={reputation=0..}] [{"text":"","clickEvent":{"action":"run_command","value":"/trigger trgFreeItem set 471548"},"extra":[{"text":"\u1455\u1368\u25ba ","bold":true,"color":"gold"},{"text":"Sprucewood Creek","underlined":true,"color":"yellow"},{"text":" \u27f2 ","bold":true,"color":"gold"},{"score":{"name":"@s","objective":"freeItemSecs"},"color":"aqua","bold":false},{"text":"s","bold":true,"color":"dark_aqua"},{"text":" \u25c4\u1368\u1450","bold":true,"color":"gold"}],"hoverEvent":{"value":[{"text":"Click to get this bonus","color":"white","italic":true},{"text":"\n"},{"text":"Base cooldown: ","italic":false,"color":"gray"},{"text":"10","color":"aqua","italic":false},{"text":" seconds","color":"dark_aqua","italic":false},{"text":"\n"},{"italic":true,"color":"reset","text":"Instantly teleports you to "},{"bold":true,"italic":false,"color":"dark_green","text":"Sprucewood Creek"}],"action":"show_text"}}]
execute unless score @s reputation matches 0.. unless score @s freeItemPeek matches 1.. run tellraw @s [{"color":"gray","text":"","extra":[{"text":"\u1455\u1368\u25ba ","bold":true},{"text":"Sprucewood Creek ","bold":false,"obfuscated":false},{"text":" \u26a0 ","color":"dark_red","bold":false},{"text":"0","color":"green"},{"text":"\u2698 ","bold":true,"color":"dark_green"},{"text":"\u25c4\u1368\u1450","bold":true,"color":"gray"}],"hoverEvent":{"value":[{"text":"\u26a0 ","color":"dark_red","italic":false},{"text":"Requires ","color":"white","italic":false},{"text":"0 ","color":"green","italic":false},{"italic":false,"text":"\u2698","color":"dark_green","bold":true},{"italic":false,"text":"Reputation","color":"dark_green"},{"text":"\n"},{"italic":true,"color":"gray","text":"Instantly teleports you to "},{"bold":true,"italic":false,"color":"gray","text":"Sprucewood Creek"}],"action":"show_text"}}]
execute unless score @s reputation matches 0.. if score @s freeItemPeek matches 1.. run tellraw @s [{"color":"gray","text":"","extra":[{"text":"\u1455\u1368\u25ba ","bold":true},{"text":"orkouwprCcedSee ","bold":false,"obfuscated":true},{"text":" \u26a0 ","color":"dark_red","bold":false},{"text":"0","color":"green"},{"text":"\u2698 ","bold":true,"color":"dark_green"},{"text":"\u25c4\u1368\u1450","bold":true,"color":"gray"}],"hoverEvent":{"value":"{id:enchanted_book,Count:1b,tag:{display:{Lore:['[{\"text\":\"\u26a0 \",\"color\":\"dark_red\",\"italic\":false},{\"text\":\"Requires \",\"color\":\"white\",\"italic\":false},{\"text\":\"0 \",\"color\":\"green\",\"italic\":false},{\"italic\":false,\"text\":\"\u2698\",\"color\":\"dark_green\",\"bold\":true},{\"italic\":false,\"text\":\"Reputation\",\"color\":\"dark_green\"}]'],Name:'{\"text\":\"Unknown\",\"color\":\"gray\",\"bold\":\"false\",\"italic\":false}'}}}","action":"show_item"}}]
execute unless score @s reputation matches 0.. unless score @s freeItemPeek matches 1.. run scoreboard players set @s freeItemPeek 1
scoreboard players set @s freeItemCooldown 200
function utils:free_items/set_cooldown
tellraw @s[scores={reputation=5..}] [{"text":"","clickEvent":{"action":"run_command","value":"/trigger trgFreeItem set 482203"},"extra":[{"text":"\u1455\u1368\u25ba ","bold":true,"color":"gold"},{"text":"Snake Shrine","underlined":true,"color":"yellow"},{"text":" \u27f2 ","bold":true,"color":"gold"},{"score":{"name":"@s","objective":"freeItemSecs"},"color":"aqua","bold":false},{"text":"s","bold":true,"color":"dark_aqua"},{"text":" \u25c4\u1368\u1450","bold":true,"color":"gold"}],"hoverEvent":{"value":[{"text":"Click to get this bonus","color":"white","italic":true},{"text":"\n"},{"text":"Base cooldown: ","italic":false,"color":"gray"},{"text":"10","color":"aqua","italic":false},{"text":" seconds","color":"dark_aqua","italic":false},{"text":"\n"},{"italic":true,"color":"reset","text":"Instantly teleports you to "},{"bold":true,"italic":false,"color":"dark_green","text":"Snake Shrine"}],"action":"show_text"}}]
execute unless score @s reputation matches 5.. unless score @s freeItemPeek matches 1.. run tellraw @s [{"color":"gray","text":"","extra":[{"text":"\u1455\u1368\u25ba ","bold":true},{"text":"Snake Shrine ","bold":false,"obfuscated":false},{"text":" \u26a0 ","color":"dark_red","bold":false},{"text":"5","color":"green"},{"text":"\u2698 ","bold":true,"color":"dark_green"},{"text":"\u25c4\u1368\u1450","bold":true,"color":"gray"}],"hoverEvent":{"value":[{"text":"\u26a0 ","color":"dark_red","italic":false},{"text":"Requires ","color":"white","italic":false},{"text":"5 ","color":"green","italic":false},{"italic":false,"text":"\u2698","color":"dark_green","bold":true},{"italic":false,"text":"Reputation","color":"dark_green"},{"text":"\n"},{"italic":true,"color":"gray","text":"Instantly teleports you to "},{"bold":true,"italic":false,"color":"gray","text":"Snake Shrine"}],"action":"show_text"}}]
execute unless score @s reputation matches 5.. if score @s freeItemPeek matches 1.. run tellraw @s [{"color":"gray","text":"","extra":[{"text":"\u1455\u1368\u25ba ","bold":true},{"text":"iakeSnSrh ne ","bold":false,"obfuscated":true},{"text":" \u26a0 ","color":"dark_red","bold":false},{"text":"5","color":"green"},{"text":"\u2698 ","bold":true,"color":"dark_green"},{"text":"\u25c4\u1368\u1450","bold":true,"color":"gray"}],"hoverEvent":{"value":"{id:enchanted_book,Count:1b,tag:{display:{Lore:['[{\"text\":\"\u26a0 \",\"color\":\"dark_red\",\"italic\":false},{\"text\":\"Requires \",\"color\":\"white\",\"italic\":false},{\"text\":\"5 \",\"color\":\"green\",\"italic\":false},{\"italic\":false,\"text\":\"\u2698\",\"color\":\"dark_green\",\"bold\":true},{\"italic\":false,\"text\":\"Reputation\",\"color\":\"dark_green\"}]'],Name:'{\"text\":\"Unknown\",\"color\":\"gray\",\"bold\":\"false\",\"italic\":false}'}}}","action":"show_item"}}]
execute unless score @s reputation matches 5.. unless score @s freeItemPeek matches 1.. run scoreboard players set @s freeItemPeek 1
scoreboard players set @s freeItemCooldown 200
function utils:free_items/set_cooldown
tellraw @s[scores={reputation=10..}] [{"text":"","clickEvent":{"action":"run_command","value":"/trigger trgFreeItem set 496697"},"extra":[{"text":"\u1455\u1368\u25ba ","bold":true,"color":"gold"},{"text":"Crossing Sands","underlined":true,"color":"yellow"},{"text":" \u27f2 ","bold":true,"color":"gold"},{"score":{"name":"@s","objective":"freeItemSecs"},"color":"aqua","bold":false},{"text":"s","bold":true,"color":"dark_aqua"},{"text":" \u25c4\u1368\u1450","bold":true,"color":"gold"}],"hoverEvent":{"value":[{"text":"Click to get this bonus","color":"white","italic":true},{"text":"\n"},{"text":"Base cooldown: ","italic":false,"color":"gray"},{"text":"10","color":"aqua","italic":false},{"text":" seconds","color":"dark_aqua","italic":false},{"text":"\n"},{"italic":true,"color":"reset","text":"Instantly teleports you to "},{"bold":true,"italic":false,"color":"dark_green","text":"Crossing Sands"}],"action":"show_text"}}]
execute unless score @s reputation matches 10.. unless score @s freeItemPeek matches 1.. run tellraw @s [{"color":"gray","text":"","extra":[{"text":"\u1455\u1368\u25ba ","bold":true},{"text":"Crossing Sands ","bold":false,"obfuscated":false},{"text":" \u26a0 ","color":"dark_red","bold":false},{"text":"10","color":"green"},{"text":"\u2698 ","bold":true,"color":"dark_green"},{"text":"\u25c4\u1368\u1450","bold":true,"color":"gray"}],"hoverEvent":{"value":[{"text":"\u26a0 ","color":"dark_red","italic":false},{"text":"Requires ","color":"white","italic":false},{"text":"10 ","color":"green","italic":false},{"italic":false,"text":"\u2698","color":"dark_green","bold":true},{"italic":false,"text":"Reputation","color":"dark_green"},{"text":"\n"},{"italic":true,"color":"gray","text":"Instantly teleports you to "},{"bold":true,"italic":false,"color":"gray","text":"Crossing Sands"}],"action":"show_text"}}]
execute unless score @s reputation matches 10.. if score @s freeItemPeek matches 1.. run tellraw @s [{"color":"gray","text":"","extra":[{"text":"\u1455\u1368\u25ba ","bold":true},{"text":"CsnndsogiSsr a ","bold":false,"obfuscated":true},{"text":" \u26a0 ","color":"dark_red","bold":false},{"text":"10","color":"green"},{"text":"\u2698 ","bold":true,"color":"dark_green"},{"text":"\u25c4\u1368\u1450","bold":true,"color":"gray"}],"hoverEvent":{"value":"{id:enchanted_book,Count:1b,tag:{display:{Lore:['[{\"text\":\"\u26a0 \",\"color\":\"dark_red\",\"italic\":false},{\"text\":\"Requires \",\"color\":\"white\",\"italic\":false},{\"text\":\"10 \",\"color\":\"green\",\"italic\":false},{\"italic\":false,\"text\":\"\u2698\",\"color\":\"dark_green\",\"bold\":true},{\"italic\":false,\"text\":\"Reputation\",\"color\":\"dark_green\"}]'],Name:'{\"text\":\"Unknown\",\"color\":\"gray\",\"bold\":\"false\",\"italic\":false}'}}}","action":"show_item"}}]
execute unless score @s reputation matches 10.. unless score @s freeItemPeek matches 1.. run scoreboard players set @s freeItemPeek 1
scoreboard players set @s freeItemCooldown 200
function utils:free_items/set_cooldown
tellraw @s[scores={reputation=12..}] [{"text":"","clickEvent":{"action":"run_command","value":"/trigger trgFreeItem set 507831"},"extra":[{"text":"\u1455\u1368\u25ba ","bold":true,"color":"gold"},{"text":"Exampleton","underlined":true,"color":"yellow"},{"text":" \u27f2 ","bold":true,"color":"gold"},{"score":{"name":"@s","objective":"freeItemSecs"},"color":"aqua","bold":false},{"text":"s","bold":true,"color":"dark_aqua"},{"text":" \u25c4\u1368\u1450","bold":true,"color":"gold"}],"hoverEvent":{"value":[{"text":"Click to get this bonus","color":"white","italic":true},{"text":"\n"},{"text":"Base cooldown: ","italic":false,"color":"gray"},{"text":"10","color":"aqua","italic":false},{"text":" seconds","color":"dark_aqua","italic":false},{"text":"\n"},{"italic":true,"color":"reset","text":"Instantly teleports you to "},{"bold":true,"italic":false,"color":"dark_green","text":"Exampleton"}],"action":"show_text"}}]
execute unless score @s reputation matches 12.. unless score @s freeItemPeek matches 1.. run tellraw @s [{"color":"gray","text":"","extra":[{"text":"\u1455\u1368\u25ba ","bold":true},{"text":"Exampleton ","bold":false,"obfuscated":false},{"text":" \u26a0 ","color":"dark_red","bold":false},{"text":"12","color":"green"},{"text":"\u2698 ","bold":true,"color":"dark_green"},{"text":"\u25c4\u1368\u1450","bold":true,"color":"gray"}],"hoverEvent":{"value":[{"text":"\u26a0 ","color":"dark_red","italic":false},{"text":"Requires ","color":"white","italic":false},{"text":"12 ","color":"green","italic":false},{"italic":false,"text":"\u2698","color":"dark_green","bold":true},{"italic":false,"text":"Reputation","color":"dark_green"},{"text":"\n"},{"italic":true,"color":"gray","text":"Instantly teleports you to "},{"bold":true,"italic":false,"color":"gray","text":"Exampleton"}],"action":"show_text"}}]
execute unless score @s reputation matches 12.. if score @s freeItemPeek matches 1.. run tellraw @s [{"color":"gray","text":"","extra":[{"text":"\u1455\u1368\u25ba ","bold":true},{"text":"axtmElepon ","bold":false,"obfuscated":true},{"text":" \u26a0 ","color":"dark_red","bold":false},{"text":"12","color":"green"},{"text":"\u2698 ","bold":true,"color":"dark_green"},{"text":"\u25c4\u1368\u1450","bold":true,"color":"gray"}],"hoverEvent":{"value":"{id:enchanted_book,Count:1b,tag:{display:{Lore:['[{\"text\":\"\u26a0 \",\"color\":\"dark_red\",\"italic\":false},{\"text\":\"Requires \",\"color\":\"white\",\"italic\":false},{\"text\":\"12 \",\"color\":\"green\",\"italic\":false},{\"italic\":false,\"text\":\"\u2698\",\"color\":\"dark_green\",\"bold\":true},{\"italic\":false,\"text\":\"Reputation\",\"color\":\"dark_green\"}]'],Name:'{\"text\":\"Unknown\",\"color\":\"gray\",\"bold\":\"false\",\"italic\":false}'}}}","action":"show_item"}}]
execute unless score @s reputation matches 12.. unless score @s freeItemPeek matches 1.. run scoreboard players set @s freeItemPeek 1
scoreboard players set @s freeItemCooldown 200
function utils:free_items/set_cooldown
tellraw @s[scores={reputation=14..}] [{"text":"","clickEvent":{"action":"run_command","value":"/trigger trgFreeItem set 518283"},"extra":[{"text":"\u1455\u1368\u25ba ","bold":true,"color":"gold"},{"text":"The Zoo","underlined":true,"color":"yellow"},{"text":" \u27f2 ","bold":true,"color":"gold"},{"score":{"name":"@s","objective":"freeItemSecs"},"color":"aqua","bold":false},{"text":"s","bold":true,"color":"dark_aqua"},{"text":" \u25c4\u1368\u1450","bold":true,"color":"gold"}],"hoverEvent":{"value":[{"text":"Click to get this bonus","color":"white","italic":true},{"text":"\n"},{"text":"Base cooldown: ","italic":false,"color":"gray"},{"text":"10","color":"aqua","italic":false},{"text":" seconds","color":"dark_aqua","italic":false},{"text":"\n"},{"italic":true,"color":"reset","text":"Instantly teleports you to "},{"bold":true,"italic":false,"color":"gold","text":"The Zoo"}],"action":"show_text"}}]
execute unless score @s reputation matches 14.. unless score @s freeItemPeek matches 1.. run tellraw @s [{"color":"gray","text":"","extra":[{"text":"\u1455\u1368\u25ba ","bold":true},{"text":"The Zoo ","bold":false,"obfuscated":false},{"text":" \u26a0 ","color":"dark_red","bold":false},{"text":"14","color":"green"},{"text":"\u2698 ","bold":true,"color":"dark_green"},{"text":"\u25c4\u1368\u1450","bold":true,"color":"gray"}],"hoverEvent":{"value":[{"text":"\u26a0 ","color":"dark_red","italic":false},{"text":"Requires ","color":"white","italic":false},{"text":"14 ","color":"green","italic":false},{"italic":false,"text":"\u2698","color":"dark_green","bold":true},{"italic":false,"text":"Reputation","color":"dark_green"},{"text":"\n"},{"italic":true,"color":"gray","text":"Instantly teleports you to "},{"bold":true,"italic":false,"color":"gray","text":"The Zoo"}],"action":"show_text"}}]
execute unless score @s reputation matches 14.. if score @s freeItemPeek matches 1.. run tellraw @s [{"color":"gray","text":"","extra":[{"text":"\u1455\u1368\u25ba ","bold":true},{"text":"eThZ oo ","bold":false,"obfuscated":true},{"text":" \u26a0 ","color":"dark_red","bold":false},{"text":"14","color":"green"},{"text":"\u2698 ","bold":true,"color":"dark_green"},{"text":"\u25c4\u1368\u1450","bold":true,"color":"gray"}],"hoverEvent":{"value":"{id:enchanted_book,Count:1b,tag:{display:{Lore:['[{\"text\":\"\u26a0 \",\"color\":\"dark_red\",\"italic\":false},{\"text\":\"Requires \",\"color\":\"white\",\"italic\":false},{\"text\":\"14 \",\"color\":\"green\",\"italic\":false},{\"italic\":false,\"text\":\"\u2698\",\"color\":\"dark_green\",\"bold\":true},{\"italic\":false,\"text\":\"Reputation\",\"color\":\"dark_green\"}]'],Name:'{\"text\":\"Unknown\",\"color\":\"gray\",\"bold\":\"false\",\"italic\":false}'}}}","action":"show_item"}}]
execute unless score @s reputation matches 14.. unless score @s freeItemPeek matches 1.. run scoreboard players set @s freeItemPeek 1
scoreboard players set @s freeItemCooldown 200
function utils:free_items/set_cooldown
tellraw @s[scores={reputation=16..}] [{"text":"","clickEvent":{"action":"run_command","value":"/trigger trgFreeItem set 528278"},"extra":[{"text":"\u1455\u1368\u25ba ","bold":true,"color":"gold"},{"text":"Hanging Hills","underlined":true,"color":"yellow"},{"text":" \u27f2 ","bold":true,"color":"gold"},{"score":{"name":"@s","objective":"freeItemSecs"},"color":"aqua","bold":false},{"text":"s","bold":true,"color":"dark_aqua"},{"text":" \u25c4\u1368\u1450","bold":true,"color":"gold"}],"hoverEvent":{"value":[{"text":"Click to get this bonus","color":"white","italic":true},{"text":"\n"},{"text":"Base cooldown: ","italic":false,"color":"gray"},{"text":"10","color":"aqua","italic":false},{"text":" seconds","color":"dark_aqua","italic":false},{"text":"\n"},{"italic":true,"color":"reset","text":"Instantly teleports you to "},{"bold":true,"italic":false,"color":"dark_green","text":"Hanging Hills"}],"action":"show_text"}}]
execute unless score @s reputation matches 16.. unless score @s freeItemPeek matches 1.. run tellraw @s [{"color":"gray","text":"","extra":[{"text":"\u1455\u1368\u25ba ","bold":true},{"text":"Hanging Hills ","bold":false,"obfuscated":false},{"text":" \u26a0 ","color":"dark_red","bold":false},{"text":"16","color":"green"},{"text":"\u2698 ","bold":true,"color":"dark_green"},{"text":"\u25c4\u1368\u1450","bold":true,"color":"gray"}],"hoverEvent":{"value":[{"text":"\u26a0 ","color":"dark_red","italic":false},{"text":"Requires ","color":"white","italic":false},{"text":"16 ","color":"green","italic":false},{"italic":false,"text":"\u2698","color":"dark_green","bold":true},{"italic":false,"text":"Reputation","color":"dark_green"},{"text":"\n"},{"italic":true,"color":"gray","text":"Instantly teleports you to "},{"bold":true,"italic":false,"color":"gray","text":"Hanging Hills"}],"action":"show_text"}}]
execute unless score @s reputation matches 16.. if score @s freeItemPeek matches 1.. run tellraw @s [{"color":"gray","text":"","extra":[{"text":"\u1455\u1368\u25ba ","bold":true},{"text":"HnHnsiallgg i ","bold":false,"obfuscated":true},{"text":" \u26a0 ","color":"dark_red","bold":false},{"text":"16","color":"green"},{"text":"\u2698 ","bold":true,"color":"dark_green"},{"text":"\u25c4\u1368\u1450","bold":true,"color":"gray"}],"hoverEvent":{"value":"{id:enchanted_book,Count:1b,tag:{display:{Lore:['[{\"text\":\"\u26a0 \",\"color\":\"dark_red\",\"italic\":false},{\"text\":\"Requires \",\"color\":\"white\",\"italic\":false},{\"text\":\"16 \",\"color\":\"green\",\"italic\":false},{\"italic\":false,\"text\":\"\u2698\",\"color\":\"dark_green\",\"bold\":true},{\"italic\":false,\"text\":\"Reputation\",\"color\":\"dark_green\"}]'],Name:'{\"text\":\"Unknown\",\"color\":\"gray\",\"bold\":\"false\",\"italic\":false}'}}}","action":"show_item"}}]
execute unless score @s reputation matches 16.. unless score @s freeItemPeek matches 1.. run scoreboard players set @s freeItemPeek 1
scoreboard players set @s freeItemCooldown 200
function utils:free_items/set_cooldown
tellraw @s[scores={reputation=18..}] [{"text":"","clickEvent":{"action":"run_command","value":"/trigger trgFreeItem set 533671"},"extra":[{"text":"\u1455\u1368\u25ba ","bold":true,"color":"gold"},{"text":"Sandy Haven","underlined":true,"color":"yellow"},{"text":" \u27f2 ","bold":true,"color":"gold"},{"score":{"name":"@s","objective":"freeItemSecs"},"color":"aqua","bold":false},{"text":"s","bold":true,"color":"dark_aqua"},{"text":" \u25c4\u1368\u1450","bold":true,"color":"gold"}],"hoverEvent":{"value":[{"text":"Click to get this bonus","color":"white","italic":true},{"text":"\n"},{"text":"Base cooldown: ","italic":false,"color":"gray"},{"text":"10","color":"aqua","italic":false},{"text":" seconds","color":"dark_aqua","italic":false},{"text":"\n"},{"italic":true,"color":"reset","text":"Instantly teleports you to "},{"bold":true,"italic":false,"color":"dark_green","text":"Sandy Haven"}],"action":"show_text"}}]
execute unless score @s reputation matches 18.. unless score @s freeItemPeek matches 1.. run tellraw @s [{"color":"gray","text":"","extra":[{"text":"\u1455\u1368\u25ba ","bold":true},{"text":"Sandy Haven ","bold":false,"obfuscated":false},{"text":" \u26a0 ","color":"dark_red","bold":false},{"text":"18","color":"green"},{"text":"\u2698 ","bold":true,"color":"dark_green"},{"text":"\u25c4\u1368\u1450","bold":true,"color":"gray"}],"hoverEvent":{"value":[{"text":"\u26a0 ","color":"dark_red","italic":false},{"text":"Requires ","color":"white","italic":false},{"text":"18 ","color":"green","italic":false},{"italic":false,"text":"\u2698","color":"dark_green","bold":true},{"italic":false,"text":"Reputation","color":"dark_green"},{"text":"\n"},{"italic":true,"color":"gray","text":"Instantly teleports you to "},{"bold":true,"italic":false,"color":"gray","text":"Sandy Haven"}],"action":"show_text"}}]
execute unless score @s reputation matches 18.. if score @s freeItemPeek matches 1.. run tellraw @s [{"color":"gray","text":"","extra":[{"text":"\u1455\u1368\u25ba ","bold":true},{"text":"aSevn nyHad ","bold":false,"obfuscated":true},{"text":" \u26a0 ","color":"dark_red","bold":false},{"text":"18","color":"green"},{"text":"\u2698 ","bold":true,"color":"dark_green"},{"text":"\u25c4\u1368\u1450","bold":true,"color":"gray"}],"hoverEvent":{"value":"{id:enchanted_book,Count:1b,tag:{display:{Lore:['[{\"text\":\"\u26a0 \",\"color\":\"dark_red\",\"italic\":false},{\"text\":\"Requires \",\"color\":\"white\",\"italic\":false},{\"text\":\"18 \",\"color\":\"green\",\"italic\":false},{\"italic\":false,\"text\":\"\u2698\",\"color\":\"dark_green\",\"bold\":true},{\"italic\":false,\"text\":\"Reputation\",\"color\":\"dark_green\"}]'],Name:'{\"text\":\"Unknown\",\"color\":\"gray\",\"bold\":\"false\",\"italic\":false}'}}}","action":"show_item"}}]
execute unless score @s reputation matches 18.. unless score @s freeItemPeek matches 1.. run scoreboard players set @s freeItemPeek 1
scoreboard players set @s freeItemCooldown 200
function utils:free_items/set_cooldown
tellraw @s[scores={reputation=20..}] [{"text":"","clickEvent":{"action":"run_command","value":"/trigger trgFreeItem set 549978"},"extra":[{"text":"\u1455\u1368\u25ba ","bold":true,"color":"gold"},{"text":"The Village (North)","underlined":true,"color":"yellow"},{"text":" \u27f2 ","bold":true,"color":"gold"},{"score":{"name":"@s","objective":"freeItemSecs"},"color":"aqua","bold":false},{"text":"s","bold":true,"color":"dark_aqua"},{"text":" \u25c4\u1368\u1450","bold":true,"color":"gold"}],"hoverEvent":{"value":[{"text":"Click to get this bonus","color":"white","italic":true},{"text":"\n"},{"text":"Base cooldown: ","italic":false,"color":"gray"},{"text":"10","color":"aqua","italic":false},{"text":" seconds","color":"dark_aqua","italic":false},{"text":"\n"},{"italic":true,"color":"reset","text":"Instantly teleports you to "},{"bold":true,"italic":false,"color":"dark_green","text":"The Village"}],"action":"show_text"}}]
execute unless score @s reputation matches 20.. unless score @s freeItemPeek matches 1.. run tellraw @s [{"color":"gray","text":"","extra":[{"text":"\u1455\u1368\u25ba ","bold":true},{"text":"The Village (North) ","bold":false,"obfuscated":false},{"text":" \u26a0 ","color":"dark_red","bold":false},{"text":"20","color":"green"},{"text":"\u2698 ","bold":true,"color":"dark_green"},{"text":"\u25c4\u1368\u1450","bold":true,"color":"gray"}],"hoverEvent":{"value":[{"text":"\u26a0 ","color":"dark_red","italic":false},{"text":"Requires ","color":"white","italic":false},{"text":"20 ","color":"green","italic":false},{"italic":false,"text":"\u2698","color":"dark_green","bold":true},{"italic":false,"text":"Reputation","color":"dark_green"},{"text":"\n"},{"italic":true,"color":"gray","text":"Instantly teleports you to "},{"bold":true,"italic":false,"color":"gray","text":"The Village"}],"action":"show_text"}}]
execute unless score @s reputation matches 20.. if score @s freeItemPeek matches 1.. run tellraw @s [{"color":"gray","text":"","extra":[{"text":"\u1455\u1368\u25ba ","bold":true},{"text":"gheohrNVa( eTt )lil ","bold":false,"obfuscated":true},{"text":" \u26a0 ","color":"dark_red","bold":false},{"text":"20","color":"green"},{"text":"\u2698 ","bold":true,"color":"dark_green"},{"text":"\u25c4\u1368\u1450","bold":true,"color":"gray"}],"hoverEvent":{"value":"{id:enchanted_book,Count:1b,tag:{display:{Lore:['[{\"text\":\"\u26a0 \",\"color\":\"dark_red\",\"italic\":false},{\"text\":\"Requires \",\"color\":\"white\",\"italic\":false},{\"text\":\"20 \",\"color\":\"green\",\"italic\":false},{\"italic\":false,\"text\":\"\u2698\",\"color\":\"dark_green\",\"bold\":true},{\"italic\":false,\"text\":\"Reputation\",\"color\":\"dark_green\"}]'],Name:'{\"text\":\"Unknown\",\"color\":\"gray\",\"bold\":\"false\",\"italic\":false}'}}}","action":"show_item"}}]
execute unless score @s reputation matches 20.. unless score @s freeItemPeek matches 1.. run scoreboard players set @s freeItemPeek 1
scoreboard players set @s freeItemCooldown 200
function utils:free_items/set_cooldown
tellraw @s[scores={reputation=22..}] [{"text":"","clickEvent":{"action":"run_command","value":"/trigger trgFreeItem set 558541"},"extra":[{"text":"\u1455\u1368\u25ba ","bold":true,"color":"gold"},{"text":"The Outpost","underlined":true,"color":"yellow"},{"text":" \u27f2 ","bold":true,"color":"gold"},{"score":{"name":"@s","objective":"freeItemSecs"},"color":"aqua","bold":false},{"text":"s","bold":true,"color":"dark_aqua"},{"text":" \u25c4\u1368\u1450","bold":true,"color":"gold"}],"hoverEvent":{"value":[{"text":"Click to get this bonus","color":"white","italic":true},{"text":"\n"},{"text":"Base cooldown: ","italic":false,"color":"gray"},{"text":"10","color":"aqua","italic":false},{"text":" seconds","color":"dark_aqua","italic":false},{"text":"\n"},{"italic":true,"color":"reset","text":"Instantly teleports you to "},{"bold":true,"italic":false,"color":"dark_green","text":"The Outpost"}],"action":"show_text"}}]
execute unless score @s reputation matches 22.. unless score @s freeItemPeek matches 1.. run tellraw @s [{"color":"gray","text":"","extra":[{"text":"\u1455\u1368\u25ba ","bold":true},{"text":"The Outpost ","bold":false,"obfuscated":false},{"text":" \u26a0 ","color":"dark_red","bold":false},{"text":"22","color":"green"},{"text":"\u2698 ","bold":true,"color":"dark_green"},{"text":"\u25c4\u1368\u1450","bold":true,"color":"gray"}],"hoverEvent":{"value":[{"text":"\u26a0 ","color":"dark_red","italic":false},{"text":"Requires ","color":"white","italic":false},{"text":"22 ","color":"green","italic":false},{"italic":false,"text":"\u2698","color":"dark_green","bold":true},{"italic":false,"text":"Reputation","color":"dark_green"},{"text":"\n"},{"italic":true,"color":"gray","text":"Instantly teleports you to "},{"bold":true,"italic":false,"color":"gray","text":"The Outpost"}],"action":"show_text"}}]
execute unless score @s reputation matches 22.. if score @s freeItemPeek matches 1.. run tellraw @s [{"color":"gray","text":"","extra":[{"text":"\u1455\u1368\u25ba ","bold":true},{"text":"s ouptOTeth ","bold":false,"obfuscated":true},{"text":" \u26a0 ","color":"dark_red","bold":false},{"text":"22","color":"green"},{"text":"\u2698 ","bold":true,"color":"dark_green"},{"text":"\u25c4\u1368\u1450","bold":true,"color":"gray"}],"hoverEvent":{"value":"{id:enchanted_book,Count:1b,tag:{display:{Lore:['[{\"text\":\"\u26a0 \",\"color\":\"dark_red\",\"italic\":false},{\"text\":\"Requires \",\"color\":\"white\",\"italic\":false},{\"text\":\"22 \",\"color\":\"green\",\"italic\":false},{\"italic\":false,\"text\":\"\u2698\",\"color\":\"dark_green\",\"bold\":true},{\"italic\":false,\"text\":\"Reputation\",\"color\":\"dark_green\"}]'],Name:'{\"text\":\"Unknown\",\"color\":\"gray\",\"bold\":\"false\",\"italic\":false}'}}}","action":"show_item"}}]
execute unless score @s reputation matches 22.. unless score @s freeItemPeek matches 1.. run scoreboard players set @s freeItemPeek 1
scoreboard players set @s freeItemCooldown 200
function utils:free_items/set_cooldown
tellraw @s[scores={reputation=24..}] [{"text":"","clickEvent":{"action":"run_command","value":"/trigger trgFreeItem set 567728"},"extra":[{"text":"\u1455\u1368\u25ba ","bold":true,"color":"gold"},{"text":"Shadesbury","underlined":true,"color":"yellow"},{"text":" \u27f2 ","bold":true,"color":"gold"},{"score":{"name":"@s","objective":"freeItemSecs"},"color":"aqua","bold":false},{"text":"s","bold":true,"color":"dark_aqua"},{"text":" \u25c4\u1368\u1450","bold":true,"color":"gold"}],"hoverEvent":{"value":[{"text":"Click to get this bonus","color":"white","italic":true},{"text":"\n"},{"text":"Base cooldown: ","italic":false,"color":"gray"},{"text":"10","color":"aqua","italic":false},{"text":" seconds","color":"dark_aqua","italic":false},{"text":"\n"},{"italic":true,"color":"reset","text":"Instantly teleports you to "},{"bold":true,"italic":false,"color":"dark_green","text":"Shadesbury"}],"action":"show_text"}}]
execute unless score @s reputation matches 24.. unless score @s freeItemPeek matches 1.. run tellraw @s [{"color":"gray","text":"","extra":[{"text":"\u1455\u1368\u25ba ","bold":true},{"text":"Shadesbury ","bold":false,"obfuscated":false},{"text":" \u26a0 ","color":"dark_red","bold":false},{"text":"24","color":"green"},{"text":"\u2698 ","bold":true,"color":"dark_green"},{"text":"\u25c4\u1368\u1450","bold":true,"color":"gray"}],"hoverEvent":{"value":[{"text":"\u26a0 ","color":"dark_red","italic":false},{"text":"Requires ","color":"white","italic":false},{"text":"24 ","color":"green","italic":false},{"italic":false,"text":"\u2698","color":"dark_green","bold":true},{"italic":false,"text":"Reputation","color":"dark_green"},{"text":"\n"},{"italic":true,"color":"gray","text":"Instantly teleports you to "},{"bold":true,"italic":false,"color":"gray","text":"Shadesbury"}],"action":"show_text"}}]
execute unless score @s reputation matches 24.. if score @s freeItemPeek matches 1.. run tellraw @s [{"color":"gray","text":"","extra":[{"text":"\u1455\u1368\u25ba ","bold":true},{"text":"radyhSesbu ","bold":false,"obfuscated":true},{"text":" \u26a0 ","color":"dark_red","bold":false},{"text":"24","color":"green"},{"text":"\u2698 ","bold":true,"color":"dark_green"},{"text":"\u25c4\u1368\u1450","bold":true,"color":"gray"}],"hoverEvent":{"value":"{id:enchanted_book,Count:1b,tag:{display:{Lore:['[{\"text\":\"\u26a0 \",\"color\":\"dark_red\",\"italic\":false},{\"text\":\"Requires \",\"color\":\"white\",\"italic\":false},{\"text\":\"24 \",\"color\":\"green\",\"italic\":false},{\"italic\":false,\"text\":\"\u2698\",\"color\":\"dark_green\",\"bold\":true},{\"italic\":false,\"text\":\"Reputation\",\"color\":\"dark_green\"}]'],Name:'{\"text\":\"Unknown\",\"color\":\"gray\",\"bold\":\"false\",\"italic\":false}'}}}","action":"show_item"}}]
execute unless score @s reputation matches 24.. unless score @s freeItemPeek matches 1.. run scoreboard players set @s freeItemPeek 1
scoreboard players set @s freeItemCooldown 200
function utils:free_items/set_cooldown
tellraw @s[scores={reputation=26..}] [{"text":"","clickEvent":{"action":"run_command","value":"/trigger trgFreeItem set 579602"},"extra":[{"text":"\u1455\u1368\u25ba ","bold":true,"color":"gold"},{"text":"Gleamsville","underlined":true,"color":"yellow"},{"text":" \u27f2 ","bold":true,"color":"gold"},{"score":{"name":"@s","objective":"freeItemSecs"},"color":"aqua","bold":false},{"text":"s","bold":true,"color":"dark_aqua"},{"text":" \u25c4\u1368\u1450","bold":true,"color":"gold"}],"hoverEvent":{"value":[{"text":"Click to get this bonus","color":"white","italic":true},{"text":"\n"},{"text":"Base cooldown: ","italic":false,"color":"gray"},{"text":"10","color":"aqua","italic":false},{"text":" seconds","color":"dark_aqua","italic":false},{"text":"\n"},{"italic":true,"color":"reset","text":"Instantly teleports you to "},{"bold":true,"italic":false,"color":"dark_green","text":"Gleamsville"}],"action":"show_text"}}]
execute unless score @s reputation matches 26.. unless score @s freeItemPeek matches 1.. run tellraw @s [{"color":"gray","text":"","extra":[{"text":"\u1455\u1368\u25ba ","bold":true},{"text":"Gleamsville ","bold":false,"obfuscated":false},{"text":" \u26a0 ","color":"dark_red","bold":false},{"text":"26","color":"green"},{"text":"\u2698 ","bold":true,"color":"dark_green"},{"text":"\u25c4\u1368\u1450","bold":true,"color":"gray"}],"hoverEvent":{"value":[{"text":"\u26a0 ","color":"dark_red","italic":false},{"text":"Requires ","color":"white","italic":false},{"text":"26 ","color":"green","italic":false},{"italic":false,"text":"\u2698","color":"dark_green","bold":true},{"italic":false,"text":"Reputation","color":"dark_green"},{"text":"\n"},{"italic":true,"color":"gray","text":"Instantly teleports you to "},{"bold":true,"italic":false,"color":"gray","text":"Gleamsville"}],"action":"show_text"}}]
execute unless score @s reputation matches 26.. if score @s freeItemPeek matches 1.. run tellraw @s [{"color":"gray","text":"","extra":[{"text":"\u1455\u1368\u25ba ","bold":true},{"text":"veaeismGlll ","bold":false,"obfuscated":true},{"text":" \u26a0 ","color":"dark_red","bold":false},{"text":"26","color":"green"},{"text":"\u2698 ","bold":true,"color":"dark_green"},{"text":"\u25c4\u1368\u1450","bold":true,"color":"gray"}],"hoverEvent":{"value":"{id:enchanted_book,Count:1b,tag:{display:{Lore:['[{\"text\":\"\u26a0 \",\"color\":\"dark_red\",\"italic\":false},{\"text\":\"Requires \",\"color\":\"white\",\"italic\":false},{\"text\":\"26 \",\"color\":\"green\",\"italic\":false},{\"italic\":false,\"text\":\"\u2698\",\"color\":\"dark_green\",\"bold\":true},{\"italic\":false,\"text\":\"Reputation\",\"color\":\"dark_green\"}]'],Name:'{\"text\":\"Unknown\",\"color\":\"gray\",\"bold\":\"false\",\"italic\":false}'}}}","action":"show_item"}}]
execute unless score @s reputation matches 26.. unless score @s freeItemPeek matches 1.. run scoreboard players set @s freeItemPeek 1
scoreboard players set @s freeItemCooldown 200
function utils:free_items/set_cooldown
tellraw @s[scores={reputation=28..}] [{"text":"","clickEvent":{"action":"run_command","value":"/trigger trgFreeItem set 582160"},"extra":[{"text":"\u1455\u1368\u25ba ","bold":true,"color":"gold"},{"text":"Sweet Meadows","underlined":true,"color":"yellow"},{"text":" \u27f2 ","bold":true,"color":"gold"},{"score":{"name":"@s","objective":"freeItemSecs"},"color":"aqua","bold":false},{"text":"s","bold":true,"color":"dark_aqua"},{"text":" \u25c4\u1368\u1450","bold":true,"color":"gold"}],"hoverEvent":{"value":[{"text":"Click to get this bonus","color":"white","italic":true},{"text":"\n"},{"text":"Base cooldown: ","italic":false,"color":"gray"},{"text":"10","color":"aqua","italic":false},{"text":" seconds","color":"dark_aqua","italic":false},{"text":"\n"},{"italic":true,"color":"reset","text":"Instantly teleports you to "},{"bold":true,"italic":false,"color":"dark_green","text":"Sweet Meadows"}],"action":"show_text"}}]
execute unless score @s reputation matches 28.. unless score @s freeItemPeek matches 1.. run tellraw @s [{"color":"gray","text":"","extra":[{"text":"\u1455\u1368\u25ba ","bold":true},{"text":"Sweet Meadows ","bold":false,"obfuscated":false},{"text":" \u26a0 ","color":"dark_red","bold":false},{"text":"28","color":"green"},{"text":"\u2698 ","bold":true,"color":"dark_green"},{"text":"\u25c4\u1368\u1450","bold":true,"color":"gray"}],"hoverEvent":{"value":[{"text":"\u26a0 ","color":"dark_red","italic":false},{"text":"Requires ","color":"white","italic":false},{"text":"28 ","color":"green","italic":false},{"italic":false,"text":"\u2698","color":"dark_green","bold":true},{"italic":false,"text":"Reputation","color":"dark_green"},{"text":"\n"},{"italic":true,"color":"gray","text":"Instantly teleports you to "},{"bold":true,"italic":false,"color":"gray","text":"Sweet Meadows"}],"action":"show_text"}}]
execute unless score @s reputation matches 28.. if score @s freeItemPeek matches 1.. run tellraw @s [{"color":"gray","text":"","extra":[{"text":"\u1455\u1368\u25ba ","bold":true},{"text":"daMoweSe twes ","bold":false,"obfuscated":true},{"text":" \u26a0 ","color":"dark_red","bold":false},{"text":"28","color":"green"},{"text":"\u2698 ","bold":true,"color":"dark_green"},{"text":"\u25c4\u1368\u1450","bold":true,"color":"gray"}],"hoverEvent":{"value":"{id:enchanted_book,Count:1b,tag:{display:{Lore:['[{\"text\":\"\u26a0 \",\"color\":\"dark_red\",\"italic\":false},{\"text\":\"Requires \",\"color\":\"white\",\"italic\":false},{\"text\":\"28 \",\"color\":\"green\",\"italic\":false},{\"italic\":false,\"text\":\"\u2698\",\"color\":\"dark_green\",\"bold\":true},{\"italic\":false,\"text\":\"Reputation\",\"color\":\"dark_green\"}]'],Name:'{\"text\":\"Unknown\",\"color\":\"gray\",\"bold\":\"false\",\"italic\":false}'}}}","action":"show_item"}}]
execute unless score @s reputation matches 28.. unless score @s freeItemPeek matches 1.. run scoreboard players set @s freeItemPeek 1
scoreboard players set @s freeItemCooldown 200
function utils:free_items/set_cooldown
tellraw @s[scores={reputation=30..}] [{"text":"","clickEvent":{"action":"run_command","value":"/trigger trgFreeItem set 594554"},"extra":[{"text":"\u1455\u1368\u25ba ","bold":true,"color":"gold"},{"text":"High Court","underlined":true,"color":"yellow"},{"text":" \u27f2 ","bold":true,"color":"gold"},{"score":{"name":"@s","objective":"freeItemSecs"},"color":"aqua","bold":false},{"text":"s","bold":true,"color":"dark_aqua"},{"text":" \u25c4\u1368\u1450","bold":true,"color":"gold"}],"hoverEvent":{"value":[{"text":"Click to get this bonus","color":"white","italic":true},{"text":"\n"},{"text":"Base cooldown: ","italic":false,"color":"gray"},{"text":"10","color":"aqua","italic":false},{"text":" seconds","color":"dark_aqua","italic":false},{"text":"\n"},{"italic":true,"color":"reset","text":"Instantly teleports you to "},{"bold":true,"italic":false,"color":"gold","text":"High Court"}],"action":"show_text"}}]
execute unless score @s reputation matches 30.. unless score @s freeItemPeek matches 1.. run tellraw @s [{"color":"gray","text":"","extra":[{"text":"\u1455\u1368\u25ba ","bold":true},{"text":"High Court ","bold":false,"obfuscated":false},{"text":" \u26a0 ","color":"dark_red","bold":false},{"text":"30","color":"green"},{"text":"\u2698 ","bold":true,"color":"dark_green"},{"text":"\u25c4\u1368\u1450","bold":true,"color":"gray"}],"hoverEvent":{"value":[{"text":"\u26a0 ","color":"dark_red","italic":false},{"text":"Requires ","color":"white","italic":false},{"text":"30 ","color":"green","italic":false},{"italic":false,"text":"\u2698","color":"dark_green","bold":true},{"italic":false,"text":"Reputation","color":"dark_green"},{"text":"\n"},{"italic":true,"color":"gray","text":"Instantly teleports you to "},{"bold":true,"italic":false,"color":"gray","text":"High Court"}],"action":"show_text"}}]
execute unless score @s reputation matches 30.. if score @s freeItemPeek matches 1.. run tellraw @s [{"color":"gray","text":"","extra":[{"text":"\u1455\u1368\u25ba ","bold":true},{"text":"CrHiouhg t ","bold":false,"obfuscated":true},{"text":" \u26a0 ","color":"dark_red","bold":false},{"text":"30","color":"green"},{"text":"\u2698 ","bold":true,"color":"dark_green"},{"text":"\u25c4\u1368\u1450","bold":true,"color":"gray"}],"hoverEvent":{"value":"{id:enchanted_book,Count:1b,tag:{display:{Lore:['[{\"text\":\"\u26a0 \",\"color\":\"dark_red\",\"italic\":false},{\"text\":\"Requires \",\"color\":\"white\",\"italic\":false},{\"text\":\"30 \",\"color\":\"green\",\"italic\":false},{\"italic\":false,\"text\":\"\u2698\",\"color\":\"dark_green\",\"bold\":true},{\"italic\":false,\"text\":\"Reputation\",\"color\":\"dark_green\"}]'],Name:'{\"text\":\"Unknown\",\"color\":\"gray\",\"bold\":\"false\",\"italic\":false}'}}}","action":"show_item"}}]
execute unless score @s reputation matches 30.. unless score @s freeItemPeek matches 1.. run scoreboard players set @s freeItemPeek 1
tellraw @s [{"text":"\u2588\u2588\u2588\u2588\u2588\u2588\u2593\u2593\u2593\u2593\u2592\u2592\u2592\u2592\u2591\u2591\u2591\u2591\u2592\u2592\u2592\u2592\u2593\u2593\u2593\u2593\u2588\u2588\u2588\u2588\u2588\u2588","color":"dark_aqua"}]