## Chests
fill -108 70 8600 -73 93 8635 nether_quartz_ore replace chest[facing=west]
fill -108 70 8636 -73 93 8671 nether_quartz_ore replace chest[facing=west]
fill -108 70 8672 -73 93 8707 nether_quartz_ore replace chest[facing=west]
fill -108 70 8708 -73 93 8742 nether_quartz_ore replace chest[facing=west]
fill -72 70 8600 -37 93 8635 nether_quartz_ore replace chest[facing=west]
fill -72 70 8636 -37 93 8671 nether_quartz_ore replace chest[facing=west]
fill -72 70 8672 -37 93 8707 nether_quartz_ore replace chest[facing=west]
fill -72 70 8708 -37 93 8742 nether_quartz_ore replace chest[facing=west]
fill -36 70 8600 -1 93 8635 nether_quartz_ore replace chest[facing=west]
fill -36 70 8636 -1 93 8671 nether_quartz_ore replace chest[facing=west]
fill -36 70 8672 -1 93 8707 nether_quartz_ore replace chest[facing=west]
fill -36 70 8708 -1 93 8742 nether_quartz_ore replace chest[facing=west]
fill 0 70 8600 35 93 8635 nether_quartz_ore replace chest[facing=west]
fill 0 70 8636 35 93 8671 nether_quartz_ore replace chest[facing=west]
fill 0 70 8672 35 93 8707 nether_quartz_ore replace chest[facing=west]
fill 0 70 8708 35 93 8742 nether_quartz_ore replace chest[facing=west]
fill -108 70 8600 -73 93 8635 gold_ore replace chest[facing=south]
fill -108 70 8636 -73 93 8671 gold_ore replace chest[facing=south]
fill -108 70 8672 -73 93 8707 gold_ore replace chest[facing=south]
fill -108 70 8708 -73 93 8742 gold_ore replace chest[facing=south]
fill -72 70 8600 -37 93 8635 gold_ore replace chest[facing=south]
fill -72 70 8636 -37 93 8671 gold_ore replace chest[facing=south]
fill -72 70 8672 -37 93 8707 gold_ore replace chest[facing=south]
fill -72 70 8708 -37 93 8742 gold_ore replace chest[facing=south]
fill -36 70 8600 -1 93 8635 gold_ore replace chest[facing=south]
fill -36 70 8636 -1 93 8671 gold_ore replace chest[facing=south]
fill -36 70 8672 -1 93 8707 gold_ore replace chest[facing=south]
fill -36 70 8708 -1 93 8742 gold_ore replace chest[facing=south]
fill 0 70 8600 35 93 8635 gold_ore replace chest[facing=south]
fill 0 70 8636 35 93 8671 gold_ore replace chest[facing=south]
fill 0 70 8672 35 93 8707 gold_ore replace chest[facing=south]
fill 0 70 8708 35 93 8742 gold_ore replace chest[facing=south]
fill -108 70 8600 -73 93 8635 bedrock replace chest[facing=east]
fill -108 70 8636 -73 93 8671 bedrock replace chest[facing=east]
fill -108 70 8672 -73 93 8707 bedrock replace chest[facing=east]
fill -108 70 8708 -73 93 8742 bedrock replace chest[facing=east]
fill -72 70 8600 -37 93 8635 bedrock replace chest[facing=east]
fill -72 70 8636 -37 93 8671 bedrock replace chest[facing=east]
fill -72 70 8672 -37 93 8707 bedrock replace chest[facing=east]
fill -72 70 8708 -37 93 8742 bedrock replace chest[facing=east]
fill -36 70 8600 -1 93 8635 bedrock replace chest[facing=east]
fill -36 70 8636 -1 93 8671 bedrock replace chest[facing=east]
fill -36 70 8672 -1 93 8707 bedrock replace chest[facing=east]
fill -36 70 8708 -1 93 8742 bedrock replace chest[facing=east]
fill 0 70 8600 35 93 8635 bedrock replace chest[facing=east]
fill 0 70 8636 35 93 8671 bedrock replace chest[facing=east]
fill 0 70 8672 35 93 8707 bedrock replace chest[facing=east]
fill 0 70 8708 35 93 8742 bedrock replace chest[facing=east]
fill -108 70 8600 -73 93 8635 diamond_ore replace chest[facing=north]
fill -108 70 8636 -73 93 8671 diamond_ore replace chest[facing=north]
fill -108 70 8672 -73 93 8707 diamond_ore replace chest[facing=north]
fill -108 70 8708 -73 93 8742 diamond_ore replace chest[facing=north]
fill -72 70 8600 -37 93 8635 diamond_ore replace chest[facing=north]
fill -72 70 8636 -37 93 8671 diamond_ore replace chest[facing=north]
fill -72 70 8672 -37 93 8707 diamond_ore replace chest[facing=north]
fill -72 70 8708 -37 93 8742 diamond_ore replace chest[facing=north]
fill -36 70 8600 -1 93 8635 diamond_ore replace chest[facing=north]
fill -36 70 8636 -1 93 8671 diamond_ore replace chest[facing=north]
fill -36 70 8672 -1 93 8707 diamond_ore replace chest[facing=north]
fill -36 70 8708 -1 93 8742 diamond_ore replace chest[facing=north]
fill 0 70 8600 35 93 8635 diamond_ore replace chest[facing=north]
fill 0 70 8636 35 93 8671 diamond_ore replace chest[facing=north]
fill 0 70 8672 35 93 8707 diamond_ore replace chest[facing=north]
fill 0 70 8708 35 93 8742 diamond_ore replace chest[facing=north]
kill @e[type=item,x=-108,y=70,z=8600,dx=144,dy=23,dz=144]
fill -108 70 8600 -73 93 8635 chest[facing=west]{LootTable:"chests:common/exampleton"} replace nether_quartz_ore
fill -108 70 8636 -73 93 8671 chest[facing=west]{LootTable:"chests:common/exampleton"} replace nether_quartz_ore
fill -108 70 8672 -73 93 8707 chest[facing=west]{LootTable:"chests:common/exampleton"} replace nether_quartz_ore
fill -108 70 8708 -73 93 8742 chest[facing=west]{LootTable:"chests:common/exampleton"} replace nether_quartz_ore
fill -72 70 8600 -37 93 8635 chest[facing=west]{LootTable:"chests:common/exampleton"} replace nether_quartz_ore
fill -72 70 8636 -37 93 8671 chest[facing=west]{LootTable:"chests:common/exampleton"} replace nether_quartz_ore
fill -72 70 8672 -37 93 8707 chest[facing=west]{LootTable:"chests:common/exampleton"} replace nether_quartz_ore
fill -72 70 8708 -37 93 8742 chest[facing=west]{LootTable:"chests:common/exampleton"} replace nether_quartz_ore
fill -36 70 8600 -1 93 8635 chest[facing=west]{LootTable:"chests:common/exampleton"} replace nether_quartz_ore
fill -36 70 8636 -1 93 8671 chest[facing=west]{LootTable:"chests:common/exampleton"} replace nether_quartz_ore
fill -36 70 8672 -1 93 8707 chest[facing=west]{LootTable:"chests:common/exampleton"} replace nether_quartz_ore
fill -36 70 8708 -1 93 8742 chest[facing=west]{LootTable:"chests:common/exampleton"} replace nether_quartz_ore
fill 0 70 8600 35 93 8635 chest[facing=west]{LootTable:"chests:common/exampleton"} replace nether_quartz_ore
fill 0 70 8636 35 93 8671 chest[facing=west]{LootTable:"chests:common/exampleton"} replace nether_quartz_ore
fill 0 70 8672 35 93 8707 chest[facing=west]{LootTable:"chests:common/exampleton"} replace nether_quartz_ore
fill 0 70 8708 35 93 8742 chest[facing=west]{LootTable:"chests:common/exampleton"} replace nether_quartz_ore
fill -108 70 8600 -73 93 8635 chest[facing=south]{LootTable:"chests:common/exampleton"} replace gold_ore
fill -108 70 8636 -73 93 8671 chest[facing=south]{LootTable:"chests:common/exampleton"} replace gold_ore
fill -108 70 8672 -73 93 8707 chest[facing=south]{LootTable:"chests:common/exampleton"} replace gold_ore
fill -108 70 8708 -73 93 8742 chest[facing=south]{LootTable:"chests:common/exampleton"} replace gold_ore
fill -72 70 8600 -37 93 8635 chest[facing=south]{LootTable:"chests:common/exampleton"} replace gold_ore
fill -72 70 8636 -37 93 8671 chest[facing=south]{LootTable:"chests:common/exampleton"} replace gold_ore
fill -72 70 8672 -37 93 8707 chest[facing=south]{LootTable:"chests:common/exampleton"} replace gold_ore
fill -72 70 8708 -37 93 8742 chest[facing=south]{LootTable:"chests:common/exampleton"} replace gold_ore
fill -36 70 8600 -1 93 8635 chest[facing=south]{LootTable:"chests:common/exampleton"} replace gold_ore
fill -36 70 8636 -1 93 8671 chest[facing=south]{LootTable:"chests:common/exampleton"} replace gold_ore
fill -36 70 8672 -1 93 8707 chest[facing=south]{LootTable:"chests:common/exampleton"} replace gold_ore
fill -36 70 8708 -1 93 8742 chest[facing=south]{LootTable:"chests:common/exampleton"} replace gold_ore
fill 0 70 8600 35 93 8635 chest[facing=south]{LootTable:"chests:common/exampleton"} replace gold_ore
fill 0 70 8636 35 93 8671 chest[facing=south]{LootTable:"chests:common/exampleton"} replace gold_ore
fill 0 70 8672 35 93 8707 chest[facing=south]{LootTable:"chests:common/exampleton"} replace gold_ore
fill 0 70 8708 35 93 8742 chest[facing=south]{LootTable:"chests:common/exampleton"} replace gold_ore
fill -108 70 8600 -73 93 8635 chest[facing=east]{LootTable:"chests:common/exampleton"} replace bedrock
fill -108 70 8636 -73 93 8671 chest[facing=east]{LootTable:"chests:common/exampleton"} replace bedrock
fill -108 70 8672 -73 93 8707 chest[facing=east]{LootTable:"chests:common/exampleton"} replace bedrock
fill -108 70 8708 -73 93 8742 chest[facing=east]{LootTable:"chests:common/exampleton"} replace bedrock
fill -72 70 8600 -37 93 8635 chest[facing=east]{LootTable:"chests:common/exampleton"} replace bedrock
fill -72 70 8636 -37 93 8671 chest[facing=east]{LootTable:"chests:common/exampleton"} replace bedrock
fill -72 70 8672 -37 93 8707 chest[facing=east]{LootTable:"chests:common/exampleton"} replace bedrock
fill -72 70 8708 -37 93 8742 chest[facing=east]{LootTable:"chests:common/exampleton"} replace bedrock
fill -36 70 8600 -1 93 8635 chest[facing=east]{LootTable:"chests:common/exampleton"} replace bedrock
fill -36 70 8636 -1 93 8671 chest[facing=east]{LootTable:"chests:common/exampleton"} replace bedrock
fill -36 70 8672 -1 93 8707 chest[facing=east]{LootTable:"chests:common/exampleton"} replace bedrock
fill -36 70 8708 -1 93 8742 chest[facing=east]{LootTable:"chests:common/exampleton"} replace bedrock
fill 0 70 8600 35 93 8635 chest[facing=east]{LootTable:"chests:common/exampleton"} replace bedrock
fill 0 70 8636 35 93 8671 chest[facing=east]{LootTable:"chests:common/exampleton"} replace bedrock
fill 0 70 8672 35 93 8707 chest[facing=east]{LootTable:"chests:common/exampleton"} replace bedrock
fill 0 70 8708 35 93 8742 chest[facing=east]{LootTable:"chests:common/exampleton"} replace bedrock
fill -108 70 8600 -73 93 8635 chest[facing=north]{LootTable:"chests:common/exampleton"} replace diamond_ore
fill -108 70 8636 -73 93 8671 chest[facing=north]{LootTable:"chests:common/exampleton"} replace diamond_ore
fill -108 70 8672 -73 93 8707 chest[facing=north]{LootTable:"chests:common/exampleton"} replace diamond_ore
fill -108 70 8708 -73 93 8742 chest[facing=north]{LootTable:"chests:common/exampleton"} replace diamond_ore
fill -72 70 8600 -37 93 8635 chest[facing=north]{LootTable:"chests:common/exampleton"} replace diamond_ore
fill -72 70 8636 -37 93 8671 chest[facing=north]{LootTable:"chests:common/exampleton"} replace diamond_ore
fill -72 70 8672 -37 93 8707 chest[facing=north]{LootTable:"chests:common/exampleton"} replace diamond_ore
fill -72 70 8708 -37 93 8742 chest[facing=north]{LootTable:"chests:common/exampleton"} replace diamond_ore
fill -36 70 8600 -1 93 8635 chest[facing=north]{LootTable:"chests:common/exampleton"} replace diamond_ore
fill -36 70 8636 -1 93 8671 chest[facing=north]{LootTable:"chests:common/exampleton"} replace diamond_ore
fill -36 70 8672 -1 93 8707 chest[facing=north]{LootTable:"chests:common/exampleton"} replace diamond_ore
fill -36 70 8708 -1 93 8742 chest[facing=north]{LootTable:"chests:common/exampleton"} replace diamond_ore
fill 0 70 8600 35 93 8635 chest[facing=north]{LootTable:"chests:common/exampleton"} replace diamond_ore
fill 0 70 8636 35 93 8671 chest[facing=north]{LootTable:"chests:common/exampleton"} replace diamond_ore
fill 0 70 8672 35 93 8707 chest[facing=north]{LootTable:"chests:common/exampleton"} replace diamond_ore
fill 0 70 8708 35 93 8742 chest[facing=north]{LootTable:"chests:common/exampleton"} replace diamond_ore