execute if score @s warp.sis.o < @s warp.sis run scoreboard players set #operation warp.sis 1
execute if score @s warp.sis.o > @s warp.sis run scoreboard players set #operation warp.sis -1

execute if score @s warp.sis.o < @s warp.sis if score @s warp.sis.o matches 0..1 if score @s warp.sis matches 7..8 run scoreboard players set #operation warp.sis -1
execute if score @s warp.sis.o > @s warp.sis if score @s warp.sis.o matches 7..8 if score @s warp.sis matches 0..1 run scoreboard players set #operation warp.sis 1
#tellraw @s ["",{"text":"Op: "},{"score":{"name":"#operation","objective":"warp.sis"}},{"text":"    sis: "},{"score":{"name":"@s","objective":"warp.sis"}},{"text":"    sis.o: "},{"score":{"name":"@s","objective":"warp.sis.o"}}]
function warpbook:1.15/cycle/main
scoreboard players set #operation warp.sis 0