function utils:wipe_chest
function quests:emporium/quest_chest/common
setblock ~ ~ ~ minecraft:light_blue_shulker_box[facing=up]{Items:[]}

#define tag uni_shrine_book Player has read "Shrines of the South"
#define tag uni_portal_book Player has read "Of Portals"

# Rule Book
replaceitem block ~ ~ ~ container.0 written_book{display:{Name:'[{"text":"Book of Rules","color":"light_purple","bold":true}]',Lore:['{"text":"A brief instruction and FAQ","color":"yellow","italic": true}']},pages:['["",{"text":"[","bold":true},{"text":"What\'s going on?","bold":true,"color":"light_purple"},{"text":"]","color":"reset","bold":true},{"text":"\\nThis server demonstrates various game mechanics implementations in Minecraft using native commands and data management, mostly for educational purposes. So, consider it to be a game inside the game.","color":"reset"}]','["",{"text":"[","bold":true},{"text":"How to play?","bold":true,"color":"light_purple"},{"text":"]","color":"reset","bold":true},{"text":"\\nIt\'s a Survival open-world adventure, that adds another layer of gameplay to vanilla mechanics. While standard game ending is available, this world is not particularly new and has its own history, lore and a story line for you to be the part of.","color":"reset"}]','{"text":"Like in classic Minecraft, you can explore, farm resources, develop your gear, you may even want to build yourself a base. There are some locations, though, where you can\'t build, as they are part of a story quest, spawn area included. You\'ll know them when you find them"}','["",{"text":"[","bold":true},{"text":"What exactly do I do?","bold":true,"color":"light_purple"},{"text":"]","color":"reset","bold":true},{"text":"\\nThe story is told through books, like this one. Most of them are on the Lecterns. If you find a lectern in a fancy looking place - read it. This way you progress through story quest, as well as obtain side quests, unlock new recipes or learn about places of interest.","color":"reset"}]','["",{"text":"The very first book (after this one) is found in a place called The Village, which is located not far from the spawn at "},{"text":"-500, -850","bold":true,"color":"dark_blue"},{"text":". If you are at the spawn, look for a railway nearby, it will get you there faster. The spawn area was used in a previous part of the story and is now a museum.","color":"reset"}]','["",{"text":"[","bold":true},{"text":"Text Messages","bold":true,"color":"light_purple"},{"text":"]","color":"reset","bold":true},{"text":"\\nAside from books the story is told through the chat. Most of important events and quests updates are logged tere, as well as certain NPC interactions. If you miss something important, there\'s a hotkey to open the chat history (","color":"reset"},{"text":"\\"T\\" ","bold":true},{"text":"is default )","color":"reset"}]','["",{"text":"[","bold":true},{"text":"Containers","bold":true,"color":"light_purple"},{"text":"]","color":"reset","bold":true},{"text":"\\nYou\'ll surely be finding more loot than you can carry, but you can\\n\\u2b25 Open Shulker Boxes in hands with Shift+Click\\n\\u2b25 Place and mine ","color":"reset"},{"text":"Orange Shulker Boxes","color":"gold"},{"text":" (and ","color":"reset"},{"text":"Orange Beds","color":"gold"},{"text":" too) even in protected areas\\n\\u2b25 Eventually you\'ll get a portable Ender Chest and free Shulkers","color":"reset"}]','["",{"text":"[","bold":true},{"text":"Economy","bold":true,"color":"light_purple"},{"text":"]","color":"reset","bold":true},{"text":"\\nIn questing areas the relative value of resources is vastly different from usual. Ores are used as currency widely, many resources from the original game are abundant. New crafting recipes are unlocked through books, which allow for putting a surplus of those to use\\n ","color":"reset"}]','{"text":"You\'ll find several unique villager vendors throughout the world, look through their offers carefully, as they sell or buy virtually anything. Combined with added recipes and excessive loot this can produce totally new supply chains for your needs!"}','["",{"text":"[","bold":true},{"text":"Persistent Loot","bold":true,"color":"light_purple"},{"text":"]","color":"reset","bold":true},{"text":"\\nDon\'t be afraid to die, pretty soon you\'ll discover \\"quest hub\\" areas, where you can restock almost anything, including unique quest rewards. So everytime you progress through quest, you basically unlock a new tier of equipment for you to advance further","color":"reset"}]','["",{"text":"[","bold":true},{"text":"Explore!","bold":true,"color":"light_purple"},{"text":"]","color":"reset","bold":true},{"text":"\\nThe game is not supposed to carefully guide you to the finale, that\'s an adventure game, which means that discovering new content is the essense of gameplay. Sometimes you\'ll get a precise assignment for a quest, other times things are more vague on purpose!\\n ","color":"reset"}]','{"text":"Most location have secret areas, you\'ll get a notice and temporary Luck effect if you find it. Most of them are described somewhere, to provide you with a clue, but the most valuable ones, of course, will only be found by the most curious adventurers!\\n "}','["",{"text":"That should be enough to start, enjoy your time here, but don\'t hesitate to save the world, when an opportunity comes!\\n\\n"},{"text":"\\u26a0 Good Luck! \\u26a0","bold":true,"color":"light_purple"}]'],title:"Book of Rules",author:Neolord}

#book from the Village
execute if entity @s[tag=mainQuestStarted] run replaceitem block ~ ~ ~ container.1 written_book{pages:['["",{"text":"Fellow adventurers, your help to the North community is much appreciated. I depart now to the South, to meet Founder Archie at "},{"text":"The University","bold":true,"color":"dark_green"},{"text":", as they claim to find a way to stop that damn Alien Invasion. Rumors are it was more intense there, whole villages are gone..."}]','["",{"text":"So when you feel you\'re ready to help once more, you\'re most welcome to follow myself. The wizards of the South possess a fast travel technology, which I\'ve \\"borrowed\\" from them to install the portals at "},{"text":"The Village","bold":true,"color":"dark_green"},{"text":", ","color":"reset"},{"text":"The Temple","bold":true,"color":"dark_green"},{"text":" and ","color":"reset"},{"text":"The Ghost Town","bold":true,"color":"dark_green"}]','["",{"text":"Make sure you stop by and get the "},{"text":"Portal Keys ","color":"light_purple"},{"text":"so that you can return to ","color":"reset"},{"text":"the North","bold":true,"italic":true},{"text":" if you want to, otherwise that would be time consuming.\\nThe Hell Express runs from ","color":"reset"},{"text":"The Temple","bold":true,"color":"dark_green"},{"text":" to the ","color":"reset"},{"text":"Snake Shrine","bold":true,"color":"dark_green"},{"text":". From there head south, you won\'t miss ","color":"reset"},{"text":"The University","bold":true,"color":"dark_green"},{"text":", it\'s big enough.","color":"reset"}]','["",{"text":"Also it\'s worth visiting "},{"text":"Sprucewood Creek","bold":true,"color":"dark_green"},{"text":" village and ","color":"reset"},{"text":"The Emporium","bold":true,"color":"dark_green"},{"text":". They are found by travelling east from ","color":"reset"},{"text":"the University","bold":true,"color":"dark_green"},{"text":",\\n\\nThe place is tough, make sure you bring enough gear and potions. ","color":"reset"},{"text":"Good Luck!","bold":true}]'],generation:1,title:"To The South!",author:Neolord}

# University / Alien Parlance
execute if score @s main_quest_a matches 1.. run replaceitem block ~ ~ ~ container.2 written_book{pages:['["",{"text":"Alien Parlance: ","bold":true,"color":"dark_purple"},{"text":"Talking to extraterrestrial beings","color":"reset","bold":true},{"text":"\\n\\n","color":"reset"},{"text":"by Founder Sansa","italic":true},{"text":"\\n\\nEver since aliens came out of the blue and brought endless myseries to our lands, best minds of the South are trying to find a way of communicating to the invaders","color":"reset"}]','{"text":"Despite the absence of any remarkable success, we\'ve managed to collect some knowledge about the way aliens use signals. Hourless observations and surveillance on the Mothership discovered that all alien vessels apparently use the same digital codes."}','["",{"text":"Most of those codes"},{"text":" have navigation purpose. It\'s probable that they use some devices that operate similar to Portals, but used for communication rather than travel. Space Legion has tracked and followed the Aliens to our homeworld \'cause they communicate the same way"}]','["",{"text":"Certain pieces of transmissions feel more like remote control. We call them "},{"text":"Breach Codes","color":"dark_green"},{"text":", and we hope gathering and researching enough of them would allow us to take down or even capture alien vessels, most notable ","color":"reset"},{"text":"The Mothership ","bold":true},{"text":"or ","color":"reset"},{"text":"The Transport","bold":true}]','["",{"text":"We could create our own "},{"text":"Transmission Modem ","color":"light_purple"},{"text":"to scramble alien network, but we also need a \\"dictionary\\". More knowledge could be available at remnant Space Legion structures, and probably we are able to reverse engineer their technologies to extract the data format.","color":"reset"}]','["",{"text":"If we had possessed such a "},{"text":"Communication Protocol","bold":true,"color":"gold"},{"text":", it would literally skyrocket us into space. It might not only lead to new fascinating discoveries, but also give us chance to end those exhausting terror attacks and negotiate peace with Aliens.","color":"reset"}]'],generation:1,title:"Alien Parlance",author:"Founder Sansa",display:{Lore:['[{"text":"This book describes a plan of the Founders to take Aliens down","italic":false,"color":"white"}]']}}

# University / Shrines Of The South
execute if entity @s[tag=uni_shrine_book] run replaceitem block ~ ~ ~ container.3 written_book{pages:['["",{"text":"Shrines of the South","bold":true,"color":"dark_blue"},{"text":"\\n\\nLocal community have discovered 5 ancient shrines in the area, which are similar to the Northern ones, and probably were built by the same civilization. Over decades wizards were investigating them and collecting knowledge.","color":"reset"}]','{"text":"Eventually people found a right offering for every shrine and discovered the powers they grant, if offerings are done correctly. Snake Shrine is the most iconic place, giving the name to a whole village built around it. Other shrines\' location were lost when the first Alien Invasion happened."}','{"text":"Thunder Shrine was first relocated by Founder Sansa, and later the University was founded around it. The shrine itself was moved away from visitors though to perform closer studies."}','{"text":"Another Shrine was recovered from the ashes of the village that was destroyed in the Invasion, and now it\'s known as Blood Shrine, where offerings are made to commemorate the losses of the community from the war with Aliens."}','{"text":"Other two shrines seem to be gone forever, we only know the deities they were bound to: one is the Ocean shrine, said to be located somewhere in the frozen seas to the far south of Gleamsville."}','{"text":"The last but not the least is the Wind Shrine, which, according to rumors, was located somewhere in frozen wastelands to the east of Exampleton, which now are an Alien territory. For now those shrines remain dormant."}'],generation:1,title:"Shrines of the South",author:"The University"}

# University / Of Portals And Keys
execute if entity @s[tag=uni_portal_book] run replaceitem block ~ ~ ~ container.4 written_book{pages:['["",{"text":"Founder Eelia is the person who put Founder Archie\'s portal experiments to use, creating the first stable configuration of enchantments which bind a location to a certain item, which is then called a "},{"text":"Portal Key","color":"light_purple"},{"text":". ","color":"reset"}]','{"text":"The item begins to accumulate energy over time, and after a minute approximately can be discharged to instantly travel one person to the point. The point should be prepared though, some screening is required to prevent excessive radiation."}','["",{"text":"Founder Eelia granted each of the surrounding villages unlimited "},{"text":"Portal Keys ","color":"light_purple"},{"text":"which the villagers (or persons much dear to them) can use to always teleport back home. As a sign of gratitude, they let construct portal beacons nearby.","color":"reset"}]','{"text":"Few of those villages are so friendly that they allow unlimited teleportation at them with a more advanced version of this technology that binds 2 teleportation beacons together, but at the moment noone managed to make that link two-way."}','{"text":"Nevertheless, access to teleportation chamber is allowed only for the staff, while teleporting to the High Court is restricted explicitly to selected community members. Also, Sandy Haven teleport has been broken and moved to the cellar for now. "}'],generation:1,title:"Of Portals and Keys",author:"The University"}

# Keeper's Lodge / The Emporium Special
execute if entity @s[scores={q_emp_special=1..}] run replaceitem block ~ ~ ~ container.5 written_book{pages:['["",{"text":"When I fled "},{"text":"The Emporium","color":"dark_green"},{"text":", I\'ve burnt all the copies of the ","color":"reset"},{"text":"Emporium Special","italic":true},{"text":" recipe, as that new guy, the Quartermaster, basically has kept making fortunes by selling it left and right, while noone else got anything. ","color":"reset"}]','["",{"text":"He even brought in few advanced Golems to ensure only him has the Coins, while other guys there became suprisingly obedient with the appearance of Baillifs. I couldn\'t bear staying there. Now the only copy of the recipe is glued into this book, while "},{"text":"The Emporium","color":"dark_green"},{"text":" is probably out of stock forever.","color":"reset"},{"color":"gray","text":"/---Incut---/"}]','["",{"text":"Alchemy is great, but some prefer more natural processes: fermenting, distilling and aging. Masters of The Emporium had surpassed the common understaing of booze and created a pinnacle of winemaking:\\nthe infamous "},{"text":"Emporium Special","color":"gold"}]','["",{"text":"To start with a mash, add 12 pieces of "},{"text":"Sugar Cane","color":"dark_aqua"},{"text":" to a boiling Cauldron, complement with 2 pieces of ","color":"reset"},{"text":"Glistering Melon","color":"dark_aqua"},{"text":" and stir slowly. Crush a piece of ","color":"reset"},{"text":"Quartz","color":"dark_aqua"},{"text":" into the cauldron and throw in a ","color":"reset"},{"text":"Totem Of Undying","color":"dark_aqua"},{"text":". Let boil for precisely 11 minutes.","color":"reset"}]','{"text":"When the resulting slurry is collected, it\'s time to distill it thouroughly, at least 3 times in a row. It takes time, so be patient. When done, put the liquid into a Spruce Barrel and let rest for 5 nights at least. Serve cooled and don\'t overuse!"}'],title:"Emporium Special",author:"The Keeper",generation:1}


# Exampleton Book
execute if entity @s[tag=readExampletonBook] run replaceitem block ~ ~ ~ container.9 written_book{generation:1,pages:['{"text":"Exampleton was founded as a refugee camp first and accomodated everyone who have lost their homes due to the invasion. As the quantity of refugee was growing, the camp became a village, and, eventually, the most advanced settlement in the South"}','["",{"text":"Many bright minds from "},{"text":"The University","color":"gold"},{"text":", ","color":"reset"},{"text":"The Ziggurat","color":"red"},{"text":" and \\u0020","color":"reset"},{"text":"Research Center","color":"gold"},{"text":" found their new home here and founded Engineering Department, to which we own our safety and comfort, delivered with walls and automated gateways","color":"reset"}]','{"text":"The most adventurous members of community find their solitude in the Explorer\'s League, who continiously research the outer wilds and collect information and valuables from local conflicts, as well as discover new misterious places"}','{"text":"There\'s a place for every profession here, we have dedicated associations for all skilled individuals, and all the vagabonds are welcome to stay if they will and prove their loyalty. For visitors of our town the Guesthouse is open any time."}','{"text":"Be careful to wander the surroundings, though, as these places are pretty dangerous. Across the river to the east the Winterlands begin, where you find nothing but snow and Aliens for many miles. "}','{"text":"North is deserted by the invasion, one of villages there was obliterated, another one - massacred and turned into undead. Very few dare to wander there nowadays"}','{"text":"Western is strictly discouraged to wayfare, as the Great Desert begins right outside of the valley. An abandoned Space Legion base is located there, and its automatic defences are still operational and attack anyone approaching"}','["",{"text":"Walking on the northern edge of the desert will get you to "},{"text":"The Ziggurat","color":"red"},{"text":" and a nearby ","color":"reset"},{"text":"Sandy Haven","color":"dark_green"},{"text":" village, while travelling the southern side will lead you through ","color":"reset"},{"text":"Crossing Sands ","color":"dark_green"},{"text":"to the luxurious ","color":"reset"},{"text":"Gleamsville","color":"dark_green"},{"text":". ","color":"reset"}]'],title:Exampleton,author:Exampleton}

# Snake Shrine Quest Book
execute if entity @s[tag=q_ss_book] run replaceitem block ~ ~ ~ container.18 written_book{HideFlags:35,generation:1,Enchantments:[{id:"vanishing_curse",lvl:1}],display:{"Name":'[{"color":"gold","italic":false,"text":"Quest Book"}]',Lore:['["",{"text":"Snake Shrine","color":"dark_green","italic": false,"bold": true}]','[{"text":"1050 / 9800","italic": false,"color":"white"}]']},pages:['["",{"text":"Welcome to the Snake Shrine, the most visited village in the South. We welcome all travelers passing by, be those "},{"text":"The University","color":"gold","bold":true},{"text":" students, "},{"text":"The Emporium","color":"dark_green","bold":true},{"text":" scholars, or adventurers going to the Nether. If you want to stand by, please, "},{"text":"Make an Offering","italic":true,"color":"dark_aqua"},{"text":".","color":"reset"}]','["",{"text":"Since many offerings have been made lately, the amount of snakes in the area goes out of control. "},{"text":"Spawning more Ocelots","color":"dark_aqua"},{"text":" would definetely help the fauna to balance. Anyone who cares might try looking for the recipe at ","color":"reset"},{"text":"The University","color":"dark_green"},{"text":".","color":"reset"}]'],title:"Quest Book",author:"Snake Shrine"}

# Sprucewood Creek Quest Book
execute if entity @s[tag=q_sc_book] run replaceitem block ~ ~ ~ container.19 written_book{HideFlags:35,generation:1,Enchantments:[{id:"vanishing_curse",lvl:1}],display:{"Name":'[{"color":"gold","italic":false,"text":"Quest Book"}]',Lore:['["",{"text":"Sprucewood Creek","color":"dark_green","italic": false,"bold": true}]','[{"text":"1110 / 10280","italic": false,"color":"white"}]']},pages:['[{"text":"The village of Sprucewood Creek welcomes all adventurers and explorers. Here, in the shade of "},{"text":"The University","color":"gold","bold":true},{"text":" and among the tallest trees in South you can find some rest and solitude. Only well-known community members are allowed for teleportation!"}]','{"text":"!!! HELP NEEDED !!!\\n\\nWolves swarm surrounding forests and attack our cattle and pets. Their population has rapidly increased recently, and we urgently need some head reduction. The reward is guaranteed."}'],author:"Sprucewood Creek",title:"Quest Book"}

# Hanging Hills Quest Book
execute if entity @s[tag=q_hh_book] run replaceitem block ~ ~ ~ container.20 written_book{HideFlags:35,generation:1,Enchantments:[{id:"vanishing_curse",lvl:1}],display:{"Name":'[{"color":"gold","italic":false,"text":"Quest Book"}]',Lore:['["",{"text":"Hanging Hills","color":"dark_green","italic": false,"bold": true}]','[{"text":"240 / 10030","italic": false,"color":"white"}]']},pages:['["",{"text":"Welcome to "},{"text":"Hanging Hills","color":"dark_green"},{"text":", the birthplace of talanted masons and ingenious builders. The Invasion forces us to build more defences, while the supplies are a little bit short, so we are buying any ","color":"reset"},{"text":"End Stone Bricks","color":"dark_aqua"},{"text":", 30 pieces min","color":"reset"}]','["",{"text":"If you don\'t feel like going to The End, "},{"text":"The University","color":"dark_green"},{"text":" holds a recipe which allows for crafting them. Additionally, a good blueprint for a gateway is required, like one they have at ","color":"reset"},{"text":"Exampleton","color":"dark_green"},{"text": ", and we are paying for the delivery","color":"reset"}]'],title:"Quest Book",author:"Hanging Hiils"}

# The Outpost Quest Book
execute if entity @s[tag=q_op_book] run replaceitem block ~ ~ ~ container.21 written_book{HideFlags:35,generation:1,Enchantments:[{id:"vanishing_curse",lvl:1}],display:{"Name":'[{"color":"gold","italic":false,"text":"Quest Book"}]',Lore:['["",{"text":"The Outpost","color":"dark_green","italic": false,"bold": true}]','[{"text":"740 / 10760","italic": false,"color":"white"}]']},pages:['["",{"text":"Welcome to "},{"text":"The Outpost","color":"dark_green"},{"text":" - the southernmost and the latest settlement in the area. Further on you\'ll find nothing but vast deserted taiga to the east and frozen mountains to the west, both horded with Undead. A lot was invested into this last line of defence for all the peaceful community of ","color":"reset"},{"text":"the South","italic":true},{"text":".","color":"reset"}]','["",{"text":"The Outpost","bold":true,"color":"dark_green"},{"text":" exists due to tight economical bonds with ","color":"reset"},{"text":"The Emporium ","bold":true,"color":"gold"},{"text":"and ","color":"reset"},{"text":"Exampleton","bold":true,"color":"dark_green"},{"text":", and we put a lot of common efforts into finding a final solution to the Undead question. So far collecting samples have been the biggest challenge, and all volunteers are welcome to help!","color":"reset"}]'],author:"The Outpost",title:"Quest Book"} 1

#Sandy Haven Quest Book
execute if entity @s[tag=q_sh_book] run replaceitem block ~ ~ ~ container.22 written_book{HideFlags:35,generation:1,Enchantments:[{id:"vanishing_curse",lvl:1}],display:{"Name":'[{"color":"gold","italic":false,"text":"Quest Book"}]',Lore:['["",{"text":"Sandy Haven","color":"dark_green","italic": false,"bold": true}]','[{"text":"-840 / 8300","italic": false,"color":"white"}]']},pages:['{"text":"Welcome to Sandy Haven - a place every scholar passes by on their pilgrimage to the misterious Ziggurat. The founder of the village had promised to provide residence to the first who succeeds to unravel its secrets, and the position is still vacant!"}','{"text":"!!! HELP NEEDED !!!\\n\\nRumors come from the shores about aliens destroying the whole village with a weapon of unimaginable power, but noone managed to provide a proof. If there\'s a smallest possibility it\'s true, we need volunteers to investigate further"}'],author:"Sandy Haven",title:"Quest Book"} 1

# Gleamsville Quest Book
execute if entity @s[tag=q_gv_book] run replaceitem block ~ ~ ~ container.24 written_book{HideFlags:35,generation:1,Enchantments:[{id:"vanishing_curse",lvl:1}],display:{"Name":'[{"color":"gold","italic":false,"text":"Quest Book"}]',Lore:['["",{"text":"Gleamsville","color":"dark_green","italic": false,"bold": true}]','[{"text":"-1030 / 9800","italic": false,"color":"white"}]']},pages:['{"text":"Welcome to Gleamsville, the most well-kept village in the South. It was founded by once a noble family, which is now scattered all over the world and got lost. The family was known to posess a lot of valuables, but they were lost during one of the first Raids Gleamsville had to withstand..."}','{"text":"The most important treasures taken were family items, which were inherited for decades and deserve a place in the local museum. Those include a family Amulet, a golden Clock and a huge rare Diamond. If they were ever brought back home, whoever does that could call this place home too."}'],title:"Quest Book",author:"Gleamsville"}