execute at @s run function quests:emporium/quest_chest/common
function utils:wipe_chest
# copy chest with default Alcohol Meter, Remembr'all, PEC (requires CommandToItem)
clone 1394 102 10178 1394 102 10178 ~ ~ ~
# remove PEC if player reputation less than 5
execute unless score @s reputation matches 5.. run replaceitem block ~ ~ ~ container.24 air
function quests:emporium/quest_chest/lost_items
