# Create a chest
function utils:wipe_chest
execute at @s run function quests:emporium/quest_chest/common
setblock ~ ~ ~ yellow_shulker_box[facing=up]{Items:[]}

#Emporium Anchor, requires Rep>=5
execute if entity @s[scores={reputation=5..}] run data modify block ~ ~ ~ Items append from block 1395 102 10178 Items[{Slot:18b}]
#Exampleton Anchor, requires Rep>=10
execute if entity @s[scores={reputation=10..}] run data modify block ~ ~ ~ Items append from block 1395 102 10178 Items[{Slot:19b}]

# Viper Tooth 
execute unless entity @s[nbt={Inventory:[{id:"minecraft:stone_sword",tag:{AttributeModifiers:[{Slot:"offhand"}]}}]}] if score @s q_ss_offering matches 3.. run data modify block ~ ~ ~ Items append from block 1395 102 10178 Items[{Slot:9b}]
# Brickwall shield
execute unless entity @s[nbt={Inventory:[{id:"minecraft:shield",tag:{BlockEntityTag:{Base:12,Patterns:[{Color:13,Pattern:"gru"},{Color:1,Pattern:"bri"}]}}}]}] if entity @s[tag=scWolvesKilled] run data modify block ~ ~ ~ Items append from block 1395 102 10178 Items[{Slot:10b}]
# Hilltops
execute if entity @s[tag=q_hh_end_stone_complete] run data modify block ~ ~ ~ Items append from block 1395 102 10178 Items[{Slot:12b}]
# Starlight
execute unless entity @s[nbt={Inventory:[{id:"minecraft:golden_helmet",tag:{"glow":"1"}}]}] if score @s q_sh_dust matches 3.. run data modify block ~ ~ ~ Items append from block 1395 102 10178 Items[{Slot:13b}]
# Enchanted Bone Armor
execute if entity @s[tag=q_op_bones_complete] run data modify block ~ ~ ~ Items append from block 1395 102 10178 Items[{Slot:14b}]

# Snake Shrine Portal Key 
execute if entity @s[tag=q_ss_ocelot_complete] run data modify block ~ ~ ~ Items append from block 1395 102 10178 Items[{Slot:0b}]
# Sprucewood Creek Portal Key
execute if entity @s[tag=scRepCheck] run data modify block ~ ~ ~ Items append from block 1395 102 10178 Items[{Slot:1b}]
# Hanging Hills Portal Key
execute if entity @s[scores={q_ss_blueprint=2..}] run data modify block ~ ~ ~ Items append from block 1395 102 10178 Items[{Slot:3b}]
# Sandy Haven Portal Key
execute if entity @s[scores={q_sh_cipher=10..}] run data modify block ~ ~ ~ Items append from block 1395 102 10178 Items[{Slot:4b}]
# Outpost Portal Key
execute if entity @s[scores={q_ss_blueprint=2..}] run data modify block ~ ~ ~ Items append from block 1395 102 10178 Items[{Slot:5b}]
# Gleamsville Portal Key
execute if entity @s[scores={q_gv_clock=3..}] run data modify block ~ ~ ~ Items append from block 1395 102 10178 Items[{Slot:26b}]


function utils:once_in_a_lifetime_set

#setblock 1395 102 10178 minecraft:chest[facing=north,type=single,waterlogged=false]{Items:[{Slot:0b,id:"minecraft:nether_star",Count:1b,tag:{CustomModelData:1337420,display:{Lore:['{"text":"§o§fInstantly teleports you to §r§eSnake Shrine"}','{"text":"§o§860 seconds cooldown"}'],Name:'{"text":"§d§lPortal Key §r§e(Snake Shrine)"}'}}},{Slot:1b,id:"minecraft:nether_star",Count:1b,tag:{CustomModelData:1337420,display:{Lore:['{"text":"§o§fInstantly teleports you to §r§eSprucewood Creek"}','{"text":"§o§860 seconds cooldown"}'],Name:'{"text":"§d§lPortal Key §r§e(Sprucewood Creek)"}'}}},{Slot:2b,id:"minecraft:nether_star",Count:1b,tag:{CustomModelData:1337420,display:{Lore:['{"text":"§o§fInstantly teleports you to §r§eCrossing Sands"}','{"text":"§o§860 seconds cooldown"}'],Name:'{"text":"§d§lPortal Key §r§e(Crossing Sands)"}'}}},{Slot:3b,id:"minecraft:nether_star",Count:1b,tag:{CustomModelData:1337420,display:{Lore:['{"text":"§o§fInstantly teleports you to §r§eHanging Hills"}','{"text":"§o§860 seconds cooldown"}'],Name:'{"text":"§d§lPortal Key §r§e(Hanging Hills)"}'}}},{Slot:4b,id:"minecraft:nether_star",Count:1b,tag:{CustomModelData:1337420,display:{Lore:['{"text":"§o§fInstantly teleports you to §r§eSandy Haven"}','{"text":"§o§860 seconds cooldown"}'],Name:'{"text":"§d§lPortal Key §r§e(Sandy Haven)"}'}}},{Slot:5b,id:"minecraft:nether_star",Count:1b,tag:{CustomModelData:1337420,display:{Lore:['{"text":"§o§fInstantly teleports you to §r§eThe Outpost"}','{"text":"§o§860 seconds cooldown"}'],Name:'{"text":"§d§lPortal Key §r§e(The Outpost)"}'}}},{Slot:6b,id:"minecraft:nether_star",Count:1b,tag:{CustomModelData:1337420,display:{Lore:['{"text":"§o§fInstantly teleports you to §r§eEdgewater"}','{"text":"§o§860 seconds cooldown"}'],Name:'{"text":"§d§lPortal Key §r§e(Edgewater)"}'}}},{Slot:7b,id:"minecraft:nether_star",Count:1b,tag:{CustomModelData:1337420,display:{Lore:['{"text":"§o§fInstantly teleports you to §r§eShadesbury"}','{"text":"§o§860 seconds cooldown"}'],Name:'{"text":"§d§lPortal Key §r§e(Shadesbury)"}'}}},{Slot:8b,id:"minecraft:nether_star",Count:1b,tag:{CustomModelData:1337420,display:{Lore:['{"text":"§o§fInstantly teleports you to §r§eWoodstock"}','{"text":"§o§860 seconds cooldown"}'],Name:'{"text":"§d§lPortal Key §r§e(Woodstock)"}'}}},{Slot:9b,id:"minecraft:stone_sword",Count:1b,tag:{display:{Lore:['{"italic":false,"color":"yellow","text":"A snake that was wielding this as a tooth is probably enormous"}'],Name:'{"bold":true,"italic":false,"color":"gold","text":"Viper Tooth"}'},Enchantments:[{lvl:3s,id:"minecraft:bane_of_arthropods"},{lvl:5s,id:"minecraft:sweeping"},{lvl:3s,id:"minecraft:unbreaking"}],Damage:0,AttributeModifiers:[{UUIDMost:99L,UUIDLeast:150700100L,Amount:1.75d,Slot:"mainhand",AttributeName:"generic.attackSpeed",Operation:0,Name:"Attack Speed"},{UUIDMost:99L,UUIDLeast:150700000L,Amount:10.0d,Slot:"mainhand",AttributeName:"generic.attackDamage",Operation:0,Name:"Damage"},{UUIDMost:99L,UUIDLeast:150700200L,Amount:1.0d,Slot:"offhand",AttributeName:"generic.armorToughness",Operation:0,Name:"Toughness"}]}},{Slot:10b,id:"minecraft:shield",Count:1b,tag:{Unbreakable:1,HideFlags:37,BlockEntityTag:{Patterns:[{Pattern:"gru",Color:13},{Pattern:"bri",Color:1}],Base:12},display:{Lore:['[{"text":"Crafted by glorified masters of Sprucewood Creek","italic":false,"color":"yellow"}]','[{"text":"this skillful interweave of petrified spruce","italic":false,"color":"yellow"}]','[{"text":"and brick dust makes for a solid wall shield","italic":false,"color":"yellow"}]'],Name:'[{"text":"Brickwall","italic":false,"color":"gold","bold":true}]'},Damage:0,AttributeModifiers:[{UUIDMost:99,UUIDLeast:123213900,Amount:0.5d,Slot:"offhand",AttributeName:"generic.knockbackResistance",Operation:0,Name:"generic.knockbackResistance"},{UUIDMost:99,UUIDLeast:123214000,Amount:3,Slot:"offhand",AttributeName:"generic.armorToughness",Operation:0,Name:"generic.armorToughness"},{UUIDMost:99,UUIDLeast:123214100,Amount:1,Slot:"offhand",AttributeName:"generic.armor",Operation:0,Name:"generic.armor"},{UUIDMost:99,UUIDLeast:123214200,Amount:0.05d,Slot:"offhand",AttributeName:"generic.attackDamage",Operation:1,Name:"generic.attackDamage"}]}},{Slot:12b,id:"minecraft:chainmail_boots",Count:1b,tag:{RepairCost:10,Unbreakable:1,HideFlags:4,display:{Lore:['[{"text":"These can withstand a thousand miles journey","italic":false,"color":"yellow"}]'],Name:'[{"text":"Hilltops","italic":false,"bold":true,"color":"gold"}]'},Enchantments:[{lvl:1,id:"binding_curse"},{lvl:4,id:"fire_protection"},{lvl:1,id:"frost_walker"},{lvl:3,id:"protection"}],Damage:0,AttributeModifiers:[{UUIDMost:99,UUIDLeast:132471400,Amount:2,Slot:"feet",AttributeName:"generic.maxHealth",Operation:0,Name:"generic.maxHealth"},{UUIDMost:99,UUIDLeast:132471500,Amount:4,Slot:"feet",AttributeName:"generic.armorToughness",Operation:0,Name:"generic.armorToughness"},{UUIDMost:99,UUIDLeast:132471600,Amount:3,Slot:"feet",AttributeName:"generic.armor",Operation:0,Name:"generic.armor"},{UUIDMost:99,UUIDLeast:132471700,Amount:1,Slot:"feet",AttributeName:"generic.luck",Operation:0,Name:"generic.luck"}]}},{Slot:13b,id:"minecraft:golden_helmet",Count:1b,tag:{RepairCost:2,display:{Lore:['[{"text":"The reminescent radiation is still","italic":false,"color":"yellow"}]','[{"text":"soaking from the alloy, granting","italic":false,"color":"yellow"}]','[{"text":"Blindness Immunity","italic":false,"color":"light_purple"}]'],Name:'[{"text":"Starlight","italic":false,"bold":true,"color":"gold"}]'},Enchantments:[{lvl:5,id:"blast_protection"},{lvl:3,id:"projectile_protection"},{lvl:2,id:"thorns"}],Damage:0,glow:"1",AttributeModifiers:[{UUIDMost:99,UUIDLeast:126610500,Amount:4,Slot:"head",AttributeName:"generic.maxHealth",Operation:0,Name:"generic.maxHealth"},{UUIDMost:99,UUIDLeast:126610600,Amount:2,Slot:"head",AttributeName:"generic.armorToughness",Operation:0,Name:"generic.armorToughness"},{UUIDMost:99,UUIDLeast:126610700,Amount:2,Slot:"head",AttributeName:"generic.armor",Operation:0,Name:"generic.armor"}]}},{Slot:14b,id:"minecraft:iron_chestplate",Count:1b,tag:{RepairCost:50,HideFlags:32,display:{Lore:['[{"text":"The best gifts are handmade","italic":false,"color":"yellow"},{"text":"","italic":false,"color":"dark_purple"}]','[{"text":"Extra XP from Undead","italic":false,"color":"light_purple"}]','[{"text":"Poison Immunity","italic":false,"color":"light_purple"}]'],Name:'[{"text":"Enchanted Bone Armor","italic":false,"bold":true,"color":"gold"}]'},Enchantments:[{lvl:1,id:"mending"},{lvl:5,id:"protection"}],Damage:0,q_op_bones:"1",AttributeModifiers:[{UUIDMost:99,UUIDLeast:215202600,Amount:6,Slot:"chest",AttributeName:"generic.maxHealth",Operation:0,Name:"generic.maxHealth"},{UUIDMost:99,UUIDLeast:215202700,Amount:10,Slot:"chest",AttributeName:"generic.armor",Operation:0,Name:"generic.armor"},{UUIDMost:99,UUIDLeast:215202800,Amount:5,Slot:"chest",AttributeName:"generic.armorToughness",Operation:0,Name:"generic.armorToughness"}]}},{Slot:18b,id:"minecraft:enchanted_book",Count:1b,tag:{CustomModelData:1337420,HideFlags:35,display:{Lore:['{"text":"§o§fReturns you to §r§eThe Emporium"}'],Name:'{"text":"§b§oThe Emporium Anchor"}'},Enchantments:[{lvl:1s,id:"minecraft:infinity"}]}},{Slot:19b,id:"minecraft:enchanted_book",Count:1b,tag:{CustomModelData:1337420,HideFlags:35,display:{Lore:['{"text":"§o§fReturns you to §r§eExampleton"}'],Name:'{"text":"§b§oExampleton Anchor"}'},Enchantments:[{lvl:1s,id:"minecraft:infinity"}]}},{Slot:25b,id:"minecraft:nether_star",Count:1b,tag:{CustomModelData:1337420,display:{Lore:['{"text":"§o§fInstantly teleports you to §r§eSweet Meadows"}','{"text":"§o§860 seconds cooldown"}'],Name:'{"text":"§d§lPortal Key §r§e(Sweet Meadows)"}'}}},{Slot:26b,id:"minecraft:nether_star",Count:1b,tag:{CustomModelData:1337420,display:{Lore:['{"text":"§o§fInstantly teleports you to §r§eGleamsville"}','{"text":"§o§860 seconds cooldown"}'],Name:'{"text":"§d§lPortal Key §r§e(Gleamsville)"}'}}}]}