#define tag scWolvesKilled
function utils:clone_quest_chest
title @s subtitle ["",{"text":"Kill "},{"text":"15 wolves","color":"red"}]
function utils:quest_complete
tag @s add scWolvesKilled
scoreboard players add @s reputation 3