particle bubble_pop ~ ~ ~ 0.25 0.25 0.25 0.15 200
particle bubble ^ ^ ^1 0.1 0.1 0.1 0.2 100
particle bubble ^ ^ ^2 0.1 0.1 0.1 0.2 100
particle bubble ^ ^ ^3 0.1 0.1 0.1 0.2 100
particle bubble ^ ^ ^4 0.1 0.1 0.1 0.2 100
particle bubble ^ ^ ^5 0.1 0.1 0.1 0.2 100
playsound minecraft:entity.illusioner.cast_spell player @s ~ ~ ~ 4
function quests:items/university_spellpass
