function buildmodeone:3d_editor/models/clearall

function buildmodeone:3d_editor/cgui/positions/pos1
function buildmodeone:3d_editor/models/kitchen/normalglass
function buildmodeone:3d_editor/rotation/base/n90

function buildmodeone:3d_editor/cgui/positions/pos2
function buildmodeone:3d_editor/models/kitchen/normalglass
function buildmodeone:3d_editor/rotation/base/n90

function buildmodeone:3d_editor/cgui/positions/pos3
function buildmodeone:3d_editor/models/kitchen/normalglass
function buildmodeone:3d_editor/rotation/base/n90

function buildmodeone:3d_editor/cgui/positions/pos4
function buildmodeone:3d_editor/models/kitchen/normalglass
function buildmodeone:3d_editor/rotation/base/n90

function buildmodeone:3d_editor/cgui/positions/pos5
function buildmodeone:3d_editor/models/kitchen/normalglass
function buildmodeone:3d_editor/rotation/base/n90

function buildmodeone:3d_editor/cgui/positions/pos6
function buildmodeone:3d_editor/models/kitchen/normalglass
function buildmodeone:3d_editor/rotation/base/n90

function buildmodeone:3d_editor/cgui/positions/pos7
function buildmodeone:3d_editor/models/kitchen/normalglass
function buildmodeone:3d_editor/rotation/base/n90

function buildmodeone:3d_editor/cgui/positions/pos8
function buildmodeone:3d_editor/models/kitchen/normalglass
function buildmodeone:3d_editor/rotation/base/n90

function buildmodeone:3d_editor/cgui/positions/pos9
function buildmodeone:3d_editor/models/kitchen/normalglass
function buildmodeone:3d_editor/rotation/base/n90