gamerule sendCommandFeedback false
function buildmodeone:3d_editor/models/chairs/chairfunction/killsit
replaceitem entity @e[tag=bm1_3d_mth,limit=1,distance=..0.1] armor.head minecraft:air
execute as @e[tag=bm1_3d_mth,distance=..0.1] run tag @s remove bm1_3d_hasItem
execute as @e[tag=bm1_3d_mth,distance=..0.1] run tag @s remove bm1_3d_candle
data merge entity @e[tag=bm1_3d_mth,distance=..0.1,limit=1,sort=nearest] {Rotation:0f}
kill @e[tag=bm1_3d_mthb,limit=1,distance=..0.1] 
function buildmodeone:3d_editor/addons/litemode/reminder/schedule