function structures_crabmaster:randomizers/randomizer_1

execute if score Random RandomOne5556 matches 251..300 run summon minecraft:mooshroom

execute if score Random RandomOne5556 matches 301.. run kill @s

execute if score Random RandomOne5556 matches 0..250 run function cm_module_megamix:structures/mush_land/plant_2

kill @s
