execute positioned 1411 85 9432 run particle minecraft:campfire_cosy_smoke ~0.5 ~0.25 ~0.5 0.75 0.5 2.25 0.01 10
execute positioned 1429 70 9415 as @p[distance=..5,tag=!res_spice_barrel] run function quests:resort/chests/spice_barrel
execute positioned 1423 70 9413 as @p[distance=..5,tag=!res_alc_barrel] run function quests:resort/chests/alc_barrel
function quests:resort/chests/tick