function buildmodeone:3d_editor/main/optimize
function buildmodeone:3d_editor/main/finish
scoreboard players set @e[tag=bm1_3d_vars,limit=1] bm1_3d_add_lite 1
function buildmodeone:3d_editor/settings/page1
function buildmodeone:3d_editor/sounds/enable