#define tag w_secret_2
tag @s add w_secret_2
function utils:secret
execute positioned -84 74 8578 run function utils:wipe_chest
execute positioned -85 76 8576 run clone ~ ~ ~ ~ ~ ~ -84 74 8578 replace
execute positioned -86 72 8576 run function chests:quest/east