function utils:free_items/reset
function utils:free_items/calc_cooldown
function utils:free_items/click
tellraw @s [{"text":"\n\n\n\n\n\n"},{"text":"\u2581\u2582\u2583\u2584\u2585\u2586\u2587\u2588\u2593\u2592\u2591","color":"dark_aqua"},{"text":"Make a choice","bold":true,"color":"white"},{"text":"\u2591\u2592\u2593\u2588\u2587\u2586\u2585\u2584\u2583\u2582\u2581","color":"dark_aqua"}]
scoreboard players set @s freeItemCooldown 600
function utils:free_items/set_cooldown
tellraw @s[scores={reputation=0..}] [{"text":"","clickEvent":{"action":"run_command","value":"/trigger trgFreeItem set 380200"},"extra":[{"text":"\u1455\u1368\u25ba ","bold":true,"color":"gold"},{"text":"Bed","underlined":true,"color":"yellow"},{"text":" \u27f2 ","bold":true,"color":"gold"},{"score":{"name":"@s","objective":"freeItemSecs"},"color":"aqua","bold":false},{"text":"s","bold":true,"color":"dark_aqua"},{"text":" \u25c4\u1368\u1450","bold":true,"color":"gold"}],"hoverEvent":{"value":"{Count:1b,id:orange_bed,tag:{display:{Lore:['{\"text\":\"Click to get this bonus\",\"color\":\"white\",\"italic\":true}','[{\"text\":\"Base cooldown: \",\"italic\":false,\"color\":\"gray\"},{\"text\":\"30\",\"color\":\"aqua\",\"italic\":false},{\"text\":\" seconds\",\"color\":\"dark_aqua\",\"italic\":false}]']}}}","action":"show_item"}}]
execute unless score @s reputation matches 0.. unless score @s freeItemPeek matches 1.. run tellraw @s [{"color":"gray","text":"","extra":[{"text":"\u1455\u1368\u25ba ","bold":true},{"text":"Bed ","bold":false,"obfuscated":false},{"text":" \u26a0 ","color":"dark_red","bold":false},{"text":"0","color":"green"},{"text":"\u2698 ","bold":true,"color":"dark_green"},{"text":"\u25c4\u1368\u1450","bold":true,"color":"gray"}],"hoverEvent":{"value":"{Count:1b,id:orange_bed,tag:{display:{Name:'{\"text\":Bed,\"color\":\"gray\"}',Lore:['[{\"text\":\"\u26a0 \",\"color\":\"dark_red\",\"italic\":false},{\"text\":\"Requires \",\"color\":\"white\",\"italic\":false},{\"text\":\"0 \",\"color\":\"green\",\"italic\":false},{\"italic\":false,\"text\":\"\u2698\",\"color\":\"dark_green\",\"bold\":true},{\"italic\":false,\"text\":\"Reputation\",\"color\":\"dark_green\"}]']}}}","action":"show_item"}}]
execute unless score @s reputation matches 0.. if score @s freeItemPeek matches 1.. run tellraw @s [{"color":"gray","text":"","extra":[{"text":"\u1455\u1368\u25ba ","bold":true},{"text":"eBd ","bold":false,"obfuscated":true},{"text":" \u26a0 ","color":"dark_red","bold":false},{"text":"0","color":"green"},{"text":"\u2698 ","bold":true,"color":"dark_green"},{"text":"\u25c4\u1368\u1450","bold":true,"color":"gray"}],"hoverEvent":{"value":"{id:enchanted_book,Count:1b,tag:{display:{Lore:['[{\"text\":\"\u26a0 \",\"color\":\"dark_red\",\"italic\":false},{\"text\":\"Requires \",\"color\":\"white\",\"italic\":false},{\"text\":\"0 \",\"color\":\"green\",\"italic\":false},{\"italic\":false,\"text\":\"\u2698\",\"color\":\"dark_green\",\"bold\":true},{\"italic\":false,\"text\":\"Reputation\",\"color\":\"dark_green\"}]'],Name:'{\"text\":\"Unknown\",\"color\":\"gray\",\"bold\":\"false\",\"italic\":false}'}}}","action":"show_item"}}]
execute unless score @s reputation matches 0.. unless score @s freeItemPeek matches 1.. run scoreboard players set @s freeItemPeek 1
scoreboard players set @s freeItemCooldown 800
function utils:free_items/set_cooldown
tellraw @s[scores={reputation=4..}] [{"text":"","clickEvent":{"action":"run_command","value":"/trigger trgFreeItem set 391589"},"extra":[{"text":"\u1455\u1368\u25ba ","bold":true,"color":"gold"},{"text":"Iron Hoe","underlined":true,"color":"yellow"},{"text":" \u27f2 ","bold":true,"color":"gold"},{"score":{"name":"@s","objective":"freeItemSecs"},"color":"aqua","bold":false},{"text":"s","bold":true,"color":"dark_aqua"},{"text":" \u25c4\u1368\u1450","bold":true,"color":"gold"}],"hoverEvent":{"value":"{Count:1b,id:iron_hoe,tag:{display:{Lore:['{\"text\":\"Click to get this bonus\",\"color\":\"white\",\"italic\":true}','[{\"text\":\"Base cooldown: \",\"italic\":false,\"color\":\"gray\"},{\"text\":\"40\",\"color\":\"aqua\",\"italic\":false},{\"text\":\" seconds\",\"color\":\"dark_aqua\",\"italic\":false}]']}}}","action":"show_item"}}]
execute unless score @s reputation matches 4.. unless score @s freeItemPeek matches 1.. run tellraw @s [{"color":"gray","text":"","extra":[{"text":"\u1455\u1368\u25ba ","bold":true},{"text":"Iron Hoe ","bold":false,"obfuscated":false},{"text":" \u26a0 ","color":"dark_red","bold":false},{"text":"4","color":"green"},{"text":"\u2698 ","bold":true,"color":"dark_green"},{"text":"\u25c4\u1368\u1450","bold":true,"color":"gray"}],"hoverEvent":{"value":"{Count:1b,id:iron_hoe,tag:{display:{Name:'{\"text\":Iron Hoe,\"color\":\"gray\"}',Lore:['[{\"text\":\"\u26a0 \",\"color\":\"dark_red\",\"italic\":false},{\"text\":\"Requires \",\"color\":\"white\",\"italic\":false},{\"text\":\"4 \",\"color\":\"green\",\"italic\":false},{\"italic\":false,\"text\":\"\u2698\",\"color\":\"dark_green\",\"bold\":true},{\"italic\":false,\"text\":\"Reputation\",\"color\":\"dark_green\"}]']}}}","action":"show_item"}}]
execute unless score @s reputation matches 4.. if score @s freeItemPeek matches 1.. run tellraw @s [{"color":"gray","text":"","extra":[{"text":"\u1455\u1368\u25ba ","bold":true},{"text":"n HIreoo ","bold":false,"obfuscated":true},{"text":" \u26a0 ","color":"dark_red","bold":false},{"text":"4","color":"green"},{"text":"\u2698 ","bold":true,"color":"dark_green"},{"text":"\u25c4\u1368\u1450","bold":true,"color":"gray"}],"hoverEvent":{"value":"{id:enchanted_book,Count:1b,tag:{display:{Lore:['[{\"text\":\"\u26a0 \",\"color\":\"dark_red\",\"italic\":false},{\"text\":\"Requires \",\"color\":\"white\",\"italic\":false},{\"text\":\"4 \",\"color\":\"green\",\"italic\":false},{\"italic\":false,\"text\":\"\u2698\",\"color\":\"dark_green\",\"bold\":true},{\"italic\":false,\"text\":\"Reputation\",\"color\":\"dark_green\"}]'],Name:'{\"text\":\"Unknown\",\"color\":\"gray\",\"bold\":\"false\",\"italic\":false}'}}}","action":"show_item"}}]
execute unless score @s reputation matches 4.. unless score @s freeItemPeek matches 1.. run scoreboard players set @s freeItemPeek 1
scoreboard players set @s freeItemCooldown 1000
function utils:free_items/set_cooldown
tellraw @s[scores={reputation=8..}] [{"text":"","clickEvent":{"action":"run_command","value":"/trigger trgFreeItem set 409105"},"extra":[{"text":"\u1455\u1368\u25ba ","bold":true,"color":"gold"},{"text":"Leather Tunic","underlined":true,"color":"yellow"},{"text":" \u27f2 ","bold":true,"color":"gold"},{"score":{"name":"@s","objective":"freeItemSecs"},"color":"aqua","bold":false},{"text":"s","bold":true,"color":"dark_aqua"},{"text":" \u25c4\u1368\u1450","bold":true,"color":"gold"}],"hoverEvent":{"value":"{Count:1b,id:leather_chestplate,tag:{display:{Lore:['{\"text\":\"Click to get this bonus\",\"color\":\"white\",\"italic\":true}','[{\"text\":\"Base cooldown: \",\"italic\":false,\"color\":\"gray\"},{\"text\":\"50\",\"color\":\"aqua\",\"italic\":false},{\"text\":\" seconds\",\"color\":\"dark_aqua\",\"italic\":false}]']}}}","action":"show_item"}}]
execute unless score @s reputation matches 8.. unless score @s freeItemPeek matches 1.. run tellraw @s [{"color":"gray","text":"","extra":[{"text":"\u1455\u1368\u25ba ","bold":true},{"text":"Leather Tunic ","bold":false,"obfuscated":false},{"text":" \u26a0 ","color":"dark_red","bold":false},{"text":"8","color":"green"},{"text":"\u2698 ","bold":true,"color":"dark_green"},{"text":"\u25c4\u1368\u1450","bold":true,"color":"gray"}],"hoverEvent":{"value":"{Count:1b,id:leather_chestplate,tag:{display:{Name:'{\"text\":Leather Tunic,\"color\":\"gray\"}',Lore:['[{\"text\":\"\u26a0 \",\"color\":\"dark_red\",\"italic\":false},{\"text\":\"Requires \",\"color\":\"white\",\"italic\":false},{\"text\":\"8 \",\"color\":\"green\",\"italic\":false},{\"italic\":false,\"text\":\"\u2698\",\"color\":\"dark_green\",\"bold\":true},{\"italic\":false,\"text\":\"Reputation\",\"color\":\"dark_green\"}]']}}}","action":"show_item"}}]
execute unless score @s reputation matches 8.. if score @s freeItemPeek matches 1.. run tellraw @s [{"color":"gray","text":"","extra":[{"text":"\u1455\u1368\u25ba ","bold":true},{"text":"u eraLichtnTe ","bold":false,"obfuscated":true},{"text":" \u26a0 ","color":"dark_red","bold":false},{"text":"8","color":"green"},{"text":"\u2698 ","bold":true,"color":"dark_green"},{"text":"\u25c4\u1368\u1450","bold":true,"color":"gray"}],"hoverEvent":{"value":"{id:enchanted_book,Count:1b,tag:{display:{Lore:['[{\"text\":\"\u26a0 \",\"color\":\"dark_red\",\"italic\":false},{\"text\":\"Requires \",\"color\":\"white\",\"italic\":false},{\"text\":\"8 \",\"color\":\"green\",\"italic\":false},{\"italic\":false,\"text\":\"\u2698\",\"color\":\"dark_green\",\"bold\":true},{\"italic\":false,\"text\":\"Reputation\",\"color\":\"dark_green\"}]'],Name:'{\"text\":\"Unknown\",\"color\":\"gray\",\"bold\":\"false\",\"italic\":false}'}}}","action":"show_item"}}]
execute unless score @s reputation matches 8.. unless score @s freeItemPeek matches 1.. run scoreboard players set @s freeItemPeek 1
scoreboard players set @s freeItemCooldown 1200
function utils:free_items/set_cooldown
tellraw @s[scores={reputation=12..}] [{"text":"","clickEvent":{"action":"run_command","value":"/trigger trgFreeItem set 418552"},"extra":[{"text":"\u1455\u1368\u25ba ","bold":true,"color":"gold"},{"text":"Shulker Box","underlined":true,"color":"yellow"},{"text":" \u27f2 ","bold":true,"color":"gold"},{"score":{"name":"@s","objective":"freeItemSecs"},"color":"aqua","bold":false},{"text":"s","bold":true,"color":"dark_aqua"},{"text":" \u25c4\u1368\u1450","bold":true,"color":"gold"}],"hoverEvent":{"value":"{Count:1b,id:orange_shulker_box,tag:{display:{Lore:['{\"text\":\"Click to get this bonus\",\"color\":\"white\",\"italic\":true}','[{\"text\":\"Base cooldown: \",\"italic\":false,\"color\":\"gray\"},{\"text\":\"60\",\"color\":\"aqua\",\"italic\":false},{\"text\":\" seconds\",\"color\":\"dark_aqua\",\"italic\":false}]']}}}","action":"show_item"}}]
execute unless score @s reputation matches 12.. unless score @s freeItemPeek matches 1.. run tellraw @s [{"color":"gray","text":"","extra":[{"text":"\u1455\u1368\u25ba ","bold":true},{"text":"Shulker Box ","bold":false,"obfuscated":false},{"text":" \u26a0 ","color":"dark_red","bold":false},{"text":"12","color":"green"},{"text":"\u2698 ","bold":true,"color":"dark_green"},{"text":"\u25c4\u1368\u1450","bold":true,"color":"gray"}],"hoverEvent":{"value":"{Count:1b,id:orange_shulker_box,tag:{display:{Name:'{\"text\":Shulker Box,\"color\":\"gray\"}',Lore:['[{\"text\":\"\u26a0 \",\"color\":\"dark_red\",\"italic\":false},{\"text\":\"Requires \",\"color\":\"white\",\"italic\":false},{\"text\":\"12 \",\"color\":\"green\",\"italic\":false},{\"italic\":false,\"text\":\"\u2698\",\"color\":\"dark_green\",\"bold\":true},{\"italic\":false,\"text\":\"Reputation\",\"color\":\"dark_green\"}]']}}}","action":"show_item"}}]
execute unless score @s reputation matches 12.. if score @s freeItemPeek matches 1.. run tellraw @s [{"color":"gray","text":"","extra":[{"text":"\u1455\u1368\u25ba ","bold":true},{"text":"olhSxBe kru ","bold":false,"obfuscated":true},{"text":" \u26a0 ","color":"dark_red","bold":false},{"text":"12","color":"green"},{"text":"\u2698 ","bold":true,"color":"dark_green"},{"text":"\u25c4\u1368\u1450","bold":true,"color":"gray"}],"hoverEvent":{"value":"{id:enchanted_book,Count:1b,tag:{display:{Lore:['[{\"text\":\"\u26a0 \",\"color\":\"dark_red\",\"italic\":false},{\"text\":\"Requires \",\"color\":\"white\",\"italic\":false},{\"text\":\"12 \",\"color\":\"green\",\"italic\":false},{\"italic\":false,\"text\":\"\u2698\",\"color\":\"dark_green\",\"bold\":true},{\"italic\":false,\"text\":\"Reputation\",\"color\":\"dark_green\"}]'],Name:'{\"text\":\"Unknown\",\"color\":\"gray\",\"bold\":\"false\",\"italic\":false}'}}}","action":"show_item"}}]
execute unless score @s reputation matches 12.. unless score @s freeItemPeek matches 1.. run scoreboard players set @s freeItemPeek 1
scoreboard players set @s freeItemCooldown 1400
function utils:free_items/set_cooldown
tellraw @s[scores={reputation=16..}] [{"text":"","clickEvent":{"action":"run_command","value":"/trigger trgFreeItem set 424488"},"extra":[{"text":"\u1455\u1368\u25ba ","bold":true,"color":"gold"},{"text":"Iron Pickaxe","underlined":true,"color":"yellow"},{"text":" \u27f2 ","bold":true,"color":"gold"},{"score":{"name":"@s","objective":"freeItemSecs"},"color":"aqua","bold":false},{"text":"s","bold":true,"color":"dark_aqua"},{"text":" \u25c4\u1368\u1450","bold":true,"color":"gold"}],"hoverEvent":{"value":"{Count:1b,id:iron_pickaxe,tag:{display:{Lore:['{\"text\":\"Click to get this bonus\",\"color\":\"white\",\"italic\":true}','[{\"text\":\"Base cooldown: \",\"italic\":false,\"color\":\"gray\"},{\"text\":\"70\",\"color\":\"aqua\",\"italic\":false},{\"text\":\" seconds\",\"color\":\"dark_aqua\",\"italic\":false}]']}}}","action":"show_item"}}]
execute unless score @s reputation matches 16.. unless score @s freeItemPeek matches 1.. run tellraw @s [{"color":"gray","text":"","extra":[{"text":"\u1455\u1368\u25ba ","bold":true},{"text":"Iron Pickaxe ","bold":false,"obfuscated":false},{"text":" \u26a0 ","color":"dark_red","bold":false},{"text":"16","color":"green"},{"text":"\u2698 ","bold":true,"color":"dark_green"},{"text":"\u25c4\u1368\u1450","bold":true,"color":"gray"}],"hoverEvent":{"value":"{Count:1b,id:iron_pickaxe,tag:{display:{Name:'{\"text\":Iron Pickaxe,\"color\":\"gray\"}',Lore:['[{\"text\":\"\u26a0 \",\"color\":\"dark_red\",\"italic\":false},{\"text\":\"Requires \",\"color\":\"white\",\"italic\":false},{\"text\":\"16 \",\"color\":\"green\",\"italic\":false},{\"italic\":false,\"text\":\"\u2698\",\"color\":\"dark_green\",\"bold\":true},{\"italic\":false,\"text\":\"Reputation\",\"color\":\"dark_green\"}]']}}}","action":"show_item"}}]
execute unless score @s reputation matches 16.. if score @s freeItemPeek matches 1.. run tellraw @s [{"color":"gray","text":"","extra":[{"text":"\u1455\u1368\u25ba ","bold":true},{"text":"e rxPacknioI ","bold":false,"obfuscated":true},{"text":" \u26a0 ","color":"dark_red","bold":false},{"text":"16","color":"green"},{"text":"\u2698 ","bold":true,"color":"dark_green"},{"text":"\u25c4\u1368\u1450","bold":true,"color":"gray"}],"hoverEvent":{"value":"{id:enchanted_book,Count:1b,tag:{display:{Lore:['[{\"text\":\"\u26a0 \",\"color\":\"dark_red\",\"italic\":false},{\"text\":\"Requires \",\"color\":\"white\",\"italic\":false},{\"text\":\"16 \",\"color\":\"green\",\"italic\":false},{\"italic\":false,\"text\":\"\u2698\",\"color\":\"dark_green\",\"bold\":true},{\"italic\":false,\"text\":\"Reputation\",\"color\":\"dark_green\"}]'],Name:'{\"text\":\"Unknown\",\"color\":\"gray\",\"bold\":\"false\",\"italic\":false}'}}}","action":"show_item"}}]
execute unless score @s reputation matches 16.. unless score @s freeItemPeek matches 1.. run scoreboard players set @s freeItemPeek 1
scoreboard players set @s freeItemCooldown 1600
function utils:free_items/set_cooldown
tellraw @s[scores={reputation=20..}] [{"text":"","clickEvent":{"action":"run_command","value":"/trigger trgFreeItem set 438519"},"extra":[{"text":"\u1455\u1368\u25ba ","bold":true,"color":"gold"},{"text":"Iron Sword","underlined":true,"color":"yellow"},{"text":" \u27f2 ","bold":true,"color":"gold"},{"score":{"name":"@s","objective":"freeItemSecs"},"color":"aqua","bold":false},{"text":"s","bold":true,"color":"dark_aqua"},{"text":" \u25c4\u1368\u1450","bold":true,"color":"gold"}],"hoverEvent":{"value":"{Count:1b,id:iron_sword,tag:{display:{Lore:['{\"text\":\"Click to get this bonus\",\"color\":\"white\",\"italic\":true}','[{\"text\":\"Base cooldown: \",\"italic\":false,\"color\":\"gray\"},{\"text\":\"80\",\"color\":\"aqua\",\"italic\":false},{\"text\":\" seconds\",\"color\":\"dark_aqua\",\"italic\":false}]']}}}","action":"show_item"}}]
execute unless score @s reputation matches 20.. unless score @s freeItemPeek matches 1.. run tellraw @s [{"color":"gray","text":"","extra":[{"text":"\u1455\u1368\u25ba ","bold":true},{"text":"Iron Sword ","bold":false,"obfuscated":false},{"text":" \u26a0 ","color":"dark_red","bold":false},{"text":"20","color":"green"},{"text":"\u2698 ","bold":true,"color":"dark_green"},{"text":"\u25c4\u1368\u1450","bold":true,"color":"gray"}],"hoverEvent":{"value":"{Count:1b,id:iron_sword,tag:{display:{Name:'{\"text\":Iron Sword,\"color\":\"gray\"}',Lore:['[{\"text\":\"\u26a0 \",\"color\":\"dark_red\",\"italic\":false},{\"text\":\"Requires \",\"color\":\"white\",\"italic\":false},{\"text\":\"20 \",\"color\":\"green\",\"italic\":false},{\"italic\":false,\"text\":\"\u2698\",\"color\":\"dark_green\",\"bold\":true},{\"italic\":false,\"text\":\"Reputation\",\"color\":\"dark_green\"}]']}}}","action":"show_item"}}]
execute unless score @s reputation matches 20.. if score @s freeItemPeek matches 1.. run tellraw @s [{"color":"gray","text":"","extra":[{"text":"\u1455\u1368\u25ba ","bold":true},{"text":"Srrnwdo oI ","bold":false,"obfuscated":true},{"text":" \u26a0 ","color":"dark_red","bold":false},{"text":"20","color":"green"},{"text":"\u2698 ","bold":true,"color":"dark_green"},{"text":"\u25c4\u1368\u1450","bold":true,"color":"gray"}],"hoverEvent":{"value":"{id:enchanted_book,Count:1b,tag:{display:{Lore:['[{\"text\":\"\u26a0 \",\"color\":\"dark_red\",\"italic\":false},{\"text\":\"Requires \",\"color\":\"white\",\"italic\":false},{\"text\":\"20 \",\"color\":\"green\",\"italic\":false},{\"italic\":false,\"text\":\"\u2698\",\"color\":\"dark_green\",\"bold\":true},{\"italic\":false,\"text\":\"Reputation\",\"color\":\"dark_green\"}]'],Name:'{\"text\":\"Unknown\",\"color\":\"gray\",\"bold\":\"false\",\"italic\":false}'}}}","action":"show_item"}}]
execute unless score @s reputation matches 20.. unless score @s freeItemPeek matches 1.. run scoreboard players set @s freeItemPeek 1
scoreboard players set @s freeItemCooldown 1800
function utils:free_items/set_cooldown
tellraw @s[scores={reputation=24..}] [{"text":"","clickEvent":{"action":"run_command","value":"/trigger trgFreeItem set 441641"},"extra":[{"text":"\u1455\u1368\u25ba ","bold":true,"color":"gold"},{"text":"Crossbow","underlined":true,"color":"yellow"},{"text":" \u27f2 ","bold":true,"color":"gold"},{"score":{"name":"@s","objective":"freeItemSecs"},"color":"aqua","bold":false},{"text":"s","bold":true,"color":"dark_aqua"},{"text":" \u25c4\u1368\u1450","bold":true,"color":"gold"}],"hoverEvent":{"value":"{Count:1b,id:crossbow,tag:{display:{Lore:['{\"text\":\"Click to get this bonus\",\"color\":\"white\",\"italic\":true}','[{\"text\":\"Base cooldown: \",\"italic\":false,\"color\":\"gray\"},{\"text\":\"90\",\"color\":\"aqua\",\"italic\":false},{\"text\":\" seconds\",\"color\":\"dark_aqua\",\"italic\":false}]']}}}","action":"show_item"}}]
execute unless score @s reputation matches 24.. unless score @s freeItemPeek matches 1.. run tellraw @s [{"color":"gray","text":"","extra":[{"text":"\u1455\u1368\u25ba ","bold":true},{"text":"Crossbow ","bold":false,"obfuscated":false},{"text":" \u26a0 ","color":"dark_red","bold":false},{"text":"24","color":"green"},{"text":"\u2698 ","bold":true,"color":"dark_green"},{"text":"\u25c4\u1368\u1450","bold":true,"color":"gray"}],"hoverEvent":{"value":"{Count:1b,id:crossbow,tag:{display:{Name:'{\"text\":Crossbow,\"color\":\"gray\"}',Lore:['[{\"text\":\"\u26a0 \",\"color\":\"dark_red\",\"italic\":false},{\"text\":\"Requires \",\"color\":\"white\",\"italic\":false},{\"text\":\"24 \",\"color\":\"green\",\"italic\":false},{\"italic\":false,\"text\":\"\u2698\",\"color\":\"dark_green\",\"bold\":true},{\"italic\":false,\"text\":\"Reputation\",\"color\":\"dark_green\"}]']}}}","action":"show_item"}}]
execute unless score @s reputation matches 24.. if score @s freeItemPeek matches 1.. run tellraw @s [{"color":"gray","text":"","extra":[{"text":"\u1455\u1368\u25ba ","bold":true},{"text":"oswosCbr ","bold":false,"obfuscated":true},{"text":" \u26a0 ","color":"dark_red","bold":false},{"text":"24","color":"green"},{"text":"\u2698 ","bold":true,"color":"dark_green"},{"text":"\u25c4\u1368\u1450","bold":true,"color":"gray"}],"hoverEvent":{"value":"{id:enchanted_book,Count:1b,tag:{display:{Lore:['[{\"text\":\"\u26a0 \",\"color\":\"dark_red\",\"italic\":false},{\"text\":\"Requires \",\"color\":\"white\",\"italic\":false},{\"text\":\"24 \",\"color\":\"green\",\"italic\":false},{\"italic\":false,\"text\":\"\u2698\",\"color\":\"dark_green\",\"bold\":true},{\"italic\":false,\"text\":\"Reputation\",\"color\":\"dark_green\"}]'],Name:'{\"text\":\"Unknown\",\"color\":\"gray\",\"bold\":\"false\",\"italic\":false}'}}}","action":"show_item"}}]
execute unless score @s reputation matches 24.. unless score @s freeItemPeek matches 1.. run scoreboard players set @s freeItemPeek 1
scoreboard players set @s freeItemCooldown 2000
function utils:free_items/set_cooldown
tellraw @s[scores={reputation=28..}] [{"text":"","clickEvent":{"action":"run_command","value":"/trigger trgFreeItem set 454375"},"extra":[{"text":"\u1455\u1368\u25ba ","bold":true,"color":"gold"},{"text":"Turtle Helmet","underlined":true,"color":"yellow"},{"text":" \u27f2 ","bold":true,"color":"gold"},{"score":{"name":"@s","objective":"freeItemSecs"},"color":"aqua","bold":false},{"text":"s","bold":true,"color":"dark_aqua"},{"text":" \u25c4\u1368\u1450","bold":true,"color":"gold"}],"hoverEvent":{"value":"{Count:1b,id:turtle_helmet,tag:{display:{Lore:['{\"text\":\"Click to get this bonus\",\"color\":\"white\",\"italic\":true}','[{\"text\":\"Base cooldown: \",\"italic\":false,\"color\":\"gray\"},{\"text\":\"100\",\"color\":\"aqua\",\"italic\":false},{\"text\":\" seconds\",\"color\":\"dark_aqua\",\"italic\":false}]']}}}","action":"show_item"}}]
execute unless score @s reputation matches 28.. unless score @s freeItemPeek matches 1.. run tellraw @s [{"color":"gray","text":"","extra":[{"text":"\u1455\u1368\u25ba ","bold":true},{"text":"Turtle Helmet ","bold":false,"obfuscated":false},{"text":" \u26a0 ","color":"dark_red","bold":false},{"text":"28","color":"green"},{"text":"\u2698 ","bold":true,"color":"dark_green"},{"text":"\u25c4\u1368\u1450","bold":true,"color":"gray"}],"hoverEvent":{"value":"{Count:1b,id:turtle_helmet,tag:{display:{Name:'{\"text\":Turtle Helmet,\"color\":\"gray\"}',Lore:['[{\"text\":\"\u26a0 \",\"color\":\"dark_red\",\"italic\":false},{\"text\":\"Requires \",\"color\":\"white\",\"italic\":false},{\"text\":\"28 \",\"color\":\"green\",\"italic\":false},{\"italic\":false,\"text\":\"\u2698\",\"color\":\"dark_green\",\"bold\":true},{\"italic\":false,\"text\":\"Reputation\",\"color\":\"dark_green\"}]']}}}","action":"show_item"}}]
execute unless score @s reputation matches 28.. if score @s freeItemPeek matches 1.. run tellraw @s [{"color":"gray","text":"","extra":[{"text":"\u1455\u1368\u25ba ","bold":true},{"text":"meletleHutrT ","bold":false,"obfuscated":true},{"text":" \u26a0 ","color":"dark_red","bold":false},{"text":"28","color":"green"},{"text":"\u2698 ","bold":true,"color":"dark_green"},{"text":"\u25c4\u1368\u1450","bold":true,"color":"gray"}],"hoverEvent":{"value":"{id:enchanted_book,Count:1b,tag:{display:{Lore:['[{\"text\":\"\u26a0 \",\"color\":\"dark_red\",\"italic\":false},{\"text\":\"Requires \",\"color\":\"white\",\"italic\":false},{\"text\":\"28 \",\"color\":\"green\",\"italic\":false},{\"italic\":false,\"text\":\"\u2698\",\"color\":\"dark_green\",\"bold\":true},{\"italic\":false,\"text\":\"Reputation\",\"color\":\"dark_green\"}]'],Name:'{\"text\":\"Unknown\",\"color\":\"gray\",\"bold\":\"false\",\"italic\":false}'}}}","action":"show_item"}}]
execute unless score @s reputation matches 28.. unless score @s freeItemPeek matches 1.. run scoreboard players set @s freeItemPeek 1
scoreboard players set @s freeItemCooldown 2400
function utils:free_items/set_cooldown
tellraw @s[scores={reputation=32..}] [{"text":"","clickEvent":{"action":"run_command","value":"/trigger trgFreeItem set 461687"},"extra":[{"text":"\u1455\u1368\u25ba ","bold":true,"color":"gold"},{"text":"Nemesis Bow","underlined":true,"color":"yellow"},{"text":" \u27f2 ","bold":true,"color":"gold"},{"score":{"name":"@s","objective":"freeItemSecs"},"color":"aqua","bold":false},{"text":"s","bold":true,"color":"dark_aqua"},{"text":" \u25c4\u1368\u1450","bold":true,"color":"gold"}],"hoverEvent":{"value":"{id:bow,Count:1b,tag:{Nemesis:\"1\",RepairCost:15,display:{Name:'[{\"text\":\"Nemesis\",\"italic\":false,\"bold\":true,\"color\":\"gold\"}]',Lore:['{\"text\":\"Click to get this bonus\",\"color\":\"white\",\"italic\":true}','[{\"text\":\"Base cooldown: \",\"italic\":false,\"color\":\"gray\"},{\"text\":\"120\",\"color\":\"aqua\",\"italic\":false},{\"text\":\" seconds\",\"color\":\"dark_aqua\",\"italic\":false}]','{\"text\":\"---\",\"color\":\"dark_gray\"}','[{\"text\":\"They can run\",\"italic\":false,\"color\":\"yellow\"}]','[{\"text\":\"bun they can\\'t hide!\",\"italic\":false,\"color\":\"yellow\"},{\"text\":\"\",\"italic\":false,\"color\":\"dark_purple\"}]','[{\"text\":\"Breaks stealth in radius 15\",\"italic\":false,\"color\":\"light_purple\"}]']},Enchantments:[{id:\"mending\",lvl:1},{id:\"power\",lvl:6},{id:\"punch\",lvl:1}],HideFlags:36,AttributeModifiers:[{AttributeName:\"generic.armor\",Amount:1,Operation:0,UUIDLeast:234740300,UUIDMost:99,Slot:mainhand,Name:\"generic.armor\"},{AttributeName:\"generic.movementSpeed\",Amount:0.05,Operation:2,UUIDLeast:234740400,UUIDMost:99,Slot:mainhand,Name:\"generic.movementSpeed\"},{AttributeName:\"generic.maxHealth\",Amount:2,Operation:0,UUIDLeast:234740500,UUIDMost:99,Slot:mainhand,Name:\"generic.maxHealth\"}]}}","action":"show_item"}}]
execute unless score @s reputation matches 32.. unless score @s freeItemPeek matches 1.. run tellraw @s [{"color":"gray","text":"","extra":[{"text":"\u1455\u1368\u25ba ","bold":true},{"text":"Nemesis Bow ","bold":false,"obfuscated":false},{"text":" \u26a0 ","color":"dark_red","bold":false},{"text":"32","color":"green"},{"text":"\u2698 ","bold":true,"color":"dark_green"},{"text":"\u25c4\u1368\u1450","bold":true,"color":"gray"}],"hoverEvent":{"value":"{id:bow,Count:1b,tag:{Nemesis:\"1\",RepairCost:15,display:{Name:'[{\"text\":\"Nemesis\",\"italic\":false,\"bold\":true,\"color\":\"gray\"}]',Lore:['[{\"text\":\"\u26a0 \",\"color\":\"dark_red\",\"italic\":false},{\"text\":\"Requires \",\"color\":\"white\",\"italic\":false},{\"text\":\"32 \",\"color\":\"green\",\"italic\":false},{\"italic\":false,\"text\":\"\u2698\",\"color\":\"dark_green\",\"bold\":true},{\"italic\":false,\"text\":\"Reputation\",\"color\":\"dark_green\"}]','{\"text\":\"---\",\"color\":\"dark_gray\"}','[{\"text\":\"They can run\",\"italic\":false,\"color\":\"gray\"}]','[{\"text\":\"bun they can\\'t hide!\",\"italic\":false,\"color\":\"gray\"},{\"text\":\"\",\"italic\":false,\"color\":\"gray\"}]','[{\"text\":\"Breaks stealth in radius 15\",\"italic\":false,\"color\":\"gray\"}]']},Enchantments:[{id:\"mending\",lvl:1},{id:\"power\",lvl:6},{id:\"punch\",lvl:1}],HideFlags:36,AttributeModifiers:[{AttributeName:\"generic.armor\",Amount:1,Operation:0,UUIDLeast:234740300,UUIDMost:99,Slot:mainhand,Name:\"generic.armor\"},{AttributeName:\"generic.movementSpeed\",Amount:0.05,Operation:2,UUIDLeast:234740400,UUIDMost:99,Slot:mainhand,Name:\"generic.movementSpeed\"},{AttributeName:\"generic.maxHealth\",Amount:2,Operation:0,UUIDLeast:234740500,UUIDMost:99,Slot:mainhand,Name:\"generic.maxHealth\"}]}}","action":"show_item"}}]
execute unless score @s reputation matches 32.. if score @s freeItemPeek matches 1.. run tellraw @s [{"color":"gray","text":"","extra":[{"text":"\u1455\u1368\u25ba ","bold":true},{"text":"B wemeNisos ","bold":false,"obfuscated":true},{"text":" \u26a0 ","color":"dark_red","bold":false},{"text":"32","color":"green"},{"text":"\u2698 ","bold":true,"color":"dark_green"},{"text":"\u25c4\u1368\u1450","bold":true,"color":"gray"}],"hoverEvent":{"value":"{id:enchanted_book,Count:1b,tag:{display:{Lore:['[{\"text\":\"\u26a0 \",\"color\":\"dark_red\",\"italic\":false},{\"text\":\"Requires \",\"color\":\"white\",\"italic\":false},{\"text\":\"32 \",\"color\":\"green\",\"italic\":false},{\"italic\":false,\"text\":\"\u2698\",\"color\":\"dark_green\",\"bold\":true},{\"italic\":false,\"text\":\"Reputation\",\"color\":\"dark_green\"}]'],Name:'{\"text\":\"Unknown\",\"color\":\"gray\",\"bold\":\"false\",\"italic\":false}'}}}","action":"show_item"}}]
execute unless score @s reputation matches 32.. unless score @s freeItemPeek matches 1.. run scoreboard players set @s freeItemPeek 1
tellraw @s [{"text":"\u2588\u2588\u2588\u2588\u2588\u2588\u2593\u2593\u2593\u2593\u2592\u2592\u2592\u2592\u2591\u2591\u2591\u2591\u2592\u2592\u2592\u2592\u2593\u2593\u2593\u2593\u2588\u2588\u2588\u2588\u2588\u2588","color":"dark_aqua"}]