fill ~ ~ ~ ~ ~ ~ minecraft:structure_block{mode:"LOAD",name:"cm_module_megamix:village_tower",integrity:1.00,posX:-2,posY:-4,posZ:-2,rotation:"NONE"} replace
fill ~ ~1 ~ ~ ~1 ~ minecraft:redstone_block replace

kill @e[type=minecraft:item,distance=..8]

scoreboard players set Random RandomOne5556 99999
scoreboard players set Biome Biome5556 999