forceload add ~-16 ~-16 ~16 ~16

function structures_crabmaster:randomizers/randomizer_1
function structures_crabmaster:randomizers/randomizer_2

execute store result entity @s Pos[1] double 1 run scoreboard players set YPos Maths5556 70

fill ~-3 63 ~-3 ~3 72 ~3 minecraft:air replace


execute if score Random RandomOne5556 matches 0..332 run fill ~ 63 ~ ~ 63 ~ minecraft:structure_block{mode:"LOAD",name:"cm_module_megamix:tower_water",integrity:0.99,posX:-5,posY:-3,posZ:-5,rotation:"NONE"} replace
execute if score Random RandomTwo5556 matches 0..332 run fill ~ 65 ~ ~ 65 ~ minecraft:structure_block{mode:"LOAD",name:"cm_module_megamix:tower_water_extras",integrity:0.4,posX:-5,posY:-5,posZ:-5,rotation:"NONE"} replace

execute if score Random RandomOne5556 matches 333..665 run fill ~ 63 ~ ~ 63 ~ minecraft:structure_block{mode:"LOAD",name:"cm_module_megamix:tower_water",integrity:0.93,posX:-5,posY:-3,posZ:-5,rotation:"NONE"} replace
execute if score Random RandomTwo5556 matches 333..665 run fill ~ 65 ~ ~ 65 ~ minecraft:structure_block{mode:"LOAD",name:"cm_module_megamix:tower_water_extras",integrity:0.21,posX:-5,posY:-5,posZ:-5,rotation:"NONE"} replace

execute if score Random RandomOne5556 matches 666..999 run fill ~ 63 ~ ~ 63 ~ minecraft:structure_block{mode:"LOAD",name:"cm_module_megamix:tower_water",integrity:0.85,posX:-5,posY:-3,posZ:-5,rotation:"NONE"} replace
execute if score Random RandomTwo5556 matches 666..999 run fill ~ 65 ~ ~ 65 ~ minecraft:structure_block{mode:"LOAD",name:"cm_module_megamix:tower_water_extras",integrity:0.11,posX:-5,posY:-5,posZ:-5,rotation:"NONE"} replace


fill ~ 64 ~ ~ 64 ~ minecraft:redstone_block replace
fill ~ 63 ~ ~ 65 ~ minecraft:cobblestone_wall replace

scoreboard players set Base TimerOne5556 0
execute positioned ~ 61 ~ run function cm_module_megamix:structures/towers/water_base

function structures_crabmaster:randomizers/randomizer_1
function structures_crabmaster:randomizers/randomizer_2

execute as @e[limit=1,sort=random,tag=Chest,tag=C5556,tag=Set1,distance=..32] at @s if score Random RandomOne5556 matches 1.. run fill ~ ~ ~ ~ ~ ~ minecraft:barrel[facing=up]{LootTable:"minecraft:chests/shipwreck_supply"} replace
execute as @e[limit=1,sort=random,tag=Chest,tag=C5556,tag=Set2,distance=..32] at @s if score Random RandomOne5556 matches 600.. run fill ~ ~ ~ ~ ~ ~ minecraft:barrel[facing=up]{LootTable:"minecraft:chests/shipwreck_supply"} replace
execute as @e[limit=1,sort=random,tag=Chest,tag=C5556,tag=Set3,distance=..32] at @s if score Random RandomOne5556 matches 865.. run fill ~ ~ ~ ~ ~ ~ minecraft:barrel[facing=up]{LootTable:"minecraft:chests/underwater_ruin_small"} replace
execute as @e[limit=1,sort=random,tag=Chest,tag=C5556,tag=Set4,distance=..32] at @s if score Random RandomOne5556 matches 982.. run fill ~ ~ ~ ~ ~ ~ minecraft:barrel[facing=up]{LootTable:"minecraft:chests/underwater_ruin_big"} replace

execute as @e[limit=1,sort=random,tag=Spawner,tag=C5556,distance=..32] at @s run function cm_module_megamix:structures/towers/water_mobs

execute as @e[distance=..32,tag=Spawner,tag=C5556] at @s run execute as @e[distance=..1,type=!minecraft:area_effect_cloud,limit=8] at @s run data merge entity @s {CanBreakDoors:1,PersistenceRequired:1}
execute as @e[distance=..32,tag=Spawner,tag=C5556] at @s run execute as @e[distance=..1,type=!minecraft:area_effect_cloud,limit=8] at @s run effect give @s minecraft:fire_resistance 180 1 true

kill @e[type=minecraft:item,distance=..16]
kill @e[tag=Spawner,tag=C5556,distance=..32]
kill @e[tag=Chest,tag=C5556,distance=..32]

scoreboard players set Random RandomOne5556 99999
scoreboard players set Biome Biome5556 999