{
    "pools": [
      {
        "rolls": 1,
        "entries": [
          {
            "type": "minecraft:loot_table",
            "name": "chests:rare/any",
            "weight":1
          },
          {
            "type":"empty",
            "weight":1
          }
        ]
      }
    ]
  }