{
    "pools": [
      {
        "rolls": 1,
        "entries": [
          {
            "type": "minecraft:loot_table",
            "name": "chests:basic_chest",
            "weight":10,
            "quality": -2
          },
          {
            "type": "minecraft:loot_table",
            "name": "chests:q_reward_extra",
            "weight":2,
            "quality": 2
          },
          {
            "type": "minecraft:loot_table",
            "name": "chests:q_reward",
            "weight":18,
            "quality": 2
          },
          {
            "type":"minecraft:loot_table",
            "name":"minecraft:chests/stronghold_library",
            "weight":10,
            "quality": -1
          },
          {
            "type":"minecraft:loot_table",
            "name":"minecraft:chests/buried_treasure",
            "weight":10,
            "quality": -1
          },
          {
            "type":"minecraft:loot_table",
            "name":"minecraft:chests/shipwreck_treasure",
            "weight":10,
            "quality": -2
          },
          {
            "type":"minecraft:loot_table",
            "name":"minecraft:chests/nether_bridge",
            "weight":10,
            "quality": -1
          },
          {
            "type":"minecraft:loot_table",
            "name":"minecraft:chests/end_city_treasure",
            "weight":10,
            "quality": -1
          }
        ]
      }
    ]
  }