{
    "values": [
		"minecraft:cobblestone",
		"minecraft:mossy_cobblestone",
		"minecraft:mossy_stone_bricks",
		"minecraft:infested_mossy_stone_bricks",
		"minecraft:stone_bricks",
		"minecraft:infested_stone_bricks",
		"minecraft:cracked_stone_bricks",
		"minecraft:infested_cracked_stone_bricks",
		"minecraft:end_portal_frame",
		"minecraft:iron_bars",
		"minecraft:smooth_stone_slab",
		"minecraft:stone_brick_slab",
		"minecraft:stone_brick_stairs",
		"minecraft:oak_door",
		"minecraft:rail",
		"minecraft:oak_planks",
		"minecraft:oak_fence",
		"minecraft:bookshelf",
		"minecraft:purpur_slab",
		"minecraft:purpur_block",
		"minecraft:purpur_pillar",
		"minecraft:purpur_stairs",
		"minecraft:cobweb"
		]
}