{
    "values": [
		"#minecraft:doors",
		"#minecraft:planks",
		"#minecraft:slabs",
		"#minecraft:stairs",
		"#minecraft:stone_bricks",
		"minecraft:bookshelf",
		"minecraft:cobblestone",
		"minecraft:mossy_cobblestone",
		"minecraft:hay_block",
		"minecraft:torch",
		"minecraft:chest",
		"minecraft:crafting_table",
		"minecraft:furnace",
		"minecraft:grass_path",
		"minecraft:farmland",
		"minecraft:wheat",
		"minecraft:carrots",
		"minecraft:potatoes",
		"minecraft:infested_stone",
		"minecraft:infested_cobblestone",
		"minecraft:infested_stone_bricks",
		"minecraft:infested_mossy_stone_bricks",
		"minecraft:infested_cracked_stone_bricks",
		"minecraft:infested_chiseled_stone_bricks",
		"minecraft:iron_bars",
		"minecraft:glass_pane",
		"minecraft:end_portal_frame"
		]
}