function structures_crabmaster:randomizers/randomizer_1
execute if score Random RandomOne5556 matches ..450 run summon minecraft:vindicator ~ ~ ~
execute if score Random RandomOne5556 matches 451..600 run summon minecraft:pillager ~ ~ ~
execute if score Random RandomOne5556 matches 601..900 run summon minecraft:evoker ~ ~ ~
execute if score Random RandomOne5556 matches 901..999 run summon minecraft:illusioner ~ ~ ~