function structures_crabmaster:randomizers/randomizer_1
execute if score Random RandomOne5556 matches ..200 run summon minecraft:vindicator ~ ~ ~
execute if score Random RandomOne5556 matches 201..300 run summon minecraft:pillager ~ ~ ~
execute if score Random RandomOne5556 matches 301..750 run summon minecraft:evoker ~ ~ ~
execute if score Random RandomOne5556 matches 751..999 run summon minecraft:illusioner ~ ~ ~