function structures_crabmaster:randomizers/randomizer_1
execute if score Random RandomOne5556 matches ..700 run summon minecraft:vindicator ~ ~ ~
execute if score Random RandomOne5556 matches 701..850 run summon minecraft:pillager ~ ~ ~
execute if score Random RandomOne5556 matches 851..950 run summon minecraft:evoker ~ ~ ~
execute if score Random RandomOne5556 matches 951..999 run summon minecraft:illusioner ~ ~ ~