function utils:main_quest
tellraw @s ["",{"text":"\n\n-----\nYou reach out to the altar, when a sudden gust of wind hits you rightin the head and you hear a deep, resonating voice right inside your skull:","italic":true,"color":"gray"},{"text":"\nA newcomer? Yet another pretender or a game changer, at last? Only time will tell...\n"},{"text":"The voice dissipates into an almost untangible whisper that is created by wind in your ears:","color":"gray"},{"text":"\nYou came here to help the South, I see, but can you prove yourself worthy? You seek to push back the Invasion, but can you cope with much simpler tasks at least? You can't fight Aliens alone, but also there's no reason for people to follow you, so far. How would you overcome that?"}]
tellraw @s {"text":"-----\n\n"}
scoreboard players set @s main_quest_b 1
function quests:notify/plot_b