forceload add ~-8 ~-8 ~8 ~8

execute positioned ~ ~ ~ unless block ~ ~-1 ~ #structures_crabmaster:water_lava unless block ~ ~ ~ #structures_crabmaster:water_lava unless block ~ ~1 ~ #structures_crabmaster:water_lava run function cm_module_megamix:structures/palm_forest/spawn_1

#setblock ~ ~ ~ minecraft:red_wool

execute if predicate structures_crabmaster:randomizers/0_25 positioned ~6 ~8 ~4 run function cm_module_megamix:structures/palm_forest/land_left
execute if predicate structures_crabmaster:randomizers/0_15 positioned ~9 ~8 ~-3 run function cm_module_megamix:structures/palm_forest/land_left
execute if predicate structures_crabmaster:randomizers/0_25 positioned ~5 ~8 ~-7 run function cm_module_megamix:structures/palm_forest/land_left
execute if predicate structures_crabmaster:randomizers/0_15 positioned ~-4 ~8 ~-10 run function cm_module_megamix:structures/palm_forest/land_left