forceload add ~-8 ~-8 ~8 ~8

execute positioned ~ ~ ~ unless block ~ ~-1 ~ #structures_crabmaster:water_lava unless block ~ ~ ~ #structures_crabmaster:water_lava unless block ~ ~1 ~ #structures_crabmaster:water_lava run function cm_module_megamix:structures/palm_forest/spawn_1

#setblock ~ ~ ~ minecraft:yellow_wool

execute if predicate structures_crabmaster:randomizers/0_25 positioned ~7 ~8 ~4 run function cm_module_megamix:structures/palm_forest/land_up
execute if predicate structures_crabmaster:randomizers/0_15 positioned ~10 ~8 ~-5 run function cm_module_megamix:structures/palm_forest/land_up
execute if predicate structures_crabmaster:randomizers/0_25 positioned ~4 ~8 ~6 run function cm_module_megamix:structures/palm_forest/land_up
execute if predicate structures_crabmaster:randomizers/0_15 positioned ~-3 ~8 ~9 run function cm_module_megamix:structures/palm_forest/land_up