tag @s add bm1_3d_mpa
execute as @e[tag=bm1_3d_mtps] if score @s bm1_global_id = @a[tag=bm1_3d_mpa,limit=1,sort=nearest] bm1_global_id run tag @s add bm1_3d_mpa
function buildmodeone:3d_editor/rotation/clear
execute as @e[tag=bm1_3d_mtps,tag=bm1_3d_mpa] at @s run tag @e[tag=bm1_3d_mth,distance=..0.1,type=armor_stand] add bm1_3d_hasItem
execute as @e[tag=bm1_3d_mtps,tag=bm1_3d_mpa] at @s run replaceitem entity @e[tag=bm1_3d_mth,limit=1,distance=..0.1] armor.head minecraft:white_stained_glass{CustomModelData:1370007}
tag @e[tag=bm1_3d_mpa] remove bm1_3d_mpa