#define tag visitHermitsHouse
function discover:bonus/common
title @s title {"text":"Hermit's House","bold":true,"color":"gold"}
execute positioned 1780 75 10530 run function chests:quest/east
tag @s add visitHermitsHouse