function structures_crabmaster:randomizers/randomizer_2
execute if score Random RandomTwo5556 matches 0..200 run summon minecraft:horse ~ ~ ~
execute if score Random RandomTwo5556 matches 201..600 run summon minecraft:cow ~ ~ ~
execute if score Random RandomTwo5556 matches 601..850 run summon minecraft:sheep ~ ~ ~
execute if score Random RandomTwo5556 matches 800..850 run summon minecraft:pig ~ ~ ~
