forceload add ~-8 ~-8 ~8 ~8

execute positioned ~ ~ ~ unless block ~ ~-3 ~ #structures_crabmaster:water_lava unless block ~ ~ ~ #structures_crabmaster:water_lava unless block ~ ~4 ~ #structures_crabmaster:water_lava run function cm_module_megamix:structures/farm/crops_spawn_1

scoreboard players set Landed ExtraLogic5556 0
execute if predicate structures_crabmaster:randomizers/0_15 positioned ~4 ~8 ~-8 run function cm_module_megamix:structures/farm/crops_land_left
scoreboard players set Landed ExtraLogic5556 0
execute if predicate structures_crabmaster:randomizers/0_5 positioned ~6 ~8 ~-2 run function cm_module_megamix:structures/farm/crops_land_up
scoreboard players set Landed ExtraLogic5556 0
execute if predicate structures_crabmaster:randomizers/0_25 positioned ~-4 ~8 ~4 run function cm_module_megamix:structures/farm/crops_land_up

scoreboard players set Landed ExtraLogic5556 1