function structures_crabmaster:randomizers/randomizer_2
execute if score Random RandomTwo5556 matches 0..599 run summon minecraft:horse ~ ~ ~
execute if score Random RandomTwo5556 matches 600..799 run summon minecraft:donkey ~ ~ ~
execute if score Random RandomTwo5556 matches 800..850 run summon minecraft:llama ~ ~ ~