function utils:free_items/reset
function utils:free_items/calc_cooldown
function utils:free_items/click
tellraw @s [{"text":"\n\n\n\n\n\n"},{"text":"\u2581\u2582\u2583\u2584\u2585\u2586\u2587\u2588\u2593\u2592\u2591","color":"dark_aqua"},{"text":"Make a choice","bold":true,"color":"white"},{"text":"\u2591\u2592\u2593\u2588\u2587\u2586\u2585\u2584\u2583\u2582\u2581","color":"dark_aqua"}]
scoreboard players set @s freeItemCooldown 900
function utils:free_items/set_cooldown
tellraw @s[scores={reputation=0..}] [{"text":"","clickEvent":{"action":"run_command","value":"/trigger trgFreeItem set 247534"},"extra":[{"text":"\u1455\u1368\u25ba ","bold":true,"color":"gold"},{"text":"Boat","underlined":true,"color":"yellow"},{"text":" \u27f2 ","bold":true,"color":"gold"},{"score":{"name":"@s","objective":"freeItemSecs"},"color":"aqua","bold":false},{"text":"s","bold":true,"color":"dark_aqua"},{"text":" \u25c4\u1368\u1450","bold":true,"color":"gold"}],"hoverEvent":{"value":"{Count:1b,id:birch_boat,tag:{display:{Lore:['{\"text\":\"Click to get this bonus\",\"color\":\"white\",\"italic\":true}','[{\"text\":\"Base cooldown: \",\"italic\":false,\"color\":\"gray\"},{\"text\":\"45\",\"color\":\"aqua\",\"italic\":false},{\"text\":\" seconds\",\"color\":\"dark_aqua\",\"italic\":false}]']}}}","action":"show_item"}}]
execute unless score @s reputation matches 0.. unless score @s freeItemPeek matches 1.. run tellraw @s [{"color":"gray","text":"","extra":[{"text":"\u1455\u1368\u25ba ","bold":true},{"text":"Boat ","bold":false,"obfuscated":false},{"text":" \u26a0 ","color":"dark_red","bold":false},{"text":"0","color":"green"},{"text":"\u2698 ","bold":true,"color":"dark_green"},{"text":"\u25c4\u1368\u1450","bold":true,"color":"gray"}],"hoverEvent":{"value":"{Count:1b,id:birch_boat,tag:{display:{Name:'{\"text\":Boat,\"color\":\"gray\"}',Lore:['[{\"text\":\"\u26a0 \",\"color\":\"dark_red\",\"italic\":false},{\"text\":\"Requires \",\"color\":\"white\",\"italic\":false},{\"text\":\"0 \",\"color\":\"green\",\"italic\":false},{\"italic\":false,\"text\":\"\u2698\",\"color\":\"dark_green\",\"bold\":true},{\"italic\":false,\"text\":\"Reputation\",\"color\":\"dark_green\"}]']}}}","action":"show_item"}}]
execute unless score @s reputation matches 0.. if score @s freeItemPeek matches 1.. run tellraw @s [{"color":"gray","text":"","extra":[{"text":"\u1455\u1368\u25ba ","bold":true},{"text":"otBa ","bold":false,"obfuscated":true},{"text":" \u26a0 ","color":"dark_red","bold":false},{"text":"0","color":"green"},{"text":"\u2698 ","bold":true,"color":"dark_green"},{"text":"\u25c4\u1368\u1450","bold":true,"color":"gray"}],"hoverEvent":{"value":"{id:enchanted_book,Count:1b,tag:{display:{Lore:['[{\"text\":\"\u26a0 \",\"color\":\"dark_red\",\"italic\":false},{\"text\":\"Requires \",\"color\":\"white\",\"italic\":false},{\"text\":\"0 \",\"color\":\"green\",\"italic\":false},{\"italic\":false,\"text\":\"\u2698\",\"color\":\"dark_green\",\"bold\":true},{\"italic\":false,\"text\":\"Reputation\",\"color\":\"dark_green\"}]'],Name:'{\"text\":\"Unknown\",\"color\":\"gray\",\"bold\":\"false\",\"italic\":false}'}}}","action":"show_item"}}]
execute unless score @s reputation matches 0.. unless score @s freeItemPeek matches 1.. run scoreboard players set @s freeItemPeek 1
scoreboard players set @s freeItemCooldown 1200
function utils:free_items/set_cooldown
tellraw @s[scores={reputation=5..}] [{"text":"","clickEvent":{"action":"run_command","value":"/trigger trgFreeItem set 255567"},"extra":[{"text":"\u1455\u1368\u25ba ","bold":true,"color":"gold"},{"text":"Minecart","underlined":true,"color":"yellow"},{"text":" \u27f2 ","bold":true,"color":"gold"},{"score":{"name":"@s","objective":"freeItemSecs"},"color":"aqua","bold":false},{"text":"s","bold":true,"color":"dark_aqua"},{"text":" \u25c4\u1368\u1450","bold":true,"color":"gold"}],"hoverEvent":{"value":"{Count:1b,id:minecart,tag:{display:{Lore:['{\"text\":\"Click to get this bonus\",\"color\":\"white\",\"italic\":true}','[{\"text\":\"Base cooldown: \",\"italic\":false,\"color\":\"gray\"},{\"text\":\"60\",\"color\":\"aqua\",\"italic\":false},{\"text\":\" seconds\",\"color\":\"dark_aqua\",\"italic\":false}]']}}}","action":"show_item"}}]
execute unless score @s reputation matches 5.. unless score @s freeItemPeek matches 1.. run tellraw @s [{"color":"gray","text":"","extra":[{"text":"\u1455\u1368\u25ba ","bold":true},{"text":"Minecart ","bold":false,"obfuscated":false},{"text":" \u26a0 ","color":"dark_red","bold":false},{"text":"5","color":"green"},{"text":"\u2698 ","bold":true,"color":"dark_green"},{"text":"\u25c4\u1368\u1450","bold":true,"color":"gray"}],"hoverEvent":{"value":"{Count:1b,id:minecart,tag:{display:{Name:'{\"text\":Minecart,\"color\":\"gray\"}',Lore:['[{\"text\":\"\u26a0 \",\"color\":\"dark_red\",\"italic\":false},{\"text\":\"Requires \",\"color\":\"white\",\"italic\":false},{\"text\":\"5 \",\"color\":\"green\",\"italic\":false},{\"italic\":false,\"text\":\"\u2698\",\"color\":\"dark_green\",\"bold\":true},{\"italic\":false,\"text\":\"Reputation\",\"color\":\"dark_green\"}]']}}}","action":"show_item"}}]
execute unless score @s reputation matches 5.. if score @s freeItemPeek matches 1.. run tellraw @s [{"color":"gray","text":"","extra":[{"text":"\u1455\u1368\u25ba ","bold":true},{"text":"rcitanMe ","bold":false,"obfuscated":true},{"text":" \u26a0 ","color":"dark_red","bold":false},{"text":"5","color":"green"},{"text":"\u2698 ","bold":true,"color":"dark_green"},{"text":"\u25c4\u1368\u1450","bold":true,"color":"gray"}],"hoverEvent":{"value":"{id:enchanted_book,Count:1b,tag:{display:{Lore:['[{\"text\":\"\u26a0 \",\"color\":\"dark_red\",\"italic\":false},{\"text\":\"Requires \",\"color\":\"white\",\"italic\":false},{\"text\":\"5 \",\"color\":\"green\",\"italic\":false},{\"italic\":false,\"text\":\"\u2698\",\"color\":\"dark_green\",\"bold\":true},{\"italic\":false,\"text\":\"Reputation\",\"color\":\"dark_green\"}]'],Name:'{\"text\":\"Unknown\",\"color\":\"gray\",\"bold\":\"false\",\"italic\":false}'}}}","action":"show_item"}}]
execute unless score @s reputation matches 5.. unless score @s freeItemPeek matches 1.. run scoreboard players set @s freeItemPeek 1
scoreboard players set @s freeItemCooldown 1500
function utils:free_items/set_cooldown
tellraw @s[scores={reputation=10..}] [{"text":"","clickEvent":{"action":"run_command","value":"/trigger trgFreeItem set 263904"},"extra":[{"text":"\u1455\u1368\u25ba ","bold":true,"color":"gold"},{"text":"Speed","underlined":true,"color":"yellow"},{"text":" \u27f2 ","bold":true,"color":"gold"},{"score":{"name":"@s","objective":"freeItemSecs"},"color":"aqua","bold":false},{"text":"s","bold":true,"color":"dark_aqua"},{"text":" \u25c4\u1368\u1450","bold":true,"color":"gold"}],"hoverEvent":{"value":"{id:potion,Count:1b,tag:{CustomPotionColor:56831,display:{Lore:['{\"text\":\"Click to get this bonus\",\"color\":\"white\",\"italic\":true}','[{\"text\":\"Base cooldown: \",\"italic\":false,\"color\":\"gray\"},{\"text\":\"75\",\"color\":\"aqua\",\"italic\":false},{\"text\":\" seconds\",\"color\":\"dark_aqua\",\"italic\":false}]'],Name:'[{\"text\":\"Speed I\",\"italic\":false,\"color\":\"yellow\"}]'},CustomPotionEffects:[{Id:1,Duration:6000,Amplifier:0}]}}","action":"show_item"}}]
execute unless score @s reputation matches 10.. unless score @s freeItemPeek matches 1.. run tellraw @s [{"color":"gray","text":"","extra":[{"text":"\u1455\u1368\u25ba ","bold":true},{"text":"Speed ","bold":false,"obfuscated":false},{"text":" \u26a0 ","color":"dark_red","bold":false},{"text":"10","color":"green"},{"text":"\u2698 ","bold":true,"color":"dark_green"},{"text":"\u25c4\u1368\u1450","bold":true,"color":"gray"}],"hoverEvent":{"value":"{id:potion,Count:1b,tag:{CustomPotionColor:56831,display:{Lore:['[{\"text\":\"\u26a0 \",\"color\":\"dark_red\",\"italic\":false},{\"text\":\"Requires \",\"color\":\"white\",\"italic\":false},{\"text\":\"10 \",\"color\":\"green\",\"italic\":false},{\"italic\":false,\"text\":\"\u2698\",\"color\":\"dark_green\",\"bold\":true},{\"italic\":false,\"text\":\"Reputation\",\"color\":\"dark_green\"}]'],Name:'[{\"text\":\"Speed I\",\"italic\":false,\"color\":\"gray\"}]'},CustomPotionEffects:[{Id:1,Duration:6000,Amplifier:0}]}}","action":"show_item"}}]
execute unless score @s reputation matches 10.. if score @s freeItemPeek matches 1.. run tellraw @s [{"color":"gray","text":"","extra":[{"text":"\u1455\u1368\u25ba ","bold":true},{"text":"depeS ","bold":false,"obfuscated":true},{"text":" \u26a0 ","color":"dark_red","bold":false},{"text":"10","color":"green"},{"text":"\u2698 ","bold":true,"color":"dark_green"},{"text":"\u25c4\u1368\u1450","bold":true,"color":"gray"}],"hoverEvent":{"value":"{id:enchanted_book,Count:1b,tag:{display:{Lore:['[{\"text\":\"\u26a0 \",\"color\":\"dark_red\",\"italic\":false},{\"text\":\"Requires \",\"color\":\"white\",\"italic\":false},{\"text\":\"10 \",\"color\":\"green\",\"italic\":false},{\"italic\":false,\"text\":\"\u2698\",\"color\":\"dark_green\",\"bold\":true},{\"italic\":false,\"text\":\"Reputation\",\"color\":\"dark_green\"}]'],Name:'{\"text\":\"Unknown\",\"color\":\"gray\",\"bold\":\"false\",\"italic\":false}'}}}","action":"show_item"}}]
execute unless score @s reputation matches 10.. unless score @s freeItemPeek matches 1.. run scoreboard players set @s freeItemPeek 1
scoreboard players set @s freeItemCooldown 1800
function utils:free_items/set_cooldown
tellraw @s[scores={reputation=15..}] [{"text":"","clickEvent":{"action":"run_command","value":"/trigger trgFreeItem set 275102"},"extra":[{"text":"\u1455\u1368\u25ba ","bold":true,"color":"gold"},{"text":"Drafter Mule","underlined":true,"color":"yellow"},{"text":" \u27f2 ","bold":true,"color":"gold"},{"score":{"name":"@s","objective":"freeItemSecs"},"color":"aqua","bold":false},{"text":"s","bold":true,"color":"dark_aqua"},{"text":" \u25c4\u1368\u1450","bold":true,"color":"gold"}],"hoverEvent":{"value":"{id:mule_spawn_egg,Count:1b,tag:{display:{Name:'[{\"text\":\"Drafter Spawn Egg\",\"italic\":false,\"color\":\"aqua\",\"bold\":true}]',Lore:['{\"text\":\"Click to get this bonus\",\"color\":\"white\",\"italic\":true}','[{\"text\":\"Base cooldown: \",\"italic\":false,\"color\":\"gray\"},{\"text\":\"90\",\"color\":\"aqua\",\"italic\":false},{\"text\":\" seconds\",\"color\":\"dark_aqua\",\"italic\":false}]','{\"text\":\"---\",\"color\":\"dark_gray\"}','[{\"text\":\"An exceptional mule breed\",\"italic\":false,\"color\":\"yellow\"}]','[{\"text\":\"Versatile and sturdy\",\"italic\":false,\"color\":\"yellow\"}]','[{\"text\":\"Equipped with Chest\",\"italic\":false,\"color\":\"dark_aqua\"}]','[{\"text\":\"\",\"italic\":false,\"color\":\"dark_purple\"}]','[{\"text\":\"Health: \",\"italic\":false,\"color\":\"white\"},{\"text\":\"30\",\"color\":\"aqua\"},{\"text\":\"\",\"color\":\"dark_purple\"}]','[{\"text\":\"Armor: \",\"italic\":false,\"color\":\"white\"},{\"text\":\"5\",\"color\":\"aqua\"},{\"text\":\"\",\"color\":\"dark_purple\"}]','[{\"text\":\"Speed: \",\"italic\":false,\"color\":\"white\"},{\"text\":\"60%\",\"color\":\"aqua\"},{\"text\":\"\",\"color\":\"dark_purple\"}]','[{\"text\":\"Jump Height: \",\"italic\":false,\"color\":\"white\"},{\"text\":\"50%\",\"color\":\"aqua\"}]','[{\"text\":\"Slow Falling\",\"italic\":false,\"color\":\"light_purple\"}]']}}}","action":"show_item"}}]
execute unless score @s reputation matches 15.. unless score @s freeItemPeek matches 1.. run tellraw @s [{"color":"gray","text":"","extra":[{"text":"\u1455\u1368\u25ba ","bold":true},{"text":"Drafter Mule ","bold":false,"obfuscated":false},{"text":" \u26a0 ","color":"dark_red","bold":false},{"text":"15","color":"green"},{"text":"\u2698 ","bold":true,"color":"dark_green"},{"text":"\u25c4\u1368\u1450","bold":true,"color":"gray"}],"hoverEvent":{"value":"{id:mule_spawn_egg,Count:1b,tag:{display:{Name:'[{\"text\":\"Drafter Spawn Egg\",\"italic\":false,\"color\":\"gray\",\"bold\":true}]',Lore:['[{\"text\":\"\u26a0 \",\"color\":\"dark_red\",\"italic\":false},{\"text\":\"Requires \",\"color\":\"white\",\"italic\":false},{\"text\":\"15 \",\"color\":\"green\",\"italic\":false},{\"italic\":false,\"text\":\"\u2698\",\"color\":\"dark_green\",\"bold\":true},{\"italic\":false,\"text\":\"Reputation\",\"color\":\"dark_green\"}]','{\"text\":\"---\",\"color\":\"dark_gray\"}','[{\"text\":\"An exceptional mule breed\",\"italic\":false,\"color\":\"gray\"}]','[{\"text\":\"Versatile and sturdy\",\"italic\":false,\"color\":\"gray\"}]','[{\"text\":\"Equipped with Chest\",\"italic\":false,\"color\":\"gray\"}]','[{\"text\":\"\",\"italic\":false,\"color\":\"gray\"}]','[{\"text\":\"Health: \",\"italic\":false,\"color\":\"gray\"},{\"text\":\"30\",\"color\":\"gray\"},{\"text\":\"\",\"color\":\"gray\"}]','[{\"text\":\"Armor: \",\"italic\":false,\"color\":\"gray\"},{\"text\":\"5\",\"color\":\"gray\"},{\"text\":\"\",\"color\":\"gray\"}]','[{\"text\":\"Speed: \",\"italic\":false,\"color\":\"gray\"},{\"text\":\"60%\",\"color\":\"gray\"},{\"text\":\"\",\"color\":\"gray\"}]','[{\"text\":\"Jump Height: \",\"italic\":false,\"color\":\"gray\"},{\"text\":\"50%\",\"color\":\"gray\"}]','[{\"text\":\"Slow Falling\",\"italic\":false,\"color\":\"gray\"}]']}}}","action":"show_item"}}]
execute unless score @s reputation matches 15.. if score @s freeItemPeek matches 1.. run tellraw @s [{"color":"gray","text":"","extra":[{"text":"\u1455\u1368\u25ba ","bold":true},{"text":"M ruaeefDlrt ","bold":false,"obfuscated":true},{"text":" \u26a0 ","color":"dark_red","bold":false},{"text":"15","color":"green"},{"text":"\u2698 ","bold":true,"color":"dark_green"},{"text":"\u25c4\u1368\u1450","bold":true,"color":"gray"}],"hoverEvent":{"value":"{id:enchanted_book,Count:1b,tag:{display:{Lore:['[{\"text\":\"\u26a0 \",\"color\":\"dark_red\",\"italic\":false},{\"text\":\"Requires \",\"color\":\"white\",\"italic\":false},{\"text\":\"15 \",\"color\":\"green\",\"italic\":false},{\"italic\":false,\"text\":\"\u2698\",\"color\":\"dark_green\",\"bold\":true},{\"italic\":false,\"text\":\"Reputation\",\"color\":\"dark_green\"}]'],Name:'{\"text\":\"Unknown\",\"color\":\"gray\",\"bold\":\"false\",\"italic\":false}'}}}","action":"show_item"}}]
execute unless score @s reputation matches 15.. unless score @s freeItemPeek matches 1.. run scoreboard players set @s freeItemPeek 1
scoreboard players set @s freeItemCooldown 2100
function utils:free_items/set_cooldown
tellraw @s[scores={reputation=20..}] [{"text":"","clickEvent":{"action":"run_command","value":"/trigger trgFreeItem set 281985"},"extra":[{"text":"\u1455\u1368\u25ba ","bold":true,"color":"gold"},{"text":"Dolphin's Grace","underlined":true,"color":"yellow"},{"text":" \u27f2 ","bold":true,"color":"gold"},{"score":{"name":"@s","objective":"freeItemSecs"},"color":"aqua","bold":false},{"text":"s","bold":true,"color":"dark_aqua"},{"text":" \u25c4\u1368\u1450","bold":true,"color":"gold"}],"hoverEvent":{"value":"{id:potion,Count:1b,tag:{CustomPotionColor:56831,display:{Lore:['{\"text\":\"Click to get this bonus\",\"color\":\"white\",\"italic\":true}','[{\"text\":\"Base cooldown: \",\"italic\":false,\"color\":\"gray\"},{\"text\":\"105\",\"color\":\"aqua\",\"italic\":false},{\"text\":\" seconds\",\"color\":\"dark_aqua\",\"italic\":false}]'],Name:'[{\"text\":\"Dolphin\\'s Grace I\",\"italic\":false,\"color\":\"yellow\"}]'},CustomPotionEffects:[{Id:30,Duration:6000,Amplifier:0,Ambient:1b}]}}","action":"show_item"}}]
execute unless score @s reputation matches 20.. unless score @s freeItemPeek matches 1.. run tellraw @s [{"color":"gray","text":"","extra":[{"text":"\u1455\u1368\u25ba ","bold":true},{"text":"Dolphin's Grace ","bold":false,"obfuscated":false},{"text":" \u26a0 ","color":"dark_red","bold":false},{"text":"20","color":"green"},{"text":"\u2698 ","bold":true,"color":"dark_green"},{"text":"\u25c4\u1368\u1450","bold":true,"color":"gray"}],"hoverEvent":{"value":"{id:potion,Count:1b,tag:{CustomPotionColor:56831,display:{Lore:['[{\"text\":\"\u26a0 \",\"color\":\"dark_red\",\"italic\":false},{\"text\":\"Requires \",\"color\":\"white\",\"italic\":false},{\"text\":\"20 \",\"color\":\"green\",\"italic\":false},{\"italic\":false,\"text\":\"\u2698\",\"color\":\"dark_green\",\"bold\":true},{\"italic\":false,\"text\":\"Reputation\",\"color\":\"dark_green\"}]'],Name:'[{\"text\":\"Dolphin\\'s Grace I\",\"italic\":false,\"color\":\"gray\"}]'},CustomPotionEffects:[{Id:30,Duration:6000,Amplifier:0,Ambient:1b}]}}","action":"show_item"}}]
execute unless score @s reputation matches 20.. if score @s freeItemPeek matches 1.. run tellraw @s [{"color":"gray","text":"","extra":[{"text":"\u1455\u1368\u25ba ","bold":true},{"text":"hGep'csiDloa nr ","bold":false,"obfuscated":true},{"text":" \u26a0 ","color":"dark_red","bold":false},{"text":"20","color":"green"},{"text":"\u2698 ","bold":true,"color":"dark_green"},{"text":"\u25c4\u1368\u1450","bold":true,"color":"gray"}],"hoverEvent":{"value":"{id:enchanted_book,Count:1b,tag:{display:{Lore:['[{\"text\":\"\u26a0 \",\"color\":\"dark_red\",\"italic\":false},{\"text\":\"Requires \",\"color\":\"white\",\"italic\":false},{\"text\":\"20 \",\"color\":\"green\",\"italic\":false},{\"italic\":false,\"text\":\"\u2698\",\"color\":\"dark_green\",\"bold\":true},{\"italic\":false,\"text\":\"Reputation\",\"color\":\"dark_green\"}]'],Name:'{\"text\":\"Unknown\",\"color\":\"gray\",\"bold\":\"false\",\"italic\":false}'}}}","action":"show_item"}}]
execute unless score @s reputation matches 20.. unless score @s freeItemPeek matches 1.. run scoreboard players set @s freeItemPeek 1
scoreboard players set @s freeItemCooldown 2400
function utils:free_items/set_cooldown
tellraw @s[scores={reputation=25..}] [{"text":"","clickEvent":{"action":"run_command","value":"/trigger trgFreeItem set 294727"},"extra":[{"text":"\u1455\u1368\u25ba ","bold":true,"color":"gold"},{"text":"Emporium Stallion","underlined":true,"color":"yellow"},{"text":" \u27f2 ","bold":true,"color":"gold"},{"score":{"name":"@s","objective":"freeItemSecs"},"color":"aqua","bold":false},{"text":"s","bold":true,"color":"dark_aqua"},{"text":" \u25c4\u1368\u1450","bold":true,"color":"gold"}],"hoverEvent":{"value":"{id:horse_spawn_egg,Count:1b,tag:{display:{Name:'[{\"text\":\"Emporium Stallion Spawn Egg\",\"italic\":false,\"bold\":true,\"color\":\"light_purple\"}]',Lore:['{\"text\":\"Click to get this bonus\",\"color\":\"white\",\"italic\":true}','[{\"text\":\"Base cooldown: \",\"italic\":false,\"color\":\"gray\"},{\"text\":\"120\",\"color\":\"aqua\",\"italic\":false},{\"text\":\" seconds\",\"color\":\"dark_aqua\",\"italic\":false}]','{\"text\":\"---\",\"color\":\"dark_gray\"}','[{\"text\":\"Arguably the best horse\",\"italic\":false,\"color\":\"yellow\"}]','[{\"text\":\"you can find in \",\"italic\":false,\"color\":\"yellow\"},{\"text\":\"the South\",\"italic\":true},{\"text\":\"\",\"italic\":false,\"color\":\"dark_purple\"}]','[{\"text\":\"Leather Armor included\",\"italic\":false,\"color\":\"dark_aqua\"},{\"text\":\"\",\"italic\":false,\"color\":\"dark_purple\"}]','[{\"text\":\"\",\"italic\":false,\"color\":\"dark_purple\"}]','[{\"text\":\"Health:\",\"italic\":false,\"color\":\"white\"},{\"text\":\" 45\",\"color\":\"aqua\"},{\"text\":\"\",\"color\":\"dark_purple\"}]','[{\"text\":\"Armor: \",\"italic\":false,\"color\":\"white\"},{\"text\":\"5 \",\"color\":\"aqua\"},{\"text\":\"(+3)\",\"color\":\"dark_aqua\"},{\"text\":\"\"}]','[{\"text\":\"Speed: \",\"italic\":false,\"color\":\"white\"},{\"text\":\"100%\",\"color\":\"aqua\"},{\"text\":\"\",\"color\":\"dark_purple\"}]','[{\"text\":\"Jump Height: \",\"italic\":false,\"color\":\"white\"},{\"text\":\"100%\",\"color\":\"aqua\"},{\"text\":\"\"}]','[{\"text\":\"20% Resistance\",\"italic\":false,\"color\":\"light_purple\"}]','[{\"text\":\"Knockback Immunity\",\"italic\":false,\"color\":\"light_purple\"}]']}}}","action":"show_item"}}]
execute unless score @s reputation matches 25.. unless score @s freeItemPeek matches 1.. run tellraw @s [{"color":"gray","text":"","extra":[{"text":"\u1455\u1368\u25ba ","bold":true},{"text":"Emporium Stallion ","bold":false,"obfuscated":false},{"text":" \u26a0 ","color":"dark_red","bold":false},{"text":"25","color":"green"},{"text":"\u2698 ","bold":true,"color":"dark_green"},{"text":"\u25c4\u1368\u1450","bold":true,"color":"gray"}],"hoverEvent":{"value":"{id:horse_spawn_egg,Count:1b,tag:{display:{Name:'[{\"text\":\"Emporium Stallion Spawn Egg\",\"italic\":false,\"bold\":true,\"color\":\"gray\"}]',Lore:['[{\"text\":\"\u26a0 \",\"color\":\"dark_red\",\"italic\":false},{\"text\":\"Requires \",\"color\":\"white\",\"italic\":false},{\"text\":\"25 \",\"color\":\"green\",\"italic\":false},{\"italic\":false,\"text\":\"\u2698\",\"color\":\"dark_green\",\"bold\":true},{\"italic\":false,\"text\":\"Reputation\",\"color\":\"dark_green\"}]','{\"text\":\"---\",\"color\":\"dark_gray\"}','[{\"text\":\"Arguably the best horse\",\"italic\":false,\"color\":\"gray\"}]','[{\"text\":\"you can find in \",\"italic\":false,\"color\":\"gray\"},{\"text\":\"the South\",\"italic\":true},{\"text\":\"\",\"italic\":false,\"color\":\"gray\"}]','[{\"text\":\"Leather Armor included\",\"italic\":false,\"color\":\"gray\"},{\"text\":\"\",\"italic\":false,\"color\":\"gray\"}]','[{\"text\":\"\",\"italic\":false,\"color\":\"gray\"}]','[{\"text\":\"Health:\",\"italic\":false,\"color\":\"gray\"},{\"text\":\" 45\",\"color\":\"gray\"},{\"text\":\"\",\"color\":\"gray\"}]','[{\"text\":\"Armor: \",\"italic\":false,\"color\":\"gray\"},{\"text\":\"5 \",\"color\":\"gray\"},{\"text\":\"(+3)\",\"color\":\"gray\"},{\"text\":\"\"}]','[{\"text\":\"Speed: \",\"italic\":false,\"color\":\"gray\"},{\"text\":\"100%\",\"color\":\"gray\"},{\"text\":\"\",\"color\":\"gray\"}]','[{\"text\":\"Jump Height: \",\"italic\":false,\"color\":\"gray\"},{\"text\":\"100%\",\"color\":\"gray\"},{\"text\":\"\"}]','[{\"text\":\"20% Resistance\",\"italic\":false,\"color\":\"gray\"}]','[{\"text\":\"Knockback Immunity\",\"italic\":false,\"color\":\"gray\"}]']}}}","action":"show_item"}}]
execute unless score @s reputation matches 25.. if score @s freeItemPeek matches 1.. run tellraw @s [{"color":"gray","text":"","extra":[{"text":"\u1455\u1368\u25ba ","bold":true},{"text":"pitaloSmErnlm iuo ","bold":false,"obfuscated":true},{"text":" \u26a0 ","color":"dark_red","bold":false},{"text":"25","color":"green"},{"text":"\u2698 ","bold":true,"color":"dark_green"},{"text":"\u25c4\u1368\u1450","bold":true,"color":"gray"}],"hoverEvent":{"value":"{id:enchanted_book,Count:1b,tag:{display:{Lore:['[{\"text\":\"\u26a0 \",\"color\":\"dark_red\",\"italic\":false},{\"text\":\"Requires \",\"color\":\"white\",\"italic\":false},{\"text\":\"25 \",\"color\":\"green\",\"italic\":false},{\"italic\":false,\"text\":\"\u2698\",\"color\":\"dark_green\",\"bold\":true},{\"italic\":false,\"text\":\"Reputation\",\"color\":\"dark_green\"}]'],Name:'{\"text\":\"Unknown\",\"color\":\"gray\",\"bold\":\"false\",\"italic\":false}'}}}","action":"show_item"}}]
execute unless score @s reputation matches 25.. unless score @s freeItemPeek matches 1.. run scoreboard players set @s freeItemPeek 1
scoreboard players set @s freeItemCooldown 3000
function utils:free_items/set_cooldown
tellraw @s[scores={reputation=30..}] [{"text":"","clickEvent":{"action":"run_command","value":"/trigger trgFreeItem set 301853"},"extra":[{"text":"\u1455\u1368\u25ba ","bold":true,"color":"gold"},{"text":"Speed II","underlined":true,"color":"yellow"},{"text":" \u27f2 ","bold":true,"color":"gold"},{"score":{"name":"@s","objective":"freeItemSecs"},"color":"aqua","bold":false},{"text":"s","bold":true,"color":"dark_aqua"},{"text":" \u25c4\u1368\u1450","bold":true,"color":"gold"}],"hoverEvent":{"value":"{id:potion,Count:1b,tag:{CustomPotionColor:56831,display:{Lore:['{\"text\":\"Click to get this bonus\",\"color\":\"white\",\"italic\":true}','[{\"text\":\"Base cooldown: \",\"italic\":false,\"color\":\"gray\"},{\"text\":\"150\",\"color\":\"aqua\",\"italic\":false},{\"text\":\" seconds\",\"color\":\"dark_aqua\",\"italic\":false}]'],Name:'[{\"text\":\"Speed II\",\"italic\":false,\"color\":\"yellow\"}]'},CustomPotionEffects:[{Id:1,Duration:6000,Amplifier:1}]}}","action":"show_item"}}]
execute unless score @s reputation matches 30.. unless score @s freeItemPeek matches 1.. run tellraw @s [{"color":"gray","text":"","extra":[{"text":"\u1455\u1368\u25ba ","bold":true},{"text":"Speed II ","bold":false,"obfuscated":false},{"text":" \u26a0 ","color":"dark_red","bold":false},{"text":"30","color":"green"},{"text":"\u2698 ","bold":true,"color":"dark_green"},{"text":"\u25c4\u1368\u1450","bold":true,"color":"gray"}],"hoverEvent":{"value":"{id:potion,Count:1b,tag:{CustomPotionColor:56831,display:{Lore:['[{\"text\":\"\u26a0 \",\"color\":\"dark_red\",\"italic\":false},{\"text\":\"Requires \",\"color\":\"white\",\"italic\":false},{\"text\":\"30 \",\"color\":\"green\",\"italic\":false},{\"italic\":false,\"text\":\"\u2698\",\"color\":\"dark_green\",\"bold\":true},{\"italic\":false,\"text\":\"Reputation\",\"color\":\"dark_green\"}]'],Name:'[{\"text\":\"Speed II\",\"italic\":false,\"color\":\"gray\"}]'},CustomPotionEffects:[{Id:1,Duration:6000,Amplifier:1}]}}","action":"show_item"}}]
execute unless score @s reputation matches 30.. if score @s freeItemPeek matches 1.. run tellraw @s [{"color":"gray","text":"","extra":[{"text":"\u1455\u1368\u25ba ","bold":true},{"text":"dIpSeeI ","bold":false,"obfuscated":true},{"text":" \u26a0 ","color":"dark_red","bold":false},{"text":"30","color":"green"},{"text":"\u2698 ","bold":true,"color":"dark_green"},{"text":"\u25c4\u1368\u1450","bold":true,"color":"gray"}],"hoverEvent":{"value":"{id:enchanted_book,Count:1b,tag:{display:{Lore:['[{\"text\":\"\u26a0 \",\"color\":\"dark_red\",\"italic\":false},{\"text\":\"Requires \",\"color\":\"white\",\"italic\":false},{\"text\":\"30 \",\"color\":\"green\",\"italic\":false},{\"italic\":false,\"text\":\"\u2698\",\"color\":\"dark_green\",\"bold\":true},{\"italic\":false,\"text\":\"Reputation\",\"color\":\"dark_green\"}]'],Name:'{\"text\":\"Unknown\",\"color\":\"gray\",\"bold\":\"false\",\"italic\":false}'}}}","action":"show_item"}}]
execute unless score @s reputation matches 30.. unless score @s freeItemPeek matches 1.. run scoreboard players set @s freeItemPeek 1
scoreboard players set @s freeItemCooldown 3600
function utils:free_items/set_cooldown
tellraw @s[scores={reputation=35..}] [{"text":"","clickEvent":{"action":"run_command","value":"/trigger trgFreeItem set 318788"},"extra":[{"text":"\u1455\u1368\u25ba ","bold":true,"color":"gold"},{"text":"Undead Strider","underlined":true,"color":"yellow"},{"text":" \u27f2 ","bold":true,"color":"gold"},{"score":{"name":"@s","objective":"freeItemSecs"},"color":"aqua","bold":false},{"text":"s","bold":true,"color":"dark_aqua"},{"text":" \u25c4\u1368\u1450","bold":true,"color":"gold"}],"hoverEvent":{"value":"{id:skeleton_horse_spawn_egg,Count:1b,tag:{display:{Name:'[{\"text\":\"Undead Strider Spawn Egg\",\"italic\":false,\"color\":\"gold\",\"bold\":true}]',Lore:['{\"text\":\"Click to get this bonus\",\"color\":\"white\",\"italic\":true}','[{\"text\":\"Base cooldown: \",\"italic\":false,\"color\":\"gray\"},{\"text\":\"180\",\"color\":\"aqua\",\"italic\":false},{\"text\":\" seconds\",\"color\":\"dark_aqua\",\"italic\":false}]','{\"text\":\"---\",\"color\":\"dark_gray\"}','[{\"text\":\"A Legendary Mount\",\"italic\":false,\"color\":\"yellow\"},{\"text\":\"\",\"italic\":false,\"color\":\"dark_purple\"}]','[{\"text\":\"\",\"italic\":false,\"color\":\"dark_purple\"}]','[{\"text\":\"Health: \",\"italic\":false,\"color\":\"white\"},{\"text\":\"60\",\"color\":\"aqua\"},{\"text\":\"\",\"color\":\"dark_purple\"}]','[{\"text\":\"Armor: \",\"italic\":false,\"color\":\"white\"},{\"text\":\"15\",\"color\":\"aqua\"},{\"text\":\"\",\"color\":\"dark_purple\"}]','[{\"text\":\"Speed: \",\"italic\":false,\"color\":\"white\"},{\"text\":\"120%\",\"color\":\"aqua\"},{\"text\":\"\",\"color\":\"dark_purple\"}]','[{\"text\":\"Jump Height: \",\"italic\":false,\"color\":\"white\"},{\"text\":\"150%\",\"color\":\"aqua\"},{\"text\":\"\",\"color\":\"dark_purple\"}]','[{\"text\":\"Fire Resistance\",\"italic\":false,\"color\":\"light_purple\"}]','[{\"text\":\"Regeneration\",\"italic\":false,\"color\":\"light_purple\"}]']}}}","action":"show_item"}}]
execute unless score @s reputation matches 35.. unless score @s freeItemPeek matches 1.. run tellraw @s [{"color":"gray","text":"","extra":[{"text":"\u1455\u1368\u25ba ","bold":true},{"text":"Undead Strider ","bold":false,"obfuscated":false},{"text":" \u26a0 ","color":"dark_red","bold":false},{"text":"35","color":"green"},{"text":"\u2698 ","bold":true,"color":"dark_green"},{"text":"\u25c4\u1368\u1450","bold":true,"color":"gray"}],"hoverEvent":{"value":"{id:skeleton_horse_spawn_egg,Count:1b,tag:{display:{Name:'[{\"text\":\"Undead Strider Spawn Egg\",\"italic\":false,\"color\":\"gray\",\"bold\":true}]',Lore:['[{\"text\":\"\u26a0 \",\"color\":\"dark_red\",\"italic\":false},{\"text\":\"Requires \",\"color\":\"white\",\"italic\":false},{\"text\":\"35 \",\"color\":\"green\",\"italic\":false},{\"italic\":false,\"text\":\"\u2698\",\"color\":\"dark_green\",\"bold\":true},{\"italic\":false,\"text\":\"Reputation\",\"color\":\"dark_green\"}]','{\"text\":\"---\",\"color\":\"dark_gray\"}','[{\"text\":\"A Legendary Mount\",\"italic\":false,\"color\":\"gray\"},{\"text\":\"\",\"italic\":false,\"color\":\"gray\"}]','[{\"text\":\"\",\"italic\":false,\"color\":\"gray\"}]','[{\"text\":\"Health: \",\"italic\":false,\"color\":\"gray\"},{\"text\":\"60\",\"color\":\"gray\"},{\"text\":\"\",\"color\":\"gray\"}]','[{\"text\":\"Armor: \",\"italic\":false,\"color\":\"gray\"},{\"text\":\"15\",\"color\":\"gray\"},{\"text\":\"\",\"color\":\"gray\"}]','[{\"text\":\"Speed: \",\"italic\":false,\"color\":\"gray\"},{\"text\":\"120%\",\"color\":\"gray\"},{\"text\":\"\",\"color\":\"gray\"}]','[{\"text\":\"Jump Height: \",\"italic\":false,\"color\":\"gray\"},{\"text\":\"150%\",\"color\":\"gray\"},{\"text\":\"\",\"color\":\"gray\"}]','[{\"text\":\"Fire Resistance\",\"italic\":false,\"color\":\"gray\"}]','[{\"text\":\"Regeneration\",\"italic\":false,\"color\":\"gray\"}]']}}}","action":"show_item"}}]
execute unless score @s reputation matches 35.. if score @s freeItemPeek matches 1.. run tellraw @s [{"color":"gray","text":"","extra":[{"text":"\u1455\u1368\u25ba ","bold":true},{"text":"addenerid StUr ","bold":false,"obfuscated":true},{"text":" \u26a0 ","color":"dark_red","bold":false},{"text":"35","color":"green"},{"text":"\u2698 ","bold":true,"color":"dark_green"},{"text":"\u25c4\u1368\u1450","bold":true,"color":"gray"}],"hoverEvent":{"value":"{id:enchanted_book,Count:1b,tag:{display:{Lore:['[{\"text\":\"\u26a0 \",\"color\":\"dark_red\",\"italic\":false},{\"text\":\"Requires \",\"color\":\"white\",\"italic\":false},{\"text\":\"35 \",\"color\":\"green\",\"italic\":false},{\"italic\":false,\"text\":\"\u2698\",\"color\":\"dark_green\",\"bold\":true},{\"italic\":false,\"text\":\"Reputation\",\"color\":\"dark_green\"}]'],Name:'{\"text\":\"Unknown\",\"color\":\"gray\",\"bold\":\"false\",\"italic\":false}'}}}","action":"show_item"}}]
execute unless score @s reputation matches 35.. unless score @s freeItemPeek matches 1.. run scoreboard players set @s freeItemPeek 1
tellraw @s [{"text":"\u2588\u2588\u2588\u2588\u2588\u2588\u2593\u2593\u2593\u2593\u2592\u2592\u2592\u2592\u2591\u2591\u2591\u2591\u2592\u2592\u2592\u2592\u2593\u2593\u2593\u2593\u2588\u2588\u2588\u2588\u2588\u2588","color":"dark_aqua"}]