function structures_crabmaster:randomizers/randomizer_1
execute unless block ~ ~-1 ~ #structures_crabmaster:water_lava unless block ~ ~-1 ~ minecraft:air if score Random RandomOne5556 matches 0..199 run fill ~ ~-3 ~ ~ ~-3 ~ minecraft:structure_block{mode:"LOAD",name:"cm_module_megamix:bush_1",integrity:1.00,posX:-1,posY:-3,posZ:-1,rotation:"NONE"} replace
execute unless block ~ ~-1 ~ #structures_crabmaster:water_lava unless block ~ ~-1 ~ minecraft:air if score Random RandomOne5556 matches 200..399 run fill ~ ~-3 ~ ~ ~-3 ~ minecraft:structure_block{mode:"LOAD",name:"cm_module_megamix:bush_2",integrity:1.00,posX:-1,posY:-3,posZ:-1,rotation:"NONE"} replace
execute unless block ~ ~-1 ~ #structures_crabmaster:water_lava unless block ~ ~-1 ~ minecraft:air if score Random RandomOne5556 matches 400..599 run fill ~ ~-3 ~ ~ ~-3 ~ minecraft:structure_block{mode:"LOAD",name:"cm_module_megamix:bush_3",integrity:1.00,posX:-1,posY:-3,posZ:-1,rotation:"NONE"} replace
execute unless block ~ ~-1 ~ #structures_crabmaster:water_lava unless block ~ ~-1 ~ minecraft:air if score Random RandomOne5556 matches 600..799 run fill ~ ~-3 ~ ~ ~-3 ~ minecraft:structure_block{mode:"LOAD",name:"cm_module_megamix:bush_4",integrity:1.00,posX:-1,posY:-3,posZ:-1,rotation:"NONE"} replace
execute unless block ~ ~-1 ~ #structures_crabmaster:water_lava unless block ~ ~-1 ~ minecraft:air if score Random RandomOne5556 matches 800..999 run fill ~ ~-3 ~ ~ ~-3 ~ minecraft:structure_block{mode:"LOAD",name:"cm_module_megamix:bush_5",integrity:1.00,posX:-1,posY:-3,posZ:-1,rotation:"NONE"} replace

execute unless block ~ ~-1 ~ #structures_crabmaster:water_lava unless block ~ ~-1 ~ minecraft:air run fill ~ ~-2 ~ ~ ~-2 ~ minecraft:redstone_block replace
execute unless block ~ ~-1 ~ #structures_crabmaster:water_lava unless block ~ ~-1 ~ minecraft:air run fill ~ ~-3 ~ ~ ~-2 ~ minecraft:dirt replace