clone ~0 54 ~0 ~0 30 ~0 ~0 5 ~0 replace
fill ~0 54 ~0 ~0 30 ~0 water
clone ~0 54 ~1 ~0 30 ~1 ~0 5 ~1 replace
fill ~0 54 ~1 ~0 30 ~1 water
clone ~0 54 ~2 ~0 30 ~2 ~0 5 ~2 replace
fill ~0 54 ~2 ~0 30 ~2 water
clone ~0 54 ~3 ~0 30 ~3 ~0 5 ~3 replace
fill ~0 54 ~3 ~0 30 ~3 water
clone ~0 54 ~4 ~0 30 ~4 ~0 5 ~4 replace
fill ~0 54 ~4 ~0 30 ~4 water
clone ~0 54 ~5 ~0 30 ~5 ~0 5 ~5 replace
fill ~0 54 ~5 ~0 30 ~5 water
clone ~0 54 ~6 ~0 30 ~6 ~0 5 ~6 replace
fill ~0 54 ~6 ~0 30 ~6 water
clone ~0 54 ~7 ~0 30 ~7 ~0 5 ~7 replace
fill ~0 54 ~7 ~0 30 ~7 water
clone ~0 54 ~8 ~0 30 ~8 ~0 5 ~8 replace
fill ~0 54 ~8 ~0 30 ~8 water
clone ~0 54 ~9 ~0 30 ~9 ~0 5 ~9 replace
fill ~0 54 ~9 ~0 30 ~9 water
clone ~0 54 ~10 ~0 30 ~10 ~0 5 ~10 replace
fill ~0 54 ~10 ~0 30 ~10 water
clone ~0 54 ~11 ~0 30 ~11 ~0 5 ~11 replace
fill ~0 54 ~11 ~0 30 ~11 water
clone ~0 54 ~12 ~0 30 ~12 ~0 5 ~12 replace
fill ~0 54 ~12 ~0 30 ~12 water
clone ~0 54 ~13 ~0 30 ~13 ~0 5 ~13 replace
fill ~0 54 ~13 ~0 30 ~13 water
clone ~0 54 ~14 ~0 30 ~14 ~0 5 ~14 replace
fill ~0 54 ~14 ~0 30 ~14 water
clone ~0 54 ~15 ~0 30 ~15 ~0 5 ~15 replace
fill ~0 54 ~15 ~0 30 ~15 water
clone ~1 54 ~0 ~1 30 ~0 ~1 5 ~0 replace
fill ~1 54 ~0 ~1 30 ~0 water
clone ~1 54 ~1 ~1 30 ~1 ~1 5 ~1 replace
fill ~1 54 ~1 ~1 30 ~1 water
clone ~1 54 ~2 ~1 30 ~2 ~1 5 ~2 replace
fill ~1 54 ~2 ~1 30 ~2 water
clone ~1 54 ~3 ~1 30 ~3 ~1 5 ~3 replace
fill ~1 54 ~3 ~1 30 ~3 water
clone ~1 54 ~4 ~1 30 ~4 ~1 5 ~4 replace
fill ~1 54 ~4 ~1 30 ~4 water
clone ~1 54 ~5 ~1 30 ~5 ~1 5 ~5 replace
fill ~1 54 ~5 ~1 30 ~5 water
clone ~1 54 ~6 ~1 30 ~6 ~1 5 ~6 replace
fill ~1 54 ~6 ~1 30 ~6 water
clone ~1 54 ~7 ~1 30 ~7 ~1 5 ~7 replace
fill ~1 54 ~7 ~1 30 ~7 water
clone ~1 54 ~8 ~1 30 ~8 ~1 5 ~8 replace
fill ~1 54 ~8 ~1 30 ~8 water
clone ~1 54 ~9 ~1 30 ~9 ~1 5 ~9 replace
fill ~1 54 ~9 ~1 30 ~9 water
clone ~1 54 ~10 ~1 30 ~10 ~1 5 ~10 replace
fill ~1 54 ~10 ~1 30 ~10 water
clone ~1 54 ~11 ~1 30 ~11 ~1 5 ~11 replace
fill ~1 54 ~11 ~1 30 ~11 water
clone ~1 54 ~12 ~1 30 ~12 ~1 5 ~12 replace
fill ~1 54 ~12 ~1 30 ~12 water
clone ~1 54 ~13 ~1 30 ~13 ~1 5 ~13 replace
fill ~1 54 ~13 ~1 30 ~13 water
clone ~1 54 ~14 ~1 30 ~14 ~1 5 ~14 replace
fill ~1 54 ~14 ~1 30 ~14 water
clone ~1 54 ~15 ~1 30 ~15 ~1 5 ~15 replace
fill ~1 54 ~15 ~1 30 ~15 water
clone ~2 54 ~0 ~2 30 ~0 ~2 5 ~0 replace
fill ~2 54 ~0 ~2 30 ~0 water
clone ~2 54 ~1 ~2 30 ~1 ~2 5 ~1 replace
fill ~2 54 ~1 ~2 30 ~1 water
clone ~2 54 ~2 ~2 30 ~2 ~2 5 ~2 replace
fill ~2 54 ~2 ~2 30 ~2 water
clone ~2 54 ~3 ~2 30 ~3 ~2 5 ~3 replace
fill ~2 54 ~3 ~2 30 ~3 water
clone ~2 54 ~4 ~2 30 ~4 ~2 5 ~4 replace
fill ~2 54 ~4 ~2 30 ~4 water
clone ~2 54 ~5 ~2 30 ~5 ~2 5 ~5 replace
fill ~2 54 ~5 ~2 30 ~5 water
clone ~2 54 ~6 ~2 30 ~6 ~2 5 ~6 replace
fill ~2 54 ~6 ~2 30 ~6 water
clone ~2 54 ~7 ~2 30 ~7 ~2 5 ~7 replace
fill ~2 54 ~7 ~2 30 ~7 water
clone ~2 54 ~8 ~2 30 ~8 ~2 5 ~8 replace
fill ~2 54 ~8 ~2 30 ~8 water
clone ~2 54 ~9 ~2 30 ~9 ~2 5 ~9 replace
fill ~2 54 ~9 ~2 30 ~9 water
clone ~2 54 ~10 ~2 30 ~10 ~2 5 ~10 replace
fill ~2 54 ~10 ~2 30 ~10 water
clone ~2 54 ~11 ~2 30 ~11 ~2 5 ~11 replace
fill ~2 54 ~11 ~2 30 ~11 water
clone ~2 54 ~12 ~2 30 ~12 ~2 5 ~12 replace
fill ~2 54 ~12 ~2 30 ~12 water
clone ~2 54 ~13 ~2 30 ~13 ~2 5 ~13 replace
fill ~2 54 ~13 ~2 30 ~13 water
clone ~2 54 ~14 ~2 30 ~14 ~2 5 ~14 replace
fill ~2 54 ~14 ~2 30 ~14 water
clone ~2 54 ~15 ~2 30 ~15 ~2 5 ~15 replace
fill ~2 54 ~15 ~2 30 ~15 water
clone ~3 54 ~0 ~3 30 ~0 ~3 5 ~0 replace
fill ~3 54 ~0 ~3 30 ~0 water
clone ~3 54 ~1 ~3 30 ~1 ~3 5 ~1 replace
fill ~3 54 ~1 ~3 30 ~1 water
clone ~3 54 ~2 ~3 30 ~2 ~3 5 ~2 replace
fill ~3 54 ~2 ~3 30 ~2 water
clone ~3 54 ~3 ~3 30 ~3 ~3 5 ~3 replace
fill ~3 54 ~3 ~3 30 ~3 water
clone ~3 54 ~4 ~3 30 ~4 ~3 5 ~4 replace
fill ~3 54 ~4 ~3 30 ~4 water
clone ~3 54 ~5 ~3 30 ~5 ~3 5 ~5 replace
fill ~3 54 ~5 ~3 30 ~5 water
clone ~3 54 ~6 ~3 30 ~6 ~3 5 ~6 replace
fill ~3 54 ~6 ~3 30 ~6 water
clone ~3 54 ~7 ~3 30 ~7 ~3 5 ~7 replace
fill ~3 54 ~7 ~3 30 ~7 water
clone ~3 54 ~8 ~3 30 ~8 ~3 5 ~8 replace
fill ~3 54 ~8 ~3 30 ~8 water
clone ~3 54 ~9 ~3 30 ~9 ~3 5 ~9 replace
fill ~3 54 ~9 ~3 30 ~9 water
clone ~3 54 ~10 ~3 30 ~10 ~3 5 ~10 replace
fill ~3 54 ~10 ~3 30 ~10 water
clone ~3 54 ~11 ~3 30 ~11 ~3 5 ~11 replace
fill ~3 54 ~11 ~3 30 ~11 water
clone ~3 54 ~12 ~3 30 ~12 ~3 5 ~12 replace
fill ~3 54 ~12 ~3 30 ~12 water
clone ~3 54 ~13 ~3 30 ~13 ~3 5 ~13 replace
fill ~3 54 ~13 ~3 30 ~13 water
clone ~3 54 ~14 ~3 30 ~14 ~3 5 ~14 replace
fill ~3 54 ~14 ~3 30 ~14 water
clone ~3 54 ~15 ~3 30 ~15 ~3 5 ~15 replace
fill ~3 54 ~15 ~3 30 ~15 water
clone ~4 54 ~0 ~4 30 ~0 ~4 5 ~0 replace
fill ~4 54 ~0 ~4 30 ~0 water
clone ~4 54 ~1 ~4 30 ~1 ~4 5 ~1 replace
fill ~4 54 ~1 ~4 30 ~1 water
clone ~4 54 ~2 ~4 30 ~2 ~4 5 ~2 replace
fill ~4 54 ~2 ~4 30 ~2 water
clone ~4 54 ~3 ~4 30 ~3 ~4 5 ~3 replace
fill ~4 54 ~3 ~4 30 ~3 water
clone ~4 54 ~4 ~4 30 ~4 ~4 5 ~4 replace
fill ~4 54 ~4 ~4 30 ~4 water
clone ~4 54 ~5 ~4 30 ~5 ~4 5 ~5 replace
fill ~4 54 ~5 ~4 30 ~5 water
clone ~4 54 ~6 ~4 30 ~6 ~4 5 ~6 replace
fill ~4 54 ~6 ~4 30 ~6 water
clone ~4 54 ~7 ~4 30 ~7 ~4 5 ~7 replace
fill ~4 54 ~7 ~4 30 ~7 water
clone ~4 54 ~8 ~4 30 ~8 ~4 5 ~8 replace
fill ~4 54 ~8 ~4 30 ~8 water
clone ~4 54 ~9 ~4 30 ~9 ~4 5 ~9 replace
fill ~4 54 ~9 ~4 30 ~9 water
clone ~4 54 ~10 ~4 30 ~10 ~4 5 ~10 replace
fill ~4 54 ~10 ~4 30 ~10 water
clone ~4 54 ~11 ~4 30 ~11 ~4 5 ~11 replace
fill ~4 54 ~11 ~4 30 ~11 water
clone ~4 54 ~12 ~4 30 ~12 ~4 5 ~12 replace
fill ~4 54 ~12 ~4 30 ~12 water
clone ~4 54 ~13 ~4 30 ~13 ~4 5 ~13 replace
fill ~4 54 ~13 ~4 30 ~13 water
clone ~4 54 ~14 ~4 30 ~14 ~4 5 ~14 replace
fill ~4 54 ~14 ~4 30 ~14 water
clone ~4 54 ~15 ~4 30 ~15 ~4 5 ~15 replace
fill ~4 54 ~15 ~4 30 ~15 water
clone ~5 54 ~0 ~5 30 ~0 ~5 5 ~0 replace
fill ~5 54 ~0 ~5 30 ~0 water
clone ~5 54 ~1 ~5 30 ~1 ~5 5 ~1 replace
fill ~5 54 ~1 ~5 30 ~1 water
clone ~5 54 ~2 ~5 30 ~2 ~5 5 ~2 replace
fill ~5 54 ~2 ~5 30 ~2 water
clone ~5 54 ~3 ~5 30 ~3 ~5 5 ~3 replace
fill ~5 54 ~3 ~5 30 ~3 water
clone ~5 54 ~4 ~5 30 ~4 ~5 5 ~4 replace
fill ~5 54 ~4 ~5 30 ~4 water
clone ~5 54 ~5 ~5 30 ~5 ~5 5 ~5 replace
fill ~5 54 ~5 ~5 30 ~5 water
clone ~5 54 ~6 ~5 30 ~6 ~5 5 ~6 replace
fill ~5 54 ~6 ~5 30 ~6 water
clone ~5 54 ~7 ~5 30 ~7 ~5 5 ~7 replace
fill ~5 54 ~7 ~5 30 ~7 water
clone ~5 54 ~8 ~5 30 ~8 ~5 5 ~8 replace
fill ~5 54 ~8 ~5 30 ~8 water
clone ~5 54 ~9 ~5 30 ~9 ~5 5 ~9 replace
fill ~5 54 ~9 ~5 30 ~9 water
clone ~5 54 ~10 ~5 30 ~10 ~5 5 ~10 replace
fill ~5 54 ~10 ~5 30 ~10 water
clone ~5 54 ~11 ~5 30 ~11 ~5 5 ~11 replace
fill ~5 54 ~11 ~5 30 ~11 water
clone ~5 54 ~12 ~5 30 ~12 ~5 5 ~12 replace
fill ~5 54 ~12 ~5 30 ~12 water
clone ~5 54 ~13 ~5 30 ~13 ~5 5 ~13 replace
fill ~5 54 ~13 ~5 30 ~13 water
clone ~5 54 ~14 ~5 30 ~14 ~5 5 ~14 replace
fill ~5 54 ~14 ~5 30 ~14 water
clone ~5 54 ~15 ~5 30 ~15 ~5 5 ~15 replace
fill ~5 54 ~15 ~5 30 ~15 water
clone ~6 54 ~0 ~6 30 ~0 ~6 5 ~0 replace
fill ~6 54 ~0 ~6 30 ~0 water
clone ~6 54 ~1 ~6 30 ~1 ~6 5 ~1 replace
fill ~6 54 ~1 ~6 30 ~1 water
clone ~6 54 ~2 ~6 30 ~2 ~6 5 ~2 replace
fill ~6 54 ~2 ~6 30 ~2 water
clone ~6 54 ~3 ~6 30 ~3 ~6 5 ~3 replace
fill ~6 54 ~3 ~6 30 ~3 water
clone ~6 54 ~4 ~6 30 ~4 ~6 5 ~4 replace
fill ~6 54 ~4 ~6 30 ~4 water
clone ~6 54 ~5 ~6 30 ~5 ~6 5 ~5 replace
fill ~6 54 ~5 ~6 30 ~5 water
clone ~6 54 ~6 ~6 30 ~6 ~6 5 ~6 replace
fill ~6 54 ~6 ~6 30 ~6 water
clone ~6 54 ~7 ~6 30 ~7 ~6 5 ~7 replace
fill ~6 54 ~7 ~6 30 ~7 water
clone ~6 54 ~8 ~6 30 ~8 ~6 5 ~8 replace
fill ~6 54 ~8 ~6 30 ~8 water
clone ~6 54 ~9 ~6 30 ~9 ~6 5 ~9 replace
fill ~6 54 ~9 ~6 30 ~9 water
clone ~6 54 ~10 ~6 30 ~10 ~6 5 ~10 replace
fill ~6 54 ~10 ~6 30 ~10 water
clone ~6 54 ~11 ~6 30 ~11 ~6 5 ~11 replace
fill ~6 54 ~11 ~6 30 ~11 water
clone ~6 54 ~12 ~6 30 ~12 ~6 5 ~12 replace
fill ~6 54 ~12 ~6 30 ~12 water
clone ~6 54 ~13 ~6 30 ~13 ~6 5 ~13 replace
fill ~6 54 ~13 ~6 30 ~13 water
clone ~6 54 ~14 ~6 30 ~14 ~6 5 ~14 replace
fill ~6 54 ~14 ~6 30 ~14 water
clone ~6 54 ~15 ~6 30 ~15 ~6 5 ~15 replace
fill ~6 54 ~15 ~6 30 ~15 water
clone ~7 54 ~0 ~7 30 ~0 ~7 5 ~0 replace
fill ~7 54 ~0 ~7 30 ~0 water
clone ~7 54 ~1 ~7 30 ~1 ~7 5 ~1 replace
fill ~7 54 ~1 ~7 30 ~1 water
clone ~7 54 ~2 ~7 30 ~2 ~7 5 ~2 replace
fill ~7 54 ~2 ~7 30 ~2 water
clone ~7 54 ~3 ~7 30 ~3 ~7 5 ~3 replace
fill ~7 54 ~3 ~7 30 ~3 water
clone ~7 54 ~4 ~7 30 ~4 ~7 5 ~4 replace
fill ~7 54 ~4 ~7 30 ~4 water
clone ~7 54 ~5 ~7 30 ~5 ~7 5 ~5 replace
fill ~7 54 ~5 ~7 30 ~5 water
clone ~7 54 ~6 ~7 30 ~6 ~7 5 ~6 replace
fill ~7 54 ~6 ~7 30 ~6 water
clone ~7 54 ~7 ~7 30 ~7 ~7 5 ~7 replace
fill ~7 54 ~7 ~7 30 ~7 water
clone ~7 54 ~8 ~7 30 ~8 ~7 5 ~8 replace
fill ~7 54 ~8 ~7 30 ~8 water
clone ~7 54 ~9 ~7 30 ~9 ~7 5 ~9 replace
fill ~7 54 ~9 ~7 30 ~9 water
clone ~7 54 ~10 ~7 30 ~10 ~7 5 ~10 replace
fill ~7 54 ~10 ~7 30 ~10 water
clone ~7 54 ~11 ~7 30 ~11 ~7 5 ~11 replace
fill ~7 54 ~11 ~7 30 ~11 water
clone ~7 54 ~12 ~7 30 ~12 ~7 5 ~12 replace
fill ~7 54 ~12 ~7 30 ~12 water
clone ~7 54 ~13 ~7 30 ~13 ~7 5 ~13 replace
fill ~7 54 ~13 ~7 30 ~13 water
clone ~7 54 ~14 ~7 30 ~14 ~7 5 ~14 replace
fill ~7 54 ~14 ~7 30 ~14 water
clone ~7 54 ~15 ~7 30 ~15 ~7 5 ~15 replace
fill ~7 54 ~15 ~7 30 ~15 water
clone ~8 54 ~0 ~8 30 ~0 ~8 5 ~0 replace
fill ~8 54 ~0 ~8 30 ~0 water
clone ~8 54 ~1 ~8 30 ~1 ~8 5 ~1 replace
fill ~8 54 ~1 ~8 30 ~1 water
clone ~8 54 ~2 ~8 30 ~2 ~8 5 ~2 replace
fill ~8 54 ~2 ~8 30 ~2 water
clone ~8 54 ~3 ~8 30 ~3 ~8 5 ~3 replace
fill ~8 54 ~3 ~8 30 ~3 water
clone ~8 54 ~4 ~8 30 ~4 ~8 5 ~4 replace
fill ~8 54 ~4 ~8 30 ~4 water
clone ~8 54 ~5 ~8 30 ~5 ~8 5 ~5 replace
fill ~8 54 ~5 ~8 30 ~5 water
clone ~8 54 ~6 ~8 30 ~6 ~8 5 ~6 replace
fill ~8 54 ~6 ~8 30 ~6 water
clone ~8 54 ~7 ~8 30 ~7 ~8 5 ~7 replace
fill ~8 54 ~7 ~8 30 ~7 water
clone ~8 54 ~8 ~8 30 ~8 ~8 5 ~8 replace
fill ~8 54 ~8 ~8 30 ~8 water
clone ~8 54 ~9 ~8 30 ~9 ~8 5 ~9 replace
fill ~8 54 ~9 ~8 30 ~9 water
clone ~8 54 ~10 ~8 30 ~10 ~8 5 ~10 replace
fill ~8 54 ~10 ~8 30 ~10 water
clone ~8 54 ~11 ~8 30 ~11 ~8 5 ~11 replace
fill ~8 54 ~11 ~8 30 ~11 water
clone ~8 54 ~12 ~8 30 ~12 ~8 5 ~12 replace
fill ~8 54 ~12 ~8 30 ~12 water
clone ~8 54 ~13 ~8 30 ~13 ~8 5 ~13 replace
fill ~8 54 ~13 ~8 30 ~13 water
clone ~8 54 ~14 ~8 30 ~14 ~8 5 ~14 replace
fill ~8 54 ~14 ~8 30 ~14 water
clone ~8 54 ~15 ~8 30 ~15 ~8 5 ~15 replace
fill ~8 54 ~15 ~8 30 ~15 water
clone ~9 54 ~0 ~9 30 ~0 ~9 5 ~0 replace
fill ~9 54 ~0 ~9 30 ~0 water
clone ~9 54 ~1 ~9 30 ~1 ~9 5 ~1 replace
fill ~9 54 ~1 ~9 30 ~1 water
clone ~9 54 ~2 ~9 30 ~2 ~9 5 ~2 replace
fill ~9 54 ~2 ~9 30 ~2 water
clone ~9 54 ~3 ~9 30 ~3 ~9 5 ~3 replace
fill ~9 54 ~3 ~9 30 ~3 water
clone ~9 54 ~4 ~9 30 ~4 ~9 5 ~4 replace
fill ~9 54 ~4 ~9 30 ~4 water
clone ~9 54 ~5 ~9 30 ~5 ~9 5 ~5 replace
fill ~9 54 ~5 ~9 30 ~5 water
clone ~9 54 ~6 ~9 30 ~6 ~9 5 ~6 replace
fill ~9 54 ~6 ~9 30 ~6 water
clone ~9 54 ~7 ~9 30 ~7 ~9 5 ~7 replace
fill ~9 54 ~7 ~9 30 ~7 water
clone ~9 54 ~8 ~9 30 ~8 ~9 5 ~8 replace
fill ~9 54 ~8 ~9 30 ~8 water
clone ~9 54 ~9 ~9 30 ~9 ~9 5 ~9 replace
fill ~9 54 ~9 ~9 30 ~9 water
clone ~9 54 ~10 ~9 30 ~10 ~9 5 ~10 replace
fill ~9 54 ~10 ~9 30 ~10 water
clone ~9 54 ~11 ~9 30 ~11 ~9 5 ~11 replace
fill ~9 54 ~11 ~9 30 ~11 water
clone ~9 54 ~12 ~9 30 ~12 ~9 5 ~12 replace
fill ~9 54 ~12 ~9 30 ~12 water
clone ~9 54 ~13 ~9 30 ~13 ~9 5 ~13 replace
fill ~9 54 ~13 ~9 30 ~13 water
clone ~9 54 ~14 ~9 30 ~14 ~9 5 ~14 replace
fill ~9 54 ~14 ~9 30 ~14 water
clone ~9 54 ~15 ~9 30 ~15 ~9 5 ~15 replace
fill ~9 54 ~15 ~9 30 ~15 water
clone ~10 54 ~0 ~10 30 ~0 ~10 5 ~0 replace
fill ~10 54 ~0 ~10 30 ~0 water
clone ~10 54 ~1 ~10 30 ~1 ~10 5 ~1 replace
fill ~10 54 ~1 ~10 30 ~1 water
clone ~10 54 ~2 ~10 30 ~2 ~10 5 ~2 replace
fill ~10 54 ~2 ~10 30 ~2 water
clone ~10 54 ~3 ~10 30 ~3 ~10 5 ~3 replace
fill ~10 54 ~3 ~10 30 ~3 water
clone ~10 54 ~4 ~10 30 ~4 ~10 5 ~4 replace
fill ~10 54 ~4 ~10 30 ~4 water
clone ~10 54 ~5 ~10 30 ~5 ~10 5 ~5 replace
fill ~10 54 ~5 ~10 30 ~5 water
clone ~10 54 ~6 ~10 30 ~6 ~10 5 ~6 replace
fill ~10 54 ~6 ~10 30 ~6 water
clone ~10 54 ~7 ~10 30 ~7 ~10 5 ~7 replace
fill ~10 54 ~7 ~10 30 ~7 water
clone ~10 54 ~8 ~10 30 ~8 ~10 5 ~8 replace
fill ~10 54 ~8 ~10 30 ~8 water
clone ~10 54 ~9 ~10 30 ~9 ~10 5 ~9 replace
fill ~10 54 ~9 ~10 30 ~9 water
clone ~10 54 ~10 ~10 30 ~10 ~10 5 ~10 replace
fill ~10 54 ~10 ~10 30 ~10 water
clone ~10 54 ~11 ~10 30 ~11 ~10 5 ~11 replace
fill ~10 54 ~11 ~10 30 ~11 water
clone ~10 54 ~12 ~10 30 ~12 ~10 5 ~12 replace
fill ~10 54 ~12 ~10 30 ~12 water
clone ~10 54 ~13 ~10 30 ~13 ~10 5 ~13 replace
fill ~10 54 ~13 ~10 30 ~13 water
clone ~10 54 ~14 ~10 30 ~14 ~10 5 ~14 replace
fill ~10 54 ~14 ~10 30 ~14 water
clone ~10 54 ~15 ~10 30 ~15 ~10 5 ~15 replace
fill ~10 54 ~15 ~10 30 ~15 water
clone ~11 54 ~0 ~11 30 ~0 ~11 5 ~0 replace
fill ~11 54 ~0 ~11 30 ~0 water
clone ~11 54 ~1 ~11 30 ~1 ~11 5 ~1 replace
fill ~11 54 ~1 ~11 30 ~1 water
clone ~11 54 ~2 ~11 30 ~2 ~11 5 ~2 replace
fill ~11 54 ~2 ~11 30 ~2 water
clone ~11 54 ~3 ~11 30 ~3 ~11 5 ~3 replace
fill ~11 54 ~3 ~11 30 ~3 water
clone ~11 54 ~4 ~11 30 ~4 ~11 5 ~4 replace
fill ~11 54 ~4 ~11 30 ~4 water
clone ~11 54 ~5 ~11 30 ~5 ~11 5 ~5 replace
fill ~11 54 ~5 ~11 30 ~5 water
clone ~11 54 ~6 ~11 30 ~6 ~11 5 ~6 replace
fill ~11 54 ~6 ~11 30 ~6 water
clone ~11 54 ~7 ~11 30 ~7 ~11 5 ~7 replace
fill ~11 54 ~7 ~11 30 ~7 water
clone ~11 54 ~8 ~11 30 ~8 ~11 5 ~8 replace
fill ~11 54 ~8 ~11 30 ~8 water
clone ~11 54 ~9 ~11 30 ~9 ~11 5 ~9 replace
fill ~11 54 ~9 ~11 30 ~9 water
clone ~11 54 ~10 ~11 30 ~10 ~11 5 ~10 replace
fill ~11 54 ~10 ~11 30 ~10 water
clone ~11 54 ~11 ~11 30 ~11 ~11 5 ~11 replace
fill ~11 54 ~11 ~11 30 ~11 water
clone ~11 54 ~12 ~11 30 ~12 ~11 5 ~12 replace
fill ~11 54 ~12 ~11 30 ~12 water
clone ~11 54 ~13 ~11 30 ~13 ~11 5 ~13 replace
fill ~11 54 ~13 ~11 30 ~13 water
clone ~11 54 ~14 ~11 30 ~14 ~11 5 ~14 replace
fill ~11 54 ~14 ~11 30 ~14 water
clone ~11 54 ~15 ~11 30 ~15 ~11 5 ~15 replace
fill ~11 54 ~15 ~11 30 ~15 water
clone ~12 54 ~0 ~12 30 ~0 ~12 5 ~0 replace
fill ~12 54 ~0 ~12 30 ~0 water
clone ~12 54 ~1 ~12 30 ~1 ~12 5 ~1 replace
fill ~12 54 ~1 ~12 30 ~1 water
clone ~12 54 ~2 ~12 30 ~2 ~12 5 ~2 replace
fill ~12 54 ~2 ~12 30 ~2 water
clone ~12 54 ~3 ~12 30 ~3 ~12 5 ~3 replace
fill ~12 54 ~3 ~12 30 ~3 water
clone ~12 54 ~4 ~12 30 ~4 ~12 5 ~4 replace
fill ~12 54 ~4 ~12 30 ~4 water
clone ~12 54 ~5 ~12 30 ~5 ~12 5 ~5 replace
fill ~12 54 ~5 ~12 30 ~5 water
clone ~12 54 ~6 ~12 30 ~6 ~12 5 ~6 replace
fill ~12 54 ~6 ~12 30 ~6 water
clone ~12 54 ~7 ~12 30 ~7 ~12 5 ~7 replace
fill ~12 54 ~7 ~12 30 ~7 water
clone ~12 54 ~8 ~12 30 ~8 ~12 5 ~8 replace
fill ~12 54 ~8 ~12 30 ~8 water
clone ~12 54 ~9 ~12 30 ~9 ~12 5 ~9 replace
fill ~12 54 ~9 ~12 30 ~9 water
clone ~12 54 ~10 ~12 30 ~10 ~12 5 ~10 replace
fill ~12 54 ~10 ~12 30 ~10 water
clone ~12 54 ~11 ~12 30 ~11 ~12 5 ~11 replace
fill ~12 54 ~11 ~12 30 ~11 water
clone ~12 54 ~12 ~12 30 ~12 ~12 5 ~12 replace
fill ~12 54 ~12 ~12 30 ~12 water
clone ~12 54 ~13 ~12 30 ~13 ~12 5 ~13 replace
fill ~12 54 ~13 ~12 30 ~13 water
clone ~12 54 ~14 ~12 30 ~14 ~12 5 ~14 replace
fill ~12 54 ~14 ~12 30 ~14 water
clone ~12 54 ~15 ~12 30 ~15 ~12 5 ~15 replace
fill ~12 54 ~15 ~12 30 ~15 water
clone ~13 54 ~0 ~13 30 ~0 ~13 5 ~0 replace
fill ~13 54 ~0 ~13 30 ~0 water
clone ~13 54 ~1 ~13 30 ~1 ~13 5 ~1 replace
fill ~13 54 ~1 ~13 30 ~1 water
clone ~13 54 ~2 ~13 30 ~2 ~13 5 ~2 replace
fill ~13 54 ~2 ~13 30 ~2 water
clone ~13 54 ~3 ~13 30 ~3 ~13 5 ~3 replace
fill ~13 54 ~3 ~13 30 ~3 water
clone ~13 54 ~4 ~13 30 ~4 ~13 5 ~4 replace
fill ~13 54 ~4 ~13 30 ~4 water
clone ~13 54 ~5 ~13 30 ~5 ~13 5 ~5 replace
fill ~13 54 ~5 ~13 30 ~5 water
clone ~13 54 ~6 ~13 30 ~6 ~13 5 ~6 replace
fill ~13 54 ~6 ~13 30 ~6 water
clone ~13 54 ~7 ~13 30 ~7 ~13 5 ~7 replace
fill ~13 54 ~7 ~13 30 ~7 water
clone ~13 54 ~8 ~13 30 ~8 ~13 5 ~8 replace
fill ~13 54 ~8 ~13 30 ~8 water
clone ~13 54 ~9 ~13 30 ~9 ~13 5 ~9 replace
fill ~13 54 ~9 ~13 30 ~9 water
clone ~13 54 ~10 ~13 30 ~10 ~13 5 ~10 replace
fill ~13 54 ~10 ~13 30 ~10 water
clone ~13 54 ~11 ~13 30 ~11 ~13 5 ~11 replace
fill ~13 54 ~11 ~13 30 ~11 water
clone ~13 54 ~12 ~13 30 ~12 ~13 5 ~12 replace
fill ~13 54 ~12 ~13 30 ~12 water
clone ~13 54 ~13 ~13 30 ~13 ~13 5 ~13 replace
fill ~13 54 ~13 ~13 30 ~13 water
clone ~13 54 ~14 ~13 30 ~14 ~13 5 ~14 replace
fill ~13 54 ~14 ~13 30 ~14 water
clone ~13 54 ~15 ~13 30 ~15 ~13 5 ~15 replace
fill ~13 54 ~15 ~13 30 ~15 water
clone ~14 54 ~0 ~14 30 ~0 ~14 5 ~0 replace
fill ~14 54 ~0 ~14 30 ~0 water
clone ~14 54 ~1 ~14 30 ~1 ~14 5 ~1 replace
fill ~14 54 ~1 ~14 30 ~1 water
clone ~14 54 ~2 ~14 30 ~2 ~14 5 ~2 replace
fill ~14 54 ~2 ~14 30 ~2 water
clone ~14 54 ~3 ~14 30 ~3 ~14 5 ~3 replace
fill ~14 54 ~3 ~14 30 ~3 water
clone ~14 54 ~4 ~14 30 ~4 ~14 5 ~4 replace
fill ~14 54 ~4 ~14 30 ~4 water
clone ~14 54 ~5 ~14 30 ~5 ~14 5 ~5 replace
fill ~14 54 ~5 ~14 30 ~5 water
clone ~14 54 ~6 ~14 30 ~6 ~14 5 ~6 replace
fill ~14 54 ~6 ~14 30 ~6 water
clone ~14 54 ~7 ~14 30 ~7 ~14 5 ~7 replace
fill ~14 54 ~7 ~14 30 ~7 water
clone ~14 54 ~8 ~14 30 ~8 ~14 5 ~8 replace
fill ~14 54 ~8 ~14 30 ~8 water
clone ~14 54 ~9 ~14 30 ~9 ~14 5 ~9 replace
fill ~14 54 ~9 ~14 30 ~9 water
clone ~14 54 ~10 ~14 30 ~10 ~14 5 ~10 replace
fill ~14 54 ~10 ~14 30 ~10 water
clone ~14 54 ~11 ~14 30 ~11 ~14 5 ~11 replace
fill ~14 54 ~11 ~14 30 ~11 water
clone ~14 54 ~12 ~14 30 ~12 ~14 5 ~12 replace
fill ~14 54 ~12 ~14 30 ~12 water
clone ~14 54 ~13 ~14 30 ~13 ~14 5 ~13 replace
fill ~14 54 ~13 ~14 30 ~13 water
clone ~14 54 ~14 ~14 30 ~14 ~14 5 ~14 replace
fill ~14 54 ~14 ~14 30 ~14 water
clone ~14 54 ~15 ~14 30 ~15 ~14 5 ~15 replace
fill ~14 54 ~15 ~14 30 ~15 water
clone ~15 54 ~0 ~15 30 ~0 ~15 5 ~0 replace
fill ~15 54 ~0 ~15 30 ~0 water
clone ~15 54 ~1 ~15 30 ~1 ~15 5 ~1 replace
fill ~15 54 ~1 ~15 30 ~1 water
clone ~15 54 ~2 ~15 30 ~2 ~15 5 ~2 replace
fill ~15 54 ~2 ~15 30 ~2 water
clone ~15 54 ~3 ~15 30 ~3 ~15 5 ~3 replace
fill ~15 54 ~3 ~15 30 ~3 water
clone ~15 54 ~4 ~15 30 ~4 ~15 5 ~4 replace
fill ~15 54 ~4 ~15 30 ~4 water
clone ~15 54 ~5 ~15 30 ~5 ~15 5 ~5 replace
fill ~15 54 ~5 ~15 30 ~5 water
clone ~15 54 ~6 ~15 30 ~6 ~15 5 ~6 replace
fill ~15 54 ~6 ~15 30 ~6 water
clone ~15 54 ~7 ~15 30 ~7 ~15 5 ~7 replace
fill ~15 54 ~7 ~15 30 ~7 water
clone ~15 54 ~8 ~15 30 ~8 ~15 5 ~8 replace
fill ~15 54 ~8 ~15 30 ~8 water
clone ~15 54 ~9 ~15 30 ~9 ~15 5 ~9 replace
fill ~15 54 ~9 ~15 30 ~9 water
clone ~15 54 ~10 ~15 30 ~10 ~15 5 ~10 replace
fill ~15 54 ~10 ~15 30 ~10 water
clone ~15 54 ~11 ~15 30 ~11 ~15 5 ~11 replace
fill ~15 54 ~11 ~15 30 ~11 water
clone ~15 54 ~12 ~15 30 ~12 ~15 5 ~12 replace
fill ~15 54 ~12 ~15 30 ~12 water
clone ~15 54 ~13 ~15 30 ~13 ~15 5 ~13 replace
fill ~15 54 ~13 ~15 30 ~13 water
clone ~15 54 ~14 ~15 30 ~14 ~15 5 ~14 replace
fill ~15 54 ~14 ~15 30 ~14 water
clone ~15 54 ~15 ~15 30 ~15 ~15 5 ~15 replace
fill ~15 54 ~15 ~15 30 ~15 water