function utils:free_items/reset
function utils:free_items/calc_cooldown
function utils:free_items/click
tellraw @s [{"text":"\n\n\n\n\n\n"},{"text":"\u2581\u2582\u2583\u2584\u2585\u2586\u2587\u2588\u2593\u2592\u2591","color":"dark_aqua"},{"text":"Make a choice","bold":true,"color":"white"},{"text":"\u2591\u2592\u2593\u2588\u2587\u2586\u2585\u2584\u2583\u2582\u2581","color":"dark_aqua"}]
scoreboard players set @s freeItemCooldown 400
function utils:free_items/set_cooldown
tellraw @s[scores={reputation=0..}] [{"text":"","clickEvent":{"action":"run_command","value":"/trigger trgFreeItem set 40832"},"extra":[{"text":"\u1455\u1368\u25ba ","bold":true,"color":"gold"},{"text":"Glass Bottle","underlined":true,"color":"yellow"},{"text":" \u27f2 ","bold":true,"color":"gold"},{"score":{"name":"@s","objective":"freeItemSecs"},"color":"aqua","bold":false},{"text":"s","bold":true,"color":"dark_aqua"},{"text":" \u25c4\u1368\u1450","bold":true,"color":"gold"}],"hoverEvent":{"value":"{Count:1b,id:glass_bottle,tag:{display:{Lore:['{\"text\":\"Click to get this bonus\",\"color\":\"white\",\"italic\":true}','[{\"text\":\"Base cooldown: \",\"italic\":false,\"color\":\"gray\"},{\"text\":\"20\",\"color\":\"aqua\",\"italic\":false},{\"text\":\" seconds\",\"color\":\"dark_aqua\",\"italic\":false}]']}}}","action":"show_item"}}]
execute unless score @s reputation matches 0.. unless score @s freeItemPeek matches 1.. run tellraw @s [{"color":"gray","text":"","extra":[{"text":"\u1455\u1368\u25ba ","bold":true},{"text":"Glass Bottle ","bold":false,"obfuscated":false},{"text":" \u26a0 ","color":"dark_red","bold":false},{"text":"0","color":"green"},{"text":"\u2698 ","bold":true,"color":"dark_green"},{"text":"\u25c4\u1368\u1450","bold":true,"color":"gray"}],"hoverEvent":{"value":"{Count:1b,id:glass_bottle,tag:{display:{Name:'{\"text\":Glass Bottle,\"color\":\"gray\"}',Lore:['[{\"text\":\"\u26a0 \",\"color\":\"dark_red\",\"italic\":false},{\"text\":\"Requires \",\"color\":\"white\",\"italic\":false},{\"text\":\"0 \",\"color\":\"green\",\"italic\":false},{\"italic\":false,\"text\":\"\u2698\",\"color\":\"dark_green\",\"bold\":true},{\"italic\":false,\"text\":\"Reputation\",\"color\":\"dark_green\"}]']}}}","action":"show_item"}}]
execute unless score @s reputation matches 0.. if score @s freeItemPeek matches 1.. run tellraw @s [{"color":"gray","text":"","extra":[{"text":"\u1455\u1368\u25ba ","bold":true},{"text":"lGlBetssoa t ","bold":false,"obfuscated":true},{"text":" \u26a0 ","color":"dark_red","bold":false},{"text":"0","color":"green"},{"text":"\u2698 ","bold":true,"color":"dark_green"},{"text":"\u25c4\u1368\u1450","bold":true,"color":"gray"}],"hoverEvent":{"value":"{id:enchanted_book,Count:1b,tag:{display:{Lore:['[{\"text\":\"\u26a0 \",\"color\":\"dark_red\",\"italic\":false},{\"text\":\"Requires \",\"color\":\"white\",\"italic\":false},{\"text\":\"0 \",\"color\":\"green\",\"italic\":false},{\"italic\":false,\"text\":\"\u2698\",\"color\":\"dark_green\",\"bold\":true},{\"italic\":false,\"text\":\"Reputation\",\"color\":\"dark_green\"}]'],Name:'{\"text\":\"Unknown\",\"color\":\"gray\",\"bold\":\"false\",\"italic\":false}'}}}","action":"show_item"}}]
execute unless score @s reputation matches 0.. unless score @s freeItemPeek matches 1.. run scoreboard players set @s freeItemPeek 1
scoreboard players set @s freeItemCooldown 400
function utils:free_items/set_cooldown
tellraw @s[scores={reputation=5..}] [{"text":"","clickEvent":{"action":"run_command","value":"/trigger trgFreeItem set 55162"},"extra":[{"text":"\u1455\u1368\u25ba ","bold":true,"color":"gold"},{"text":"Water Bottle","underlined":true,"color":"yellow"},{"text":" \u27f2 ","bold":true,"color":"gold"},{"score":{"name":"@s","objective":"freeItemSecs"},"color":"aqua","bold":false},{"text":"s","bold":true,"color":"dark_aqua"},{"text":" \u25c4\u1368\u1450","bold":true,"color":"gold"}],"hoverEvent":{"value":"{Count:1b,id:potion,tag:{display:{Lore:['{\"text\":\"Click to get this bonus\",\"color\":\"white\",\"italic\":true}','[{\"text\":\"Base cooldown: \",\"italic\":false,\"color\":\"gray\"},{\"text\":\"20\",\"color\":\"aqua\",\"italic\":false},{\"text\":\" seconds\",\"color\":\"dark_aqua\",\"italic\":false}]']},Potion:\"minecraft:water\"}}","action":"show_item"}}]
execute unless score @s reputation matches 5.. unless score @s freeItemPeek matches 1.. run tellraw @s [{"color":"gray","text":"","extra":[{"text":"\u1455\u1368\u25ba ","bold":true},{"text":"Water Bottle ","bold":false,"obfuscated":false},{"text":" \u26a0 ","color":"dark_red","bold":false},{"text":"5","color":"green"},{"text":"\u2698 ","bold":true,"color":"dark_green"},{"text":"\u25c4\u1368\u1450","bold":true,"color":"gray"}],"hoverEvent":{"value":"{Count:1b,id:potion,tag:{display:{Name:'{\"text\":Water Bottle,\"color\":\"gray\"}',Lore:['[{\"text\":\"\u26a0 \",\"color\":\"dark_red\",\"italic\":false},{\"text\":\"Requires \",\"color\":\"white\",\"italic\":false},{\"text\":\"5 \",\"color\":\"green\",\"italic\":false},{\"italic\":false,\"text\":\"\u2698\",\"color\":\"dark_green\",\"bold\":true},{\"italic\":false,\"text\":\"Reputation\",\"color\":\"dark_green\"}]']},Potion:\"minecraft:water\"}}","action":"show_item"}}]
execute unless score @s reputation matches 5.. if score @s freeItemPeek matches 1.. run tellraw @s [{"color":"gray","text":"","extra":[{"text":"\u1455\u1368\u25ba ","bold":true},{"text":"lt teorBteWa ","bold":false,"obfuscated":true},{"text":" \u26a0 ","color":"dark_red","bold":false},{"text":"5","color":"green"},{"text":"\u2698 ","bold":true,"color":"dark_green"},{"text":"\u25c4\u1368\u1450","bold":true,"color":"gray"}],"hoverEvent":{"value":"{id:enchanted_book,Count:1b,tag:{display:{Lore:['[{\"text\":\"\u26a0 \",\"color\":\"dark_red\",\"italic\":false},{\"text\":\"Requires \",\"color\":\"white\",\"italic\":false},{\"text\":\"5 \",\"color\":\"green\",\"italic\":false},{\"italic\":false,\"text\":\"\u2698\",\"color\":\"dark_green\",\"bold\":true},{\"italic\":false,\"text\":\"Reputation\",\"color\":\"dark_green\"}]'],Name:'{\"text\":\"Unknown\",\"color\":\"gray\",\"bold\":\"false\",\"italic\":false}'}}}","action":"show_item"}}]
execute unless score @s reputation matches 5.. unless score @s freeItemPeek matches 1.. run scoreboard players set @s freeItemPeek 1
scoreboard players set @s freeItemCooldown 500
function utils:free_items/set_cooldown
tellraw @s[scores={reputation=10..}] [{"text":"","clickEvent":{"action":"run_command","value":"/trigger trgFreeItem set 61723"},"extra":[{"text":"\u1455\u1368\u25ba ","bold":true,"color":"gold"},{"text":"Regeneration Potion","underlined":true,"color":"yellow"},{"text":" \u27f2 ","bold":true,"color":"gold"},{"score":{"name":"@s","objective":"freeItemSecs"},"color":"aqua","bold":false},{"text":"s","bold":true,"color":"dark_aqua"},{"text":" \u25c4\u1368\u1450","bold":true,"color":"gold"}],"hoverEvent":{"value":"{Count:1b,id:potion,tag:{display:{Lore:['{\"text\":\"Click to get this bonus\",\"color\":\"white\",\"italic\":true}','[{\"text\":\"Base cooldown: \",\"italic\":false,\"color\":\"gray\"},{\"text\":\"25\",\"color\":\"aqua\",\"italic\":false},{\"text\":\" seconds\",\"color\":\"dark_aqua\",\"italic\":false}]']},Potion:\"minecraft:regeneration\"}}","action":"show_item"}}]
execute unless score @s reputation matches 10.. unless score @s freeItemPeek matches 1.. run tellraw @s [{"color":"gray","text":"","extra":[{"text":"\u1455\u1368\u25ba ","bold":true},{"text":"Regeneration Potion ","bold":false,"obfuscated":false},{"text":" \u26a0 ","color":"dark_red","bold":false},{"text":"10","color":"green"},{"text":"\u2698 ","bold":true,"color":"dark_green"},{"text":"\u25c4\u1368\u1450","bold":true,"color":"gray"}],"hoverEvent":{"value":"{Count:1b,id:potion,tag:{display:{Name:'{\"text\":Regeneration Potion,\"color\":\"gray\"}',Lore:['[{\"text\":\"\u26a0 \",\"color\":\"dark_red\",\"italic\":false},{\"text\":\"Requires \",\"color\":\"white\",\"italic\":false},{\"text\":\"10 \",\"color\":\"green\",\"italic\":false},{\"italic\":false,\"text\":\"\u2698\",\"color\":\"dark_green\",\"bold\":true},{\"italic\":false,\"text\":\"Reputation\",\"color\":\"dark_green\"}]']},Potion:\"minecraft:regeneration\"}}","action":"show_item"}}]
execute unless score @s reputation matches 10.. if score @s freeItemPeek matches 1.. run tellraw @s [{"color":"gray","text":"","extra":[{"text":"\u1455\u1368\u25ba ","bold":true},{"text":"ioRt enanegotnioreP ","bold":false,"obfuscated":true},{"text":" \u26a0 ","color":"dark_red","bold":false},{"text":"10","color":"green"},{"text":"\u2698 ","bold":true,"color":"dark_green"},{"text":"\u25c4\u1368\u1450","bold":true,"color":"gray"}],"hoverEvent":{"value":"{id:enchanted_book,Count:1b,tag:{display:{Lore:['[{\"text\":\"\u26a0 \",\"color\":\"dark_red\",\"italic\":false},{\"text\":\"Requires \",\"color\":\"white\",\"italic\":false},{\"text\":\"10 \",\"color\":\"green\",\"italic\":false},{\"italic\":false,\"text\":\"\u2698\",\"color\":\"dark_green\",\"bold\":true},{\"italic\":false,\"text\":\"Reputation\",\"color\":\"dark_green\"}]'],Name:'{\"text\":\"Unknown\",\"color\":\"gray\",\"bold\":\"false\",\"italic\":false}'}}}","action":"show_item"}}]
execute unless score @s reputation matches 10.. unless score @s freeItemPeek matches 1.. run scoreboard players set @s freeItemPeek 1
scoreboard players set @s freeItemCooldown 600
function utils:free_items/set_cooldown
tellraw @s[scores={reputation=15..}] [{"text":"","clickEvent":{"action":"run_command","value":"/trigger trgFreeItem set 73785"},"extra":[{"text":"\u1455\u1368\u25ba ","bold":true,"color":"gold"},{"text":"Poison","underlined":true,"color":"yellow"},{"text":" \u27f2 ","bold":true,"color":"gold"},{"score":{"name":"@s","objective":"freeItemSecs"},"color":"aqua","bold":false},{"text":"s","bold":true,"color":"dark_aqua"},{"text":" \u25c4\u1368\u1450","bold":true,"color":"gold"}],"hoverEvent":{"value":"{Count:1b,id:potion,tag:{display:{Lore:['{\"text\":\"Click to get this bonus\",\"color\":\"white\",\"italic\":true}','[{\"text\":\"Base cooldown: \",\"italic\":false,\"color\":\"gray\"},{\"text\":\"30\",\"color\":\"aqua\",\"italic\":false},{\"text\":\" seconds\",\"color\":\"dark_aqua\",\"italic\":false}]']},Potion:\"minecraft:poison\"}}","action":"show_item"}}]
execute unless score @s reputation matches 15.. unless score @s freeItemPeek matches 1.. run tellraw @s [{"color":"gray","text":"","extra":[{"text":"\u1455\u1368\u25ba ","bold":true},{"text":"Poison ","bold":false,"obfuscated":false},{"text":" \u26a0 ","color":"dark_red","bold":false},{"text":"15","color":"green"},{"text":"\u2698 ","bold":true,"color":"dark_green"},{"text":"\u25c4\u1368\u1450","bold":true,"color":"gray"}],"hoverEvent":{"value":"{Count:1b,id:potion,tag:{display:{Name:'{\"text\":Poison,\"color\":\"gray\"}',Lore:['[{\"text\":\"\u26a0 \",\"color\":\"dark_red\",\"italic\":false},{\"text\":\"Requires \",\"color\":\"white\",\"italic\":false},{\"text\":\"15 \",\"color\":\"green\",\"italic\":false},{\"italic\":false,\"text\":\"\u2698\",\"color\":\"dark_green\",\"bold\":true},{\"italic\":false,\"text\":\"Reputation\",\"color\":\"dark_green\"}]']},Potion:\"minecraft:poison\"}}","action":"show_item"}}]
execute unless score @s reputation matches 15.. if score @s freeItemPeek matches 1.. run tellraw @s [{"color":"gray","text":"","extra":[{"text":"\u1455\u1368\u25ba ","bold":true},{"text":"snoiPo ","bold":false,"obfuscated":true},{"text":" \u26a0 ","color":"dark_red","bold":false},{"text":"15","color":"green"},{"text":"\u2698 ","bold":true,"color":"dark_green"},{"text":"\u25c4\u1368\u1450","bold":true,"color":"gray"}],"hoverEvent":{"value":"{id:enchanted_book,Count:1b,tag:{display:{Lore:['[{\"text\":\"\u26a0 \",\"color\":\"dark_red\",\"italic\":false},{\"text\":\"Requires \",\"color\":\"white\",\"italic\":false},{\"text\":\"15 \",\"color\":\"green\",\"italic\":false},{\"italic\":false,\"text\":\"\u2698\",\"color\":\"dark_green\",\"bold\":true},{\"italic\":false,\"text\":\"Reputation\",\"color\":\"dark_green\"}]'],Name:'{\"text\":\"Unknown\",\"color\":\"gray\",\"bold\":\"false\",\"italic\":false}'}}}","action":"show_item"}}]
execute unless score @s reputation matches 15.. unless score @s freeItemPeek matches 1.. run scoreboard players set @s freeItemPeek 1
scoreboard players set @s freeItemCooldown 700
function utils:free_items/set_cooldown
tellraw @s[scores={reputation=20..}] [{"text":"","clickEvent":{"action":"run_command","value":"/trigger trgFreeItem set 86729"},"extra":[{"text":"\u1455\u1368\u25ba ","bold":true,"color":"gold"},{"text":"Healing Potion","underlined":true,"color":"yellow"},{"text":" \u27f2 ","bold":true,"color":"gold"},{"score":{"name":"@s","objective":"freeItemSecs"},"color":"aqua","bold":false},{"text":"s","bold":true,"color":"dark_aqua"},{"text":" \u25c4\u1368\u1450","bold":true,"color":"gold"}],"hoverEvent":{"value":"{Count:1b,id:potion,tag:{display:{Lore:['{\"text\":\"Click to get this bonus\",\"color\":\"white\",\"italic\":true}','[{\"text\":\"Base cooldown: \",\"italic\":false,\"color\":\"gray\"},{\"text\":\"35\",\"color\":\"aqua\",\"italic\":false},{\"text\":\" seconds\",\"color\":\"dark_aqua\",\"italic\":false}]']},Potion:\"minecraft:healing\"}}","action":"show_item"}}]
execute unless score @s reputation matches 20.. unless score @s freeItemPeek matches 1.. run tellraw @s [{"color":"gray","text":"","extra":[{"text":"\u1455\u1368\u25ba ","bold":true},{"text":"Healing Potion ","bold":false,"obfuscated":false},{"text":" \u26a0 ","color":"dark_red","bold":false},{"text":"20","color":"green"},{"text":"\u2698 ","bold":true,"color":"dark_green"},{"text":"\u25c4\u1368\u1450","bold":true,"color":"gray"}],"hoverEvent":{"value":"{Count:1b,id:potion,tag:{display:{Name:'{\"text\":Healing Potion,\"color\":\"gray\"}',Lore:['[{\"text\":\"\u26a0 \",\"color\":\"dark_red\",\"italic\":false},{\"text\":\"Requires \",\"color\":\"white\",\"italic\":false},{\"text\":\"20 \",\"color\":\"green\",\"italic\":false},{\"italic\":false,\"text\":\"\u2698\",\"color\":\"dark_green\",\"bold\":true},{\"italic\":false,\"text\":\"Reputation\",\"color\":\"dark_green\"}]']},Potion:\"minecraft:healing\"}}","action":"show_item"}}]
execute unless score @s reputation matches 20.. if score @s freeItemPeek matches 1.. run tellraw @s [{"color":"gray","text":"","extra":[{"text":"\u1455\u1368\u25ba ","bold":true},{"text":"agi PtHolnoein ","bold":false,"obfuscated":true},{"text":" \u26a0 ","color":"dark_red","bold":false},{"text":"20","color":"green"},{"text":"\u2698 ","bold":true,"color":"dark_green"},{"text":"\u25c4\u1368\u1450","bold":true,"color":"gray"}],"hoverEvent":{"value":"{id:enchanted_book,Count:1b,tag:{display:{Lore:['[{\"text\":\"\u26a0 \",\"color\":\"dark_red\",\"italic\":false},{\"text\":\"Requires \",\"color\":\"white\",\"italic\":false},{\"text\":\"20 \",\"color\":\"green\",\"italic\":false},{\"italic\":false,\"text\":\"\u2698\",\"color\":\"dark_green\",\"bold\":true},{\"italic\":false,\"text\":\"Reputation\",\"color\":\"dark_green\"}]'],Name:'{\"text\":\"Unknown\",\"color\":\"gray\",\"bold\":\"false\",\"italic\":false}'}}}","action":"show_item"}}]
execute unless score @s reputation matches 20.. unless score @s freeItemPeek matches 1.. run scoreboard players set @s freeItemPeek 1
scoreboard players set @s freeItemCooldown 800
function utils:free_items/set_cooldown
tellraw @s[scores={reputation=25..}] [{"text":"","clickEvent":{"action":"run_command","value":"/trigger trgFreeItem set 96027"},"extra":[{"text":"\u1455\u1368\u25ba ","bold":true,"color":"gold"},{"text":"Strong Healing Potion","underlined":true,"color":"yellow"},{"text":" \u27f2 ","bold":true,"color":"gold"},{"score":{"name":"@s","objective":"freeItemSecs"},"color":"aqua","bold":false},{"text":"s","bold":true,"color":"dark_aqua"},{"text":" \u25c4\u1368\u1450","bold":true,"color":"gold"}],"hoverEvent":{"value":"{Count:1b,id:potion,tag:{display:{Lore:['{\"text\":\"Click to get this bonus\",\"color\":\"white\",\"italic\":true}','[{\"text\":\"Base cooldown: \",\"italic\":false,\"color\":\"gray\"},{\"text\":\"40\",\"color\":\"aqua\",\"italic\":false},{\"text\":\" seconds\",\"color\":\"dark_aqua\",\"italic\":false}]']},Potion:\"minecraft:strong_healing\"}}","action":"show_item"}}]
execute unless score @s reputation matches 25.. unless score @s freeItemPeek matches 1.. run tellraw @s [{"color":"gray","text":"","extra":[{"text":"\u1455\u1368\u25ba ","bold":true},{"text":"Strong Healing Potion ","bold":false,"obfuscated":false},{"text":" \u26a0 ","color":"dark_red","bold":false},{"text":"25","color":"green"},{"text":"\u2698 ","bold":true,"color":"dark_green"},{"text":"\u25c4\u1368\u1450","bold":true,"color":"gray"}],"hoverEvent":{"value":"{Count:1b,id:potion,tag:{display:{Name:'{\"text\":Strong Healing Potion,\"color\":\"gray\"}',Lore:['[{\"text\":\"\u26a0 \",\"color\":\"dark_red\",\"italic\":false},{\"text\":\"Requires \",\"color\":\"white\",\"italic\":false},{\"text\":\"25 \",\"color\":\"green\",\"italic\":false},{\"italic\":false,\"text\":\"\u2698\",\"color\":\"dark_green\",\"bold\":true},{\"italic\":false,\"text\":\"Reputation\",\"color\":\"dark_green\"}]']},Potion:\"minecraft:strong_healing\"}}","action":"show_item"}}]
execute unless score @s reputation matches 25.. if score @s freeItemPeek matches 1.. run tellraw @s [{"color":"gray","text":"","extra":[{"text":"\u1455\u1368\u25ba ","bold":true},{"text":"Pt notr oigHlneiaognS ","bold":false,"obfuscated":true},{"text":" \u26a0 ","color":"dark_red","bold":false},{"text":"25","color":"green"},{"text":"\u2698 ","bold":true,"color":"dark_green"},{"text":"\u25c4\u1368\u1450","bold":true,"color":"gray"}],"hoverEvent":{"value":"{id:enchanted_book,Count:1b,tag:{display:{Lore:['[{\"text\":\"\u26a0 \",\"color\":\"dark_red\",\"italic\":false},{\"text\":\"Requires \",\"color\":\"white\",\"italic\":false},{\"text\":\"25 \",\"color\":\"green\",\"italic\":false},{\"italic\":false,\"text\":\"\u2698\",\"color\":\"dark_green\",\"bold\":true},{\"italic\":false,\"text\":\"Reputation\",\"color\":\"dark_green\"}]'],Name:'{\"text\":\"Unknown\",\"color\":\"gray\",\"bold\":\"false\",\"italic\":false}'}}}","action":"show_item"}}]
execute unless score @s reputation matches 25.. unless score @s freeItemPeek matches 1.. run scoreboard players set @s freeItemPeek 1
scoreboard players set @s freeItemCooldown 900
function utils:free_items/set_cooldown
tellraw @s[scores={reputation=30..}] [{"text":"","clickEvent":{"action":"run_command","value":"/trigger trgFreeItem set 106348"},"extra":[{"text":"\u1455\u1368\u25ba ","bold":true,"color":"gold"},{"text":"Splash Regen Potion","underlined":true,"color":"yellow"},{"text":" \u27f2 ","bold":true,"color":"gold"},{"score":{"name":"@s","objective":"freeItemSecs"},"color":"aqua","bold":false},{"text":"s","bold":true,"color":"dark_aqua"},{"text":" \u25c4\u1368\u1450","bold":true,"color":"gold"}],"hoverEvent":{"value":"{Count:1b,id:splash_potion,tag:{display:{Lore:['{\"text\":\"Click to get this bonus\",\"color\":\"white\",\"italic\":true}','[{\"text\":\"Base cooldown: \",\"italic\":false,\"color\":\"gray\"},{\"text\":\"45\",\"color\":\"aqua\",\"italic\":false},{\"text\":\" seconds\",\"color\":\"dark_aqua\",\"italic\":false}]']},Potion:\"minecraft:strong_regeneration\"}}","action":"show_item"}}]
execute unless score @s reputation matches 30.. unless score @s freeItemPeek matches 1.. run tellraw @s [{"color":"gray","text":"","extra":[{"text":"\u1455\u1368\u25ba ","bold":true},{"text":"Splash Regen Potion ","bold":false,"obfuscated":false},{"text":" \u26a0 ","color":"dark_red","bold":false},{"text":"30","color":"green"},{"text":"\u2698 ","bold":true,"color":"dark_green"},{"text":"\u25c4\u1368\u1450","bold":true,"color":"gray"}],"hoverEvent":{"value":"{Count:1b,id:splash_potion,tag:{display:{Name:'{\"text\":Splash Regen Potion,\"color\":\"gray\"}',Lore:['[{\"text\":\"\u26a0 \",\"color\":\"dark_red\",\"italic\":false},{\"text\":\"Requires \",\"color\":\"white\",\"italic\":false},{\"text\":\"30 \",\"color\":\"green\",\"italic\":false},{\"italic\":false,\"text\":\"\u2698\",\"color\":\"dark_green\",\"bold\":true},{\"italic\":false,\"text\":\"Reputation\",\"color\":\"dark_green\"}]']},Potion:\"minecraft:strong_regeneration\"}}","action":"show_item"}}]
execute unless score @s reputation matches 30.. if score @s freeItemPeek matches 1.. run tellraw @s [{"color":"gray","text":"","extra":[{"text":"\u1455\u1368\u25ba ","bold":true},{"text":"psPgiS Ranoeotnl he ","bold":false,"obfuscated":true},{"text":" \u26a0 ","color":"dark_red","bold":false},{"text":"30","color":"green"},{"text":"\u2698 ","bold":true,"color":"dark_green"},{"text":"\u25c4\u1368\u1450","bold":true,"color":"gray"}],"hoverEvent":{"value":"{id:enchanted_book,Count:1b,tag:{display:{Lore:['[{\"text\":\"\u26a0 \",\"color\":\"dark_red\",\"italic\":false},{\"text\":\"Requires \",\"color\":\"white\",\"italic\":false},{\"text\":\"30 \",\"color\":\"green\",\"italic\":false},{\"italic\":false,\"text\":\"\u2698\",\"color\":\"dark_green\",\"bold\":true},{\"italic\":false,\"text\":\"Reputation\",\"color\":\"dark_green\"}]'],Name:'{\"text\":\"Unknown\",\"color\":\"gray\",\"bold\":\"false\",\"italic\":false}'}}}","action":"show_item"}}]
execute unless score @s reputation matches 30.. unless score @s freeItemPeek matches 1.. run scoreboard players set @s freeItemPeek 1
scoreboard players set @s freeItemCooldown 1000
function utils:free_items/set_cooldown
tellraw @s[scores={reputation=35..}] [{"text":"","clickEvent":{"action":"run_command","value":"/trigger trgFreeItem set 115188"},"extra":[{"text":"\u1455\u1368\u25ba ","bold":true,"color":"gold"},{"text":"Lingering Healing Potion","underlined":true,"color":"yellow"},{"text":" \u27f2 ","bold":true,"color":"gold"},{"score":{"name":"@s","objective":"freeItemSecs"},"color":"aqua","bold":false},{"text":"s","bold":true,"color":"dark_aqua"},{"text":" \u25c4\u1368\u1450","bold":true,"color":"gold"}],"hoverEvent":{"value":"{Count:1b,id:lingering_potion,tag:{display:{Lore:['{\"text\":\"Click to get this bonus\",\"color\":\"white\",\"italic\":true}','[{\"text\":\"Base cooldown: \",\"italic\":false,\"color\":\"gray\"},{\"text\":\"50\",\"color\":\"aqua\",\"italic\":false},{\"text\":\" seconds\",\"color\":\"dark_aqua\",\"italic\":false}]']},Potion:\"minecraft:strong_healing\"}}","action":"show_item"}}]
execute unless score @s reputation matches 35.. unless score @s freeItemPeek matches 1.. run tellraw @s [{"color":"gray","text":"","extra":[{"text":"\u1455\u1368\u25ba ","bold":true},{"text":"Lingering Healing Potion ","bold":false,"obfuscated":false},{"text":" \u26a0 ","color":"dark_red","bold":false},{"text":"35","color":"green"},{"text":"\u2698 ","bold":true,"color":"dark_green"},{"text":"\u25c4\u1368\u1450","bold":true,"color":"gray"}],"hoverEvent":{"value":"{Count:1b,id:lingering_potion,tag:{display:{Name:'{\"text\":Lingering Healing Potion,\"color\":\"gray\"}',Lore:['[{\"text\":\"\u26a0 \",\"color\":\"dark_red\",\"italic\":false},{\"text\":\"Requires \",\"color\":\"white\",\"italic\":false},{\"text\":\"35 \",\"color\":\"green\",\"italic\":false},{\"italic\":false,\"text\":\"\u2698\",\"color\":\"dark_green\",\"bold\":true},{\"italic\":false,\"text\":\"Reputation\",\"color\":\"dark_green\"}]']},Potion:\"minecraft:strong_healing\"}}","action":"show_item"}}]
execute unless score @s reputation matches 35.. if score @s freeItemPeek matches 1.. run tellraw @s [{"color":"gray","text":"","extra":[{"text":"\u1455\u1368\u25ba ","bold":true},{"text":"eHgeigtiLno a grnlonniPi ","bold":false,"obfuscated":true},{"text":" \u26a0 ","color":"dark_red","bold":false},{"text":"35","color":"green"},{"text":"\u2698 ","bold":true,"color":"dark_green"},{"text":"\u25c4\u1368\u1450","bold":true,"color":"gray"}],"hoverEvent":{"value":"{id:enchanted_book,Count:1b,tag:{display:{Lore:['[{\"text\":\"\u26a0 \",\"color\":\"dark_red\",\"italic\":false},{\"text\":\"Requires \",\"color\":\"white\",\"italic\":false},{\"text\":\"35 \",\"color\":\"green\",\"italic\":false},{\"italic\":false,\"text\":\"\u2698\",\"color\":\"dark_green\",\"bold\":true},{\"italic\":false,\"text\":\"Reputation\",\"color\":\"dark_green\"}]'],Name:'{\"text\":\"Unknown\",\"color\":\"gray\",\"bold\":\"false\",\"italic\":false}'}}}","action":"show_item"}}]
execute unless score @s reputation matches 35.. unless score @s freeItemPeek matches 1.. run scoreboard players set @s freeItemPeek 1
tellraw @s [{"text":"\u2588\u2588\u2588\u2588\u2588\u2588\u2593\u2593\u2593\u2593\u2592\u2592\u2592\u2592\u2591\u2591\u2591\u2591\u2592\u2592\u2592\u2592\u2593\u2593\u2593\u2593\u2588\u2588\u2588\u2588\u2588\u2588","color":"dark_aqua"}]