function structures_crabmaster:randomizers/randomizer_1

scoreboard players set Landed ExtraLogic5556 0

execute positioned ~21 ~12 ~34 if score Random RandomOne5556 matches 0..249 run function cm_module_megamix:structures/ruins/wagon_2
execute positioned ~-30 ~12 ~27 if score Random RandomOne5556 matches 250..499 run function cm_module_megamix:structures/ruins/wagon_2
execute positioned ~-24 ~12 ~-29 if score Random RandomOne5556 matches 500..749 run function cm_module_megamix:structures/ruins/wagon_2
execute positioned ~32 ~12 ~-23 if score Random RandomOne5556 matches 750..999 run function cm_module_megamix:structures/ruins/wagon_2