#define tag emp_chest_se
fill 1443 94 10189 1468 98 10213 nether_quartz_ore replace barrel[facing=up]
kill @e[type=item,x=1443,y=94,z=10189,dx=25,dy=4,dz=24]
fill 1443 94 10189 1468 98 10213 barrel[facing=up]{LootTable:"chests:common/random"} replace nether_quartz_ore
tag @s add emp_chest_se